0:13,ASN,B
1:14,LEU,B
2:15,GLY,B
3:16,SER,B
4:17,LEU,B
5:18,LYS,B
6:40,ASP,B
7:41,MET,B
8:42,GLU,B
9:43,PHE,B
10:44,LYS,B
11:45,ASN,B
12:60,THR,A
13:61,VAL,A
14:62,LEU,A
15:63,GLY,A
16:64,TYR,A
17:65,THR,A
18:66,GLY,A
19:67,PRO,A
20:68,THR,A
21:241,ASN,B
22:242,ILE,B
23:243,ALA,B
24:244,GLY,B
25:245,MET,B
26:246,GLY,B
27:273,PHE,A
28:274,THR,A
29:275,THR,A
30:276,LEU,A
