0:66,ASN,B
1:66,ASN,A
2:67,LEU,A
3:67,LEU,B
4:70,ALA,B
5:70,ALA,A
6:71,HIS,A
7:71,HIS,B
8:74,ILE,A
9:74,ILE,B
10:75,ARG,B
11:75,ARG,A
12:76,ARG,A
13:76,ARG,B
14:77,PHE,A
15:77,PHE,B
16:78,GLU,B
17:78,GLU,A
18:79,SER,A
19:79,SER,B
20:81,ASP,A
21:82,GLU,A
22:82,GLU,B
23:141,GLY,A
24:141,GLY,B
25:501,TRP,B
26:502,TRP,A
