0:31,GLN,A
1:31,GLN,B
2:32,THR,A
3:32,THR,B
4:33,SER,A
5:33,SER,B
6:34,THR,A
7:34,THR,B
8:35,PHE,B
9:35,PHE,A
10:36,VAL,B
11:36,VAL,A
12:37,PHE,B
13:37,PHE,A
14:38,ASP,A
15:38,ASP,B
16:39,ASN,B
17:39,ASN,A
18:40,CYS,B
19:40,CYS,A
20:41,GLN,A
21:41,GLN,B
22:43,GLY,B
23:43,GLY,A
24:44,GLY,B
25:44,GLY,A
26:47,PHE,A
27:47,PHE,B
28:48,ALA,B
29:48,ALA,A
30:55,ILE,B
31:55,ILE,A
32:56,TYR,B
33:56,TYR,A
34:57,THR,B
35:57,THR,A
36:58,ARG,A
37:58,ARG,B
38:84,SER,B
39:84,SER,A
40:85,SER,B
41:85,SER,A
42:86,GLY,A
43:86,GLY,B
44:87,MET,B
45:87,MET,A
46:88,GLY,A
47:88,GLY,B
48:89,ALA,B
49:89,ALA,A
50:91,ALA,A
51:91,ALA,B
52:92,ALA,B
53:92,ALA,A
54:113,CYS,A
55:113,CYS,B
56:114,THR,A
57:114,THR,B
58:116,ALA,A
59:116,ALA,B
60:117,LEU,B
61:117,LEU,A
62:121,ALA,B
63:121,ALA,A
64:208,THR,A
65:208,THR,B
66:215,THR,B
67:215,THR,A
68:216,ASP,B
69:216,ASP,A
70:217,VAL,A
71:217,VAL,B
72:218,VAL,B
73:218,VAL,A
74:235,VAL,A
75:238,LYS,B
76:238,LYS,A
77:239,ASP,A
78:239,ASP,B
79:240,ILE,A
80:240,ILE,B
81:241,THR,B
82:241,THR,A
83:242,GLY,A
84:242,GLY,B
85:243,SER,B
86:243,SER,A
87:244,VAL,B
88:244,VAL,A
89:245,ILE,B
90:245,ILE,A
91:246,SER,B
92:246,SER,A
93:248,HIS,B
94:248,HIS,A
95:249,ASP,B
96:249,ASP,A
97:324,LYS,B
98:324,LYS,A
99:327,LEU,B
100:327,LEU,A
101:328,ASP,B
102:328,ASP,A
103:334,THR,B
104:334,THR,A
105:335,LEU,A
106:335,LEU,B
107:336,ALA,B
108:336,ALA,A
109:337,VAL,B
110:337,VAL,A
111:338,SER,A
112:338,SER,B
113:347,GLN,B
114:348,HIS,B
115:348,HIS,A
116:351,SER,B
117:351,SER,A
118:352,MET,B
119:352,MET,A
120:355,ALA,A
121:355,ALA,B
