0:118,LEU,B
1:118,LEU,A
2:119,LEU,B
3:119,LEU,A
4:120,ARG,B
5:122,ASP,A
6:155,ILE,B
7:155,ILE,A
8:156,LYS,A
9:156,LYS,B
10:159,ALA,B
11:159,ALA,A
12:160,HIS,B
13:160,HIS,A
14:163,ALA,B
15:163,ALA,A
16:164,GLY,B
17:184,THR,B
18:184,THR,A
19:185,ASN,A
20:185,ASN,B
21:186,GLN,A
22:186,GLN,B
23:187,PRO,A
24:187,PRO,B
25:188,LEU,B
26:188,LEU,A
27:189,LEU,A
28:189,LEU,B
29:190,GLY,A
30:190,GLY,B
31:191,TYR,A
32:191,TYR,B
33:192,THR,A
34:192,THR,B
35:193,ILE,A
36:193,ILE,B
37:195,THR,A
38:195,THR,B
39:196,MET,B
40:196,MET,A
41:197,ALA,A
42:197,ALA,B
43:198,LYS,B
44:198,LYS,A
45:199,GLY,B
46:199,GLY,A
47:200,ALA,B
48:200,ALA,A
49:201,LEU,A
50:201,LEU,B
51:202,GLU,B
52:202,GLU,A
53:203,GLY,B
54:203,GLY,A
55:204,LEU,B
56:204,LEU,A
57:206,ARG,A
58:206,ARG,B
59:207,SER,A
60:207,SER,B
61:208,ALA,B
62:208,ALA,A
63:210,LEU,A
64:210,LEU,B
65:211,GLU,B
66:211,GLU,A
67:215,LEU,B
