0:225,ASN,A
1:227,ASN,A
2:229,ILE,A
3:254,GLN,A
4:255,THR,A
5:256,LEU,A
6:257,THR,A
7:258,ASP,A
8:259,LYS,A
9:261,TYR,A
10:262,GLN,A
11:266,ASN,A
12:290,PRO,A
13:291,LYS,A
14:292,ASN,A
15:293,GLY,A
16:333,ASP,A
17:343,ARG,A
18:344,THR,A
19:345,PRO,A
20:347,SER,A
21:348,PHE,A
22:349,GLU,A
23:350,PRO,A
24:351,SER,A
25:352,ILE,A
26:353,ASP,A
27:354,TYR,A
28:355,VAL,A
29:389,ARG,A
30:390,THR,A
31:459,ASP,A
32:460,ARG,A
33:461,TRP,A
34:464,VAL,A
35:465,GLN,A
36:532,CYS,A
37:533,ALA,A
38:534,ALA,A
39:535,GLU,A
40:536,PHE,A
41:548,GLU,A
42:549,GLU,A
43:550,GLU,A
44:1534,THR,B
45:1535,SER,B
46:1536,MET,B
47:1537,THR,B
48:1538,GLY,B
49:1556,THR,B
50:1557,TYR,B
51:1558,PRO,B
52:1559,HIS,B
53:1562,ASN,B
54:1563,VAL,B
55:1584,ASP,B
56:1586,PRO,B
57:1587,LEU,B
58:1588,ILE,B
59:1589,ALA,B
60:1590,SER,B
61:1591,ASN,B
62:1592,PHE,B
63:1593,ARG,B
64:1614,ASP,B
65:1616,ARG,B
66:1617,LYS,B
67:1619,THR,B
68:1620,ARG,B
69:1623,ARG,B
70:1677,LEU,B
71:1794,ASN,B
72:1795,HIS,B
73:1796,PRO,B
74:1804,VAL,B
75:1805,VAL,B
76:1806,MET,B
77:1807,ILE,B
78:1832,LEU,B
79:1833,PHE,B
80:1834,ASP,B
81:1857,SER,B
82:1858,PRO,B
83:1859,GLY,B
84:1860,PRO,B
85:1861,HIS,B
