0:255,HIS,B
1:259,GLU,B
2:260,ALA,B
3:263,MET,B
4:264,VAL,B
5:265,PHE,B
6:266,TRP,B
7:267,HIS,B
8:268,ASN,B
9:271,TRP,B
10:272,THR,B
11:291,GLN,A
12:292,GLU,A
13:293,VAL,A
14:294,LYS,A
15:295,GLY,A
16:296,PRO,A
17:297,PHE,A
18:298,MET,A
19:299,MET,A
20:300,ASP,A
21:302,VAL,A
22:303,LEU,A
23:336,GLY,A
24:340,ILE,A
25:378,GLY,B
