0:13,ASP,B
1:16,GLU,B
2:17,GLU,B
3:20,GLY,B
4:39,LEU,B
5:40,HIS,B
6:41,CYS,B
7:81,PRO,B
8:82,PHE,B
9:85,GLU,B
10:86,PRO,B
11:89,ILE,B
12:90,ASN,B
13:94,CYS,B
14:107,ASN,B
15:108,PRO,B
16:109,LEU,B
17:110,HIS,B
18:111,LEU,B
19:112,CYS,B
20:113,TRP,B
21:114,GLU,B
22:115,SER,B
23:117,ASP,B
24:118,ASP,B
25:121,GLY,A
26:121,GLY,B
27:123,ASN,A
28:124,TRP,A
29:124,TRP,B
30:125,CYS,A
31:125,CYS,B
32:133,VAL,B
33:134,HIS,B
34:135,ALA,B
35:136,VAL,B
36:144,LEU,A
37:145,TYR,A
38:146,GLY,A
39:147,PRO,A
40:148,GLY,A
41:149,ALA,A
42:150,THR,A
43:151,VAL,A
44:152,ALA,A
45:153,GLY,A
46:154,PRO,A
47:155,GLN,A
48:156,GLN,A
49:157,ARG,A
50:158,GLY,A
51:160,HIS,A
52:161,PHE,A
53:162,VAL,A
54:163,VAL,A
