0:180,ALA,B
1:180,ALA,A
2:181,GLU,B
3:181,GLU,A
4:183,MET,A
5:183,MET,B
6:184,ALA,B
7:184,ALA,A
8:185,ARG,A
9:185,ARG,B
10:209,MET,A
11:209,MET,B
12:210,MET,B
13:210,MET,A
14:221,GLU,A
15:221,GLU,B
16:222,VAL,A
17:222,VAL,B
18:224,ALA,A
19:224,ALA,B
20:225,ALA,A
21:225,ALA,B
22:226,THR,A
23:226,THR,B
24:228,ALA,B
25:228,ALA,A
26:229,TYR,A
27:229,TYR,B
28:245,LEU,A
29:245,LEU,B
30:248,LYS,B
31:248,LYS,A
32:249,LEU,A
33:249,LEU,B
34:250,ALA,A
35:250,ALA,B
36:251,LYS,A
37:251,LYS,B
38:252,GLY,B
39:252,GLY,A
40:253,ILE,A
41:253,ILE,B
42:255,PHE,B
43:255,PHE,A
44:256,LEU,A
45:256,LEU,B
46:259,ASN,B
47:259,ASN,A
48:260,GLU,B
49:260,GLU,A
50:261,ASN,A
51:261,ASN,B
52:263,ARG,B
53:263,ARG,A
54:264,HIS,B
