0:21,GLU,B
1:22,ASP,B
2:23,ARG,B
3:24,PRO,B
4:25,ASP,B
5:26,ARG,B
6:35,PHE,B
7:36,ALA,B
8:151,TYR,A
9:152,ASP,A
10:153,ARG,A
11:154,ARG,A
12:178,GLN,A
13:180,TYR,A
14:182,HIS,A
15:183,ILE,A
16:195,GLN,A
17:199,ARG,B
18:200,SER,B
19:233,ILE,A
20:237,GLY,B
21:238,ASP,B
