0:114,GLU,A
1:115,ALA,B
2:115,ALA,A
3:116,LYS,A
4:116,LYS,B
5:117,ASP,B
6:117,ASP,A
7:138,SER,A
8:139,GLN,A
9:139,GLN,B
10:140,ILE,A
11:140,ILE,B
12:142,TYR,A
13:142,TYR,B
14:161,GLY,A
15:161,GLY,B
16:162,PHE,B
17:162,PHE,A
18:163,SER,A
19:163,SER,B
20:164,ALA,A
21:164,ALA,B
22:165,LEU,A
23:165,LEU,B
24:166,PRO,B
25:166,PRO,A
26:169,SER,A
27:169,SER,B
28:170,LEU,A
29:170,LEU,B
30:172,SER,B
31:172,SER,A
32:173,ALA,B
33:173,ALA,A
34:174,SER,A
35:174,SER,B
36:175,LYS,A
37:175,LYS,B
38:176,GLY,B
39:176,GLY,A
40:177,ALA,A
41:177,ALA,B
42:178,ILE,A
43:178,ILE,B
44:179,ASN,A
45:179,ASN,B
46:180,GLN,B
47:180,GLN,A
48:181,MET,B
49:181,MET,A
50:183,LYS,A
51:183,LYS,B
52:184,SER,B
53:184,SER,A
54:185,LEU,B
55:185,LEU,A
56:187,CYS,A
57:187,CYS,B
58:188,GLU,B
59:188,GLU,A
