0:9,ASP,A
1:13,ALA,A
2:13,ALA,B
3:14,PRO,B
4:14,PRO,A
5:15,GLY,A
6:15,GLY,B
7:16,GLN,A
8:16,GLN,B
9:17,LEU,A
10:17,LEU,B
11:18,ASP,B
12:18,ASP,A
13:21,TYR,A
14:21,TYR,B
15:27,GLY,A
16:27,GLY,B
17:28,GLN,B
18:28,GLN,A
19:29,SER,B
20:29,SER,A
21:30,GLY,B
22:30,GLY,A
23:34,ILE,B
24:34,ILE,A
25:36,GLY,A
26:36,GLY,B
27:41,ARG,A
28:41,ARG,B
29:42,GLU,B
30:42,GLU,A
31:43,LEU,A
32:43,LEU,B
33:44,MET,A
34:44,MET,B
35:45,ARG,B
36:45,ARG,A
37:50,ASN,A
38:50,ASN,B
39:51,ARG,B
40:51,ARG,A
41:52,CYS,A
42:52,CYS,B
43:53,SER,B
44:53,SER,A
45:54,ALA,A
46:54,ALA,B
47:55,THR,B
48:55,THR,A
49:73,HIS,B
50:73,HIS,A
51:74,ASP,B
52:74,ASP,A
53:75,ASN,A
54:75,ASN,B
55:76,GLY,B
56:76,GLY,A
57:77,ASP,B
58:77,ASP,A
59:100,LYS,A
60:100,LYS,B
61:101,ALA,B
62:101,ALA,A
63:102,ASN,A
64:102,ASN,B
65:103,THR,B
66:103,THR,A
67:111,ASP,B
68:111,ASP,A
69:112,VAL,A
70:112,VAL,B
71:113,MET,A
72:113,MET,B
73:125,LYS,B
74:125,LYS,A
75:126,GLY,B
76:126,GLY,A
77:147,ASP,B
78:147,ASP,A
79:149,THR,A
80:149,THR,B
81:150,PRO,B
82:150,PRO,A
83:153,ASN,B
84:153,ASN,A
85:154,ASP,B
86:154,ASP,A
87:155,GLY,B
88:155,GLY,A
89:156,THR,A
90:156,THR,B
91:158,MET,A
92:158,MET,B
93:397,LYS,A
94:397,LYS,B
95:398,PHE,A
96:398,PHE,B
97:399,SER,A
98:399,SER,B
99:400,LYS,A
100:400,LYS,B
101:402,ARG,B
102:402,ARG,A
103:403,PHE,A
104:403,PHE,B
105:404,LEU,B
106:404,LEU,A
107:405,ASN,A
108:405,ASN,B
109:406,VAL,B
110:406,VAL,A
111:407,GLY,A
112:407,GLY,B
113:408,PRO,A
114:408,PRO,B
115:409,LEU,B
116:409,LEU,A
117:410,LYS,B
118:410,LYS,A
119:411,PRO,A
120:411,PRO,B
121:426,LEU,B
122:426,LEU,A
123:427,VAL,B
124:427,VAL,A
125:428,HIS,A
126:428,HIS,B
127:429,ASP,A
128:429,ASP,B
129:430,GLY,B
130:430,GLY,A
131:431,PRO,A
132:431,PRO,B
133:432,THR,B
134:432,THR,A
135:433,PHE,A
136:433,PHE,B
137:434,ALA,B
138:434,ALA,A
139:435,GLU,A
140:435,GLU,B
141:450,ILE,A
142:450,ILE,B
143:451,LYS,B
144:451,LYS,A
145:452,SER,B
146:452,SER,A
147:453,VAL,A
148:453,VAL,B
149:454,TRP,B
150:454,TRP,A
151:522,ASP,B
152:522,ASP,A
153:523,ASP,B
154:523,ASP,A
155:524,LEU,B
156:524,LEU,A
157:525,THR,B
158:525,THR,A
159:529,THR,A
160:529,THR,B
161:530,MET,A
162:530,MET,B
163:531,GLY,B
164:531,GLY,A
165:532,ASN,A
166:532,ASN,B
167:533,TYR,A
168:533,TYR,B
169:534,GLY,A
170:534,GLY,B
171:535,VAL,B
172:535,VAL,A
173:536,ALA,B
174:536,ALA,A
175:540,GLY,B
176:540,GLY,A
177:541,PRO,B
178:541,PRO,A
179:549,PHE,B
180:549,PHE,A
181:550,VAL,A
182:550,VAL,B
183:551,ALA,B
184:551,ALA,A
185:552,ALA,A
186:552,ALA,B
187:553,ASN,B
188:553,ASN,A
189:554,PRO,B
190:554,PRO,A
191:555,GLY,B
192:555,GLY,A
193:556,VAL,B
194:556,VAL,A
195:557,TYR,A
196:557,TYR,B
197:558,TRP,B
198:558,TRP,A
199:562,GLN,A
200:562,GLN,B
201:563,TRP,B
202:563,TRP,A
203:564,PHE,B
204:564,PHE,A
205:565,CYS,B
206:565,CYS,A
207:577,LEU,B
208:577,LEU,A
209:578,VAL,A
210:578,VAL,B
211:579,GLU,A
212:579,GLU,B
213:580,PRO,A
214:580,PRO,B
215:861,ARG,B
216:861,ARG,A
217:864,LYS,A
218:864,LYS,B
219:865,PHE,B
220:865,PHE,A
221:868,ALA,A
222:868,ALA,B
223:869,ASN,B
224:869,ASN,A
225:870,GLY,A
226:870,GLY,B
227:871,LYS,B
228:871,LYS,A
229:4905,CA,A
230:4905,CA,B
