0:25,TYR,B
1:25,TYR,A
2:29,LYS,B
3:29,LYS,A
4:30,HIS,A
5:30,HIS,B
6:118,PHE,A
7:118,PHE,B
8:119,GLY,A
9:119,GLY,B
10:120,SER,B
11:120,SER,A
12:140,ASN,B
13:140,ASN,A
14:158,TRP,B
15:158,TRP,A
16:159,GLU,A
17:159,GLU,B
18:160,HIS,B
19:160,HIS,A
20:163,TYR,A
21:163,TYR,B
22:164,ILE,A
23:164,ILE,B
24:167,ARG,B
25:167,ARG,A
26:168,ASN,A
27:168,ASN,B
