0:4,ALA,A
1:5,ALA,A
2:6,ALA,A
3:7,LYS,A
4:8,PHE,A
5:9,GLU,A
6:10,ARG,A
7:11,GLN,A
8:12,HIS,A
9:13,MET,A
10:14,ASP,A
11:15,SER,A
12:33,ARG,B
13:35,LEU,B
14:44,ASN,B
15:45,THR,B
16:46,PHE,B
17:47,VAL,B
18:48,HIS,B
19:49,GLU,B
20:50,SER,B
21:51,LEU,B
22:116,VAL,B
23:117,PRO,B
24:118,VAL,B
25:119,HIS,B
26:120,PHE,B
