0:9,GLY,B
1:9,GLY,A
2:10,PRO,A
3:10,PRO,B
4:12,GLY,B
5:12,GLY,A
6:13,GLU,A
7:13,GLU,B
8:14,ASN,A
9:14,ASN,B
10:15,SER,A
11:15,SER,B
12:16,TRP,B
13:16,TRP,A
14:17,SER,B
15:17,SER,A
16:18,LYS,A
17:18,LYS,B
18:23,CYS,B
19:23,CYS,A
20:24,GLY,B
21:24,GLY,A
22:25,GLY,A
23:25,GLY,B
24:26,LEU,A
25:26,LEU,B
