0:122,GLY,A
1:123,ASP,A
2:149,LEU,A
3:151,ASN,A
4:154,HIS,A
5:155,LEU,A
6:157,VAL,A
7:158,GLY,A
8:159,TYR,A
9:160,HIS,A
10:161,GLY,A
11:162,ARG,A
12:163,ALA,A
13:164,SER,A
14:165,SER,A
15:173,ILE,A
16:174,ARG,A
17:176,PRO,A
18:177,MET,A
19:178,GLY,A
20:212,PHE,A
21:213,GLY,A
22:242,TRP,A
23:243,GLU,A
24:244,TYR,A
25:245,VAL,A
26:246,PRO,A
27:247,LEU,A
28:248,GLY,A
29:249,PRO,A
30:250,PHE,A
31:251,LEU,A
32:254,SER,A
33:255,PHE,A
34:256,GLY,A
35:284,LEU,A
36:333,HIS,A
37:335,VAL,A
38:336,ASN,A
39:337,GLY,A
40:338,CYS,A
41:339,ASN,A
42:340,LEU,A
43:341,ARG,A
44:622,GLY,B
45:623,ASP,B
46:649,LEU,B
47:651,ASN,B
48:657,VAL,B
49:658,GLY,B
50:659,TYR,B
51:660,HIS,B
52:661,GLY,B
53:662,ARG,B
54:663,ALA,B
55:664,SER,B
56:665,SER,B
57:673,ILE,B
58:674,ARG,B
59:676,PRO,B
60:677,MET,B
61:678,GLY,B
62:688,PRO,B
63:689,VAL,B
64:690,TYR,B
65:712,PHE,B
66:713,GLY,B
67:742,TRP,B
68:743,GLU,B
69:744,TYR,B
70:745,VAL,B
71:746,PRO,B
72:747,LEU,B
73:748,GLY,B
74:749,PRO,B
75:750,PHE,B
76:751,LEU,B
77:754,SER,B
78:755,PHE,B
79:756,GLY,B
80:833,HIS,B
81:835,VAL,B
82:836,ASN,B
83:837,GLY,B
84:838,CYS,B
85:839,ASN,B
86:840,LEU,B
87:841,ARG,B
