0:78,LEU,B
1:78,LEU,A
2:79,LYS,A
3:79,LYS,B
4:80,GLY,B
5:80,GLY,A
6:81,SER,A
7:81,SER,B
8:86,ASN,B
9:86,ASN,A
10:89,ILE,B
11:89,ILE,A
12:112,TYR,A
13:112,TYR,B
14:115,LEU,A
15:126,GLN,A
16:126,GLN,B
17:127,LEU,A
18:127,LEU,B
