0:100,ILE,B
1:101,GLU,B
2:104,ILE,B
3:109,THR,A
4:112,VAL,A
5:112,VAL,B
6:113,ASN,A
7:139,VAL,A
8:139,VAL,B
9:140,THR,B
10:140,THR,A
11:141,GLY,B
12:141,GLY,A
13:142,PHE,A
14:142,PHE,B
15:143,ASN,A
16:143,ASN,B
17:144,ALA,A
18:144,ALA,B
19:145,ILE,B
20:145,ILE,A
21:146,HIS,B
22:146,HIS,A
23:147,GLN,B
24:147,GLN,A
25:149,PRO,B
26:149,PRO,A
27:150,VAL,B
28:150,VAL,A
29:152,SER,A
30:152,SER,B
31:153,ALA,A
32:153,ALA,B
33:154,SER,A
34:154,SER,B
35:155,LYS,B
36:155,LYS,A
37:156,ALA,A
38:156,ALA,B
39:157,ALA,B
40:157,ALA,A
41:158,VAL,A
42:158,VAL,B
43:159,VAL,B
44:159,VAL,A
45:160,SER,A
46:160,SER,B
47:161,PHE,A
48:161,PHE,B
49:163,ASN,B
50:163,ASN,A
51:164,SER,A
52:164,SER,B
53:165,LEU,A
54:165,LEU,B
55:167,LYS,B
56:167,LYS,A
57:168,LEU,B
58:168,LEU,A
59:171,ILE,A
60:171,ILE,B
61:172,THR,A
62:172,THR,B
63:198,VAL,B
64:198,VAL,A
65:202,VAL,A
66:205,LEU,A
67:205,LEU,B
68:206,LEU,B
69:206,LEU,A
70:209,HIS,A
71:209,HIS,B
72:244,ILE,B
73:244,ILE,A
74:247,THR,A
75:247,THR,B
76:248,LYS,B
77:248,LYS,A
78:249,HIS,A
79:249,HIS,B
80:250,TRP,A
81:250,TRP,B
82:251,ASP,A
83:251,ASP,B
84:252,SER,A
85:252,SER,B
86:253,HIS,A
87:253,HIS,B
88:254,ILE,A
89:254,ILE,B
