0:14,ALA,A
1:15,ILE,A
2:17,ARG,A
3:18,GLY,A
4:19,LEU,A
5:21,GLU,A
6:22,ASP,A
7:23,LEU,A
8:24,ARG,A
9:25,TYR,A
10:26,GLY,A
11:27,PRO,A
12:28,ASP,A
13:29,VAL,A
14:30,THR,A
15:31,THR,A
16:33,ALA,A
17:34,THR,A
18:35,VAL,A
19:102,THR,A
20:105,ARG,A
21:106,THR,A
22:109,ASN,A
23:110,LEU,A
24:113,HIS,A
25:139,ARG,A
26:140,LYS,A
27:141,THR,A
28:142,LEU,A
29:143,PRO,A
30:144,GLY,A
31:146,ARG,A
32:163,LEU,A
33:164,GLY,A
34:165,LEU,A
35:166,GLY,A
36:167,ASP,A
37:169,ALA,A
38:170,LEU,A
39:171,ILE,A
40:174,ASN,A
41:175,HIS,A
42:176,VAL,A
43:178,ALA,A
44:179,ALA,A
45:185,ALA,A
46:188,ALA,A
47:189,VAL,A
48:192,ALA,A
49:193,ALA,A
50:274,HIS,A
51:275,SER,A
52:276,VAL,A
53:277,ARG,A
54:278,VAL,A
55:285,MET,A
56:514,ALA,B
57:515,ILE,B
58:517,ARG,B
59:518,GLY,B
60:521,GLU,B
61:522,ASP,B
62:523,LEU,B
63:524,ARG,B
64:525,TYR,B
65:526,GLY,B
66:527,PRO,B
67:528,ASP,B
68:529,VAL,B
69:530,THR,B
70:531,THR,B
71:533,ALA,B
72:534,THR,B
73:535,VAL,B
74:605,ARG,B
75:606,THR,B
76:609,ASN,B
77:610,LEU,B
78:613,HIS,B
79:639,ARG,B
80:640,LYS,B
81:641,THR,B
82:642,LEU,B
83:643,PRO,B
84:644,GLY,B
85:646,ARG,B
86:663,LEU,B
87:664,GLY,B
88:665,LEU,B
89:666,GLY,B
90:667,ASP,B
91:669,ALA,B
92:670,LEU,B
93:671,ILE,B
94:674,ASN,B
95:675,HIS,B
96:676,VAL,B
97:678,ALA,B
98:679,ALA,B
99:685,ALA,B
100:688,ALA,B
101:689,VAL,B
102:692,ALA,B
103:693,ALA,B
104:774,HIS,B
105:775,SER,B
106:776,VAL,B
107:777,ARG,B
108:778,VAL,B
109:785,MET,B
