0:149,ARG,A
1:150,ILE,A
2:152,GLN,A
3:153,VAL,A
4:154,SER,A
5:155,GLY,A
6:158,SER,A
7:159,TYR,A
8:160,ALA,A
9:161,LEU,A
10:162,LYS,A
11:163,GLY,A
12:164,ASP,A
13:166,ALA,A
14:167,LEU,A
15:170,LEU,A
16:171,ALA,A
17:174,ARG,B
18:177,MET,B
19:178,ASP,B
20:186,LEU,B
21:187,PRO,B
22:188,MET,B
23:189,THR,B
24:190,LEU,B
25:191,PRO,B
26:193,TYR,B
27:194,ALA,B
28:195,ARG,B
29:197,LYS,B
30:198,ALA,B
31:220,LEU,B
32:229,VAL,B
33:232,ALA,B
34:233,LEU,B
35:234,HIS,B
36:274,GLN,A
