0:100,ILE,A
1:101,LYS,A
2:103,MET,A
3:104,GLN,A
4:105,ASN,A
5:106,ARG,A
6:107,THR,A
7:108,PHE,A
8:111,CYS,A
9:112,TYR,A
10:150,ASP,B
11:151,ILE,B
12:152,ILE,B
13:165,ILE,A
14:166,LEU,A
15:167,LEU,A
16:168,GLY,A
17:169,THR,A
18:170,ILE,A
19:171,PRO,A
20:172,GLY,A
21:173,ALA,A
22:174,GLY,A
23:176,THR,A
24:177,GLN,A
25:178,ARG,A
26:180,THR,A
27:181,ARG,A
28:181,ARG,B
29:182,ALA,B
30:183,VAL,A
31:184,GLY,A
32:185,LYS,A
33:186,SER,A
34:187,LEU,A
35:188,ALA,A
36:189,MET,A
37:190,GLU,A
38:192,VAL,A
39:193,LEU,A
40:194,THR,A
41:205,GLN,B
42:205,GLN,A
43:206,ALA,A
44:206,ALA,B
45:207,GLY,B
46:208,LEU,B
47:209,VAL,B
48:210,SER,B
49:225,CYS,B
50:228,LYS,B
51:229,ILE,B
52:232,ASN,B
53:233,SER,B
54:236,ILE,B
55:237,VAL,B
56:239,MET,B
57:240,ALA,B
58:241,LYS,B
59:243,SER,B
60:244,VAL,B
61:245,ASN,B
62:246,ALA,B
63:247,ALA,B
64:248,PHE,A
65:249,GLU,A
66:250,MET,A
67:251,THR,B
68:252,LEU,B
69:253,THR,B
70:255,GLY,B
71:256,ASN,B
72:259,GLU,B
73:260,LYS,B
74:262,LEU,B
75:263,PHE,B
76:264,TYR,B
77:265,SER,B
78:266,THR,B
79:267,PHE,B
80:268,ALA,B
81:271,ASP,B
82:272,ARG,B
83:273,ARG,B
84:274,GLU,B
85:275,GLY,B
86:276,MET,B
87:277,SER,B
88:278,ALA,B
89:279,PHE,B
90:280,VAL,B
91:285,ALA,B
92:287,PHE,B
