0:701,TYR,B
1:701,TYR,A
2:702,PRO,A
3:702,PRO,B
4:703,GLY,A
5:703,GLY,B
6:704,VAL,A
7:704,VAL,B
8:705,PRO,B
9:705,PRO,A
10:708,GLU,B
11:708,GLU,A
12:709,LEU,B
13:709,LEU,A
14:711,LYS,B
15:711,LYS,A
16:712,LEU,A
17:712,LEU,B
