0:39,ALA,A
1:39,ALA,B
2:47,PRO,A
3:47,PRO,B
4:48,TYR,B
5:48,TYR,A
6:49,VAL,A
7:49,VAL,B
8:67,ASP,A
9:67,ASP,B
10:68,LYS,A
11:68,LYS,B
12:69,GLU,A
13:69,GLU,B
14:70,TYR,A
15:70,TYR,B
16:71,LEU,A
17:71,LEU,B
18:106,ILE,B
19:106,ILE,A
20:107,SER,B
21:107,SER,A
22:108,GLY,B
23:108,GLY,A
24:109,THR,B
25:109,THR,A
26:110,GLY,A
27:110,GLY,B
28:111,SER,B
29:111,SER,A
30:113,ARG,B
31:113,ARG,A
32:142,ASN,A
33:142,ASN,B
34:143,HIS,A
35:143,HIS,B
36:145,PRO,A
37:145,PRO,B
38:146,ILE,A
39:146,ILE,B
40:149,ASP,B
41:149,ASP,A
42:261,GLY,B
43:261,GLY,A
44:262,LEU,A
45:262,LEU,B
46:263,TYR,B
47:263,TYR,A
48:264,GLY,A
49:264,GLY,B
50:265,GLU,B
51:265,GLU,A
52:266,ARG,A
53:266,ARG,B
54:292,ARG,B
55:292,ARG,A
56:293,PRO,B
57:293,PRO,A
58:294,MET,B
59:294,MET,A
60:295,TYR,B
61:295,TYR,A
62:296,SER,A
63:296,SER,B
64:297,ASN,A
65:297,ASN,B
66:298,PRO,B
67:298,PRO,A
68:299,PRO,A
69:299,PRO,B
70:300,MET,A
71:300,MET,B
72:301,ASN,B
73:301,ASN,A
