0:402,SER,A
1:404,SER,A
2:405,THR,A
3:406,ASP,A
4:407,LEU,A
5:409,GLU,A
6:410,ALA,A
7:411,MET,A
8:413,MET,A
9:414,GLY,A
10:415,SER,A
11:416,VAL,A
12:417,GLU,A
13:418,ALA,A
14:419,SER,A
15:420,TYR,A
16:421,LYS,A
17:422,CYS,A
18:423,LEU,A
19:522,ASN,A
20:523,THR,A
21:524,MET,A
22:525,ARG,A
23:526,VAL,A
24:527,VAL,A
25:1002,SER,B
26:1004,SER,B
27:1005,THR,B
28:1006,ASP,B
29:1007,LEU,B
30:1009,GLU,B
31:1010,ALA,B
32:1011,MET,B
33:1013,MET,B
34:1014,GLY,B
35:1015,SER,B
36:1016,VAL,B
37:1017,GLU,B
38:1018,ALA,B
39:1019,SER,B
40:1020,TYR,B
41:1021,LYS,B
42:1022,CYS,B
43:1023,LEU,B
44:1122,ASN,B
45:1123,THR,B
46:1124,MET,B
47:1125,ARG,B
48:1126,VAL,B
49:1127,VAL,B
