11AS : [<Chain id=A>, <Chain id=B>]
1A2P : [<Chain id=A>, <Chain id=B>, <Chain id=C>]
1A49 : [<Chain id=A>, <Chain id=B>, <Chain id=C>, <Chain id=D>, <Chain id=E>, <Chain id=F>, <Chain id=G>, <Chain id=H>]
1A4M : [<Chain id=A>, <Chain id=B>, <Chain id=C>, <Chain id=D>]
1A4S : [<Chain id=A>, <Chain id=B>, <Chain id=C>, <Chain id=D>]
1A69 : [<Chain id=A>, <Chain id=B>, <Chain id=C>]
1A7U : [<Chain id=A>, <Chain id=B>]
1A8R : [<Chain id=A>, <Chain id=B>, <Chain id=C>, <Chain id=D>, <Chain id=E>, <Chain id=F>, <Chain id=G>, <Chain id=H>, <Chain id=I>, <Chain id=J>, <Chain id=K>, <Chain id=L>, <Chain id=M>, <Chain id=N>, <Chain id=O>]
1A95 : [<Chain id=A>, <Chain id=B>, <Chain id=C>, <Chain id=D>]
1A9X : [<Chain id=A>, <Chain id=B>, <Chain id=C>, <Chain id=D>, <Chain id=E>, <Chain id=F>, <Chain id=G>, <Chain id=H>]
1ABO : [<Chain id=A>, <Chain id=B>, <Chain id=C>, <Chain id=D>]
1AD4 : [<Chain id=A>, <Chain id=B>]
1ADE : [<Chain id=A>, <Chain id=B>]
1ADO : [<Chain id=A>, <Chain id=B>, <Chain id=C>, <Chain id=D>]
1AE1 : [<Chain id=A>, <Chain id=B>]
1AFW : [<Chain id=A>, <Chain id=B>]
1AGJ : [<Chain id=A>, <Chain id=B>]
1AI4 : [<Chain id=A>, <Chain id=B>]
1AJ5 : [<Chain id=A>, <Chain id=B>]
1AJA : [<Chain id=A>, <Chain id=B>]
1AQY : [<Chain id=A>, <Chain id=B>]
1AUR : [<Chain id=A>, <Chain id=B>]
1AUW : [<Chain id=A>, <Chain id=B>, <Chain id=C>, <Chain id=D>]
1AY5 : [<Chain id=A>, <Chain id=B>]
1AZ3 : [<Chain id=A>, <Chain id=B>]
1B06 : [<Chain id=A>, <Chain id=B>, <Chain id=C>, <Chain id=D>, <Chain id=E>, <Chain id=F>]
1B14 : [<Chain id=A>, <Chain id=B>]
1B49 : [<Chain id=A>, <Chain id=C>]
1B4U : [<Chain id=A>, <Chain id=B>, <Chain id=C>, <Chain id=D>]
1B55 : [<Chain id=A>, <Chain id=B>]
1B57 : [<Chain id=A>, <Chain id=B>]
1B66 : [<Chain id=A>, <Chain id=B>]
1B6B : [<Chain id=A>, <Chain id=B>]
1B6S : [<Chain id=A>, <Chain id=B>, <Chain id=C>, <Chain id=D>]
1B7Y : [<Chain id=A>, <Chain id=B>]
1B80 : [<Chain id=A>, <Chain id=B>]
1BAI : [<Chain id=A>, <Chain id=B>]
1BC5 : [<Chain id=A>, <Chain id=T>]
1BD0 : [<Chain id=A>, <Chain id=B>]
1BD3 : [<Chain id=D>, <Chain id=C>, <Chain id=B>, <Chain id=A>]
1BH5 : [<Chain id=A>, <Chain id=B>, <Chain id=C>, <Chain id=D>]
1BHJ : [<Chain id=A>, <Chain id=B>]
1BMQ : [<Chain id=A>, <Chain id=B>]
1BS4 : [<Chain id=A>, <Chain id=B>, <Chain id=C>]
1BU6 : [<Chain id=O>, <Chain id=Y>, <Chain id=Z>, <Chain id=X>]
1BUC : [<Chain id=A>, <Chain id=B>]
1BVU : [<Chain id=A>, <Chain id=B>, <Chain id=C>, <Chain id=D>, <Chain id=E>, <Chain id=F>]
1BW0 : [<Chain id=A>, <Chain id=B>]
1C02 : [<Chain id=A>, <Chain id=B>]
1C1D : [<Chain id=A>, <Chain id=B>]
1C2P : [<Chain id=A>, <Chain id=B>]
1C3R : [<Chain id=A>, <Chain id=B>]
1C3U : [<Chain id=A>, <Chain id=B>]
1C77 : [<Chain id=A>, <Chain id=B>]
1C7N : [<Chain id=A>, <Chain id=B>, <Chain id=C>, <Chain id=D>, <Chain id=E>, <Chain id=F>, <Chain id=G>, <Chain id=H>]
1CCW : [<Chain id=A>, <Chain id=B>, <Chain id=C>, <Chain id=D>]
1CF2 : [<Chain id=P>, <Chain id=R>, <Chain id=O>, <Chain id=Q>]
1CKJ : [<Chain id=A>, <Chain id=B>]
1CKN : [<Chain id=A>, <Chain id=B>]
1CL2 : [<Chain id=A>, <Chain id=B>]
1CMV : [<Chain id=A>, <Chain id=B>]
1CNS : [<Chain id=A>, <Chain id=B>]
1CNZ : [<Chain id=A>, <Chain id=B>]
1COM : [<Chain id=A>, <Chain id=B>, <Chain id=C>, <Chain id=D>, <Chain id=E>, <Chain id=F>, <Chain id=G>, <Chain id=H>, <Chain id=I>, <Chain id=J>, <Chain id=K>, <Chain id=L>]
1CP2 : [<Chain id=A>, <Chain id=B>]
1CSK : [<Chain id=A>, <Chain id=B>, <Chain id=C>, <Chain id=D>]
1CSM : [<Chain id=A>, <Chain id=B>]
1CWU : [<Chain id=A>, <Chain id=B>]
1D0Q : [<Chain id=A>, <Chain id=B>]
1D6S : [<Chain id=A>, <Chain id=B>]
1D6W : [<Chain id=A>, <Chain id=I>]
1D7K : [<Chain id=A>, <Chain id=B>]
1D8I : [<Chain id=A>, <Chain id=B>, <Chain id=C>]
1D8W : [<Chain id=A>, <Chain id=B>, <Chain id=C>, <Chain id=D>]
1DCO : [<Chain id=A>, <Chain id=B>, <Chain id=C>, <Chain id=D>, <Chain id=E>, <Chain id=F>, <Chain id=G>, <Chain id=H>]
1DCU : [<Chain id=A>, <Chain id=B>, <Chain id=C>, <Chain id=D>]
1DD8 : [<Chain id=A>, <Chain id=B>, <Chain id=C>, <Chain id=D>]
1DEL : [<Chain id=A>, <Chain id=B>]
1DHP : [<Chain id=A>, <Chain id=B>]
1DJN : [<Chain id=A>, <Chain id=B>]
1DJO : [<Chain id=A>, <Chain id=B>]
1DKU : [<Chain id=A>, <Chain id=B>]
1DLG : [<Chain id=A>, <Chain id=B>]
1DLQ : [<Chain id=A>, <Chain id=B>]
1DO8 : [<Chain id=A>, <Chain id=B>, <Chain id=C>, <Chain id=D>]
1DQA : [<Chain id=A>, <Chain id=B>, <Chain id=C>, <Chain id=D>]
1DQI : [<Chain id=A>, <Chain id=B>, <Chain id=C>, <Chain id=D>]
1DQP : [<Chain id=A>, <Chain id=B>]
1DQX : [<Chain id=A>, <Chain id=B>, <Chain id=C>, <Chain id=D>]
1DU4 : [<Chain id=A>, <Chain id=B>, <Chain id=C>, <Chain id=D>]
1DUG : [<Chain id=A>, <Chain id=B>]
1DV1 : [<Chain id=A>, <Chain id=B>]
1DVG : [<Chain id=A>, <Chain id=B>]
1DWK : [<Chain id=A>, <Chain id=B>, <Chain id=C>, <Chain id=D>, <Chain id=E>, <Chain id=F>, <Chain id=G>, <Chain id=H>, <Chain id=I>, <Chain id=J>, <Chain id=K>, <Chain id=L>]
1DZT : [<Chain id=A>, <Chain id=B>]
1E0T : [<Chain id=A>, <Chain id=B>, <Chain id=C>, <Chain id=D>]
1E1R : [<Chain id=A>, <Chain id=B>, <Chain id=C>, <Chain id=D>, <Chain id=E>, <Chain id=F>, <Chain id=G>]
1E3U : [<Chain id=A>, <Chain id=B>, <Chain id=C>, <Chain id=D>, <Chain id=E>]
1E4L : [<Chain id=A>, <Chain id=B>]
1E5E : [<Chain id=A>, <Chain id=B>]
1E5L : [<Chain id=A>, <Chain id=B>]
1E6P : [<Chain id=A>, <Chain id=B>]
1E6Y : [<Chain id=A>, <Chain id=B>, <Chain id=C>, <Chain id=D>, <Chain id=E>, <Chain id=F>]
1E7L : [<Chain id=A>, <Chain id=B>]
1E92 : [<Chain id=A>, <Chain id=B>, <Chain id=C>, <Chain id=D>]
1ECJ : [<Chain id=A>, <Chain id=B>, <Chain id=C>, <Chain id=D>]
1EEX : [<Chain id=A>, <Chain id=B>, <Chain id=G>, <Chain id=L>, <Chain id=E>, <Chain id=M>]
1EG9 : [<Chain id=A>, <Chain id=B>]
1EGH : [<Chain id=A>, <Chain id=B>, <Chain id=C>, <Chain id=D>, <Chain id=E>, <Chain id=F>]
1EJB : [<Chain id=A>, <Chain id=B>, <Chain id=C>, <Chain id=D>, <Chain id=E>]
1EKK : [<Chain id=A>, <Chain id=B>]
1EKP : [<Chain id=A>, <Chain id=B>]
1EL5 : [<Chain id=A>, <Chain id=B>]
1ELU : [<Chain id=A>, <Chain id=B>]
1EO2 : [<Chain id=A>, <Chain id=B>]
1EOI : [<Chain id=A>, <Chain id=B>, <Chain id=C>]
1EP2 : [<Chain id=A>, <Chain id=B>]
1EUA : [<Chain id=A>, <Chain id=B>, <Chain id=C>]
1EUD : [<Chain id=A>, <Chain id=B>]
1EVL : [<Chain id=A>, <Chain id=B>, <Chain id=C>, <Chain id=D>]
1EVX : [<Chain id=A>, <Chain id=B>]
1EYQ : [<Chain id=A>, <Chain id=B>]
1EYY : [<Chain id=A>, <Chain id=B>, <Chain id=C>, <Chain id=D>]
1EZ1 : [<Chain id=A>, <Chain id=B>]
1EZI : [<Chain id=A>, <Chain id=B>]
1F07 : [<Chain id=A>, <Chain id=B>, <Chain id=C>, <Chain id=D>]
1F0R : [<Chain id=A>, <Chain id=B>]
1F14 : [<Chain id=A>, <Chain id=B>]
1F1J : [<Chain id=A>, <Chain id=B>, <Chain id=C>, <Chain id=D>]
1F28 : [<Chain id=A>, <Chain id=B>, <Chain id=C>, <Chain id=D>]
1F52 : [<Chain id=A>, <Chain id=B>, <Chain id=C>, <Chain id=D>, <Chain id=E>, <Chain id=F>, <Chain id=G>, <Chain id=H>, <Chain id=I>, <Chain id=J>, <Chain id=K>, <Chain id=L>]
1F5V : [<Chain id=A>, <Chain id=B>]
1F75 : [<Chain id=A>, <Chain id=B>]
1F7T : [<Chain id=A>, <Chain id=B>, <Chain id=C>, <Chain id=D>, <Chain id=E>, <Chain id=F>]
1F8A : [<Chain id=B>, <Chain id=C>]
1F8I : [<Chain id=A>, <Chain id=B>, <Chain id=C>, <Chain id=D>]
1F8Y : [<Chain id=A>, <Chain id=B>]
1F9Z : [<Chain id=A>, <Chain id=B>]
1FBT : [<Chain id=A>, <Chain id=B>]
1FCB : [<Chain id=A>, <Chain id=B>]
1FF3 : [<Chain id=A>, <Chain id=B>, <Chain id=C>]
1FFU : [<Chain id=A>, <Chain id=B>, <Chain id=C>, <Chain id=D>, <Chain id=E>, <Chain id=F>]
1FH0 : [<Chain id=A>, <Chain id=B>]
1FK8 : [<Chain id=A>, <Chain id=B>]
1FO6 : [<Chain id=A>, <Chain id=B>, <Chain id=C>, <Chain id=D>]
1FR8 : [<Chain id=A>, <Chain id=B>]
1FWK : [<Chain id=A>, <Chain id=B>, <Chain id=C>, <Chain id=D>]
1FWN : [<Chain id=A>, <Chain id=B>]
1FWX : [<Chain id=A>, <Chain id=B>, <Chain id=C>, <Chain id=D>]
1FXJ : [<Chain id=A>, <Chain id=B>]
1G0H : [<Chain id=A>, <Chain id=B>]
1G0R : [<Chain id=A>, <Chain id=B>, <Chain id=C>, <Chain id=D>, <Chain id=E>, <Chain id=F>, <Chain id=G>, <Chain id=H>]
1G1A : [<Chain id=A>, <Chain id=B>, <Chain id=C>, <Chain id=D>]
1G2O : [<Chain id=A>, <Chain id=B>, <Chain id=C>]
1G3K : [<Chain id=A>, <Chain id=B>, <Chain id=C>]
1G4E : [<Chain id=A>, <Chain id=B>]
1G51 : [<Chain id=A>, <Chain id=B>]
1G58 : [<Chain id=A>, <Chain id=B>]
1G72 : [<Chain id=A>, <Chain id=B>, <Chain id=C>, <Chain id=D>]
1G98 : [<Chain id=A>, <Chain id=B>]
1G9Q : [<Chain id=A>, <Chain id=B>]
1GA4 : [<Chain id=A>, <Chain id=I>]
1GEQ : [<Chain id=A>, <Chain id=B>]
1GG1 : [<Chain id=A>, <Chain id=B>, <Chain id=C>, <Chain id=D>]
1GUP : [<Chain id=A>, <Chain id=B>, <Chain id=C>, <Chain id=D>]
1H6J : [<Chain id=A>, <Chain id=B>]
1H7X : [<Chain id=A>, <Chain id=B>, <Chain id=C>, <Chain id=D>]
1HC7 : [<Chain id=A>, <Chain id=B>, <Chain id=C>, <Chain id=D>]
1HHS : [<Chain id=A>, <Chain id=B>, <Chain id=C>]
1HPL : [<Chain id=A>, <Chain id=B>]
1HUC : [<Chain id=A>, <Chain id=B>, <Chain id=C>, <Chain id=D>]
1HX3 : [<Chain id=A>, <Chain id=B>]
1HXD : [<Chain id=A>, <Chain id=B>]
1I0S : [<Chain id=A>, <Chain id=B>]
1I12 : [<Chain id=A>, <Chain id=B>, <Chain id=C>, <Chain id=D>]
1I1Q : [<Chain id=A>, <Chain id=B>]
1I59 : [<Chain id=A>, <Chain id=B>]
1I72 : [<Chain id=B>, <Chain id=A>]
1IA1 : [<Chain id=A>, <Chain id=B>]
1IAH : [<Chain id=A>, <Chain id=B>]
1II0 : [<Chain id=A>, <Chain id=B>]
1IMA : [<Chain id=A>, <Chain id=B>]
1IO7 : [<Chain id=A>, <Chain id=B>]
1IOF : [<Chain id=A>, <Chain id=B>, <Chain id=C>, <Chain id=D>]
1ISA : [<Chain id=A>, <Chain id=B>]
1IVP : [<Chain id=A>, <Chain id=B>]
1J71 : [<Chain id=A>, <Chain id=B>]
1J7L : [<Chain id=A>, <Chain id=B>]
1J80 : [<Chain id=A>, <Chain id=B>]
1J97 : [<Chain id=A>, <Chain id=B>]
1J9Q : [<Chain id=A>, <Chain id=B>, <Chain id=C>]
1JA1 : [<Chain id=A>, <Chain id=B>]
1JAN : [<Chain id=A>, <Chain id=I>]
1JBB : [<Chain id=A>, <Chain id=B>]
1JBP : [<Chain id=E>, <Chain id=S>]
1JC4 : [<Chain id=A>, <Chain id=B>, <Chain id=C>, <Chain id=D>]
1JD0 : [<Chain id=A>, <Chain id=B>]
1JDF : [<Chain id=A>, <Chain id=B>, <Chain id=C>, <Chain id=D>]
1JEH : [<Chain id=A>, <Chain id=B>]
1JGM : [<Chain id=A>, <Chain id=B>]
1JHE : [<Chain id=A>, <Chain id=B>]
1JKH : [<Chain id=A>, <Chain id=B>]
1JOL : [<Chain id=A>, <Chain id=B>]
1JPR : [<Chain id=A>, <Chain id=B>]
1JXZ : [<Chain id=A>, <Chain id=B>, <Chain id=C>]
1K2O : [<Chain id=A>, <Chain id=B>]
1KAP : [<Chain id=P>, <Chain id=I>]
1KDN : [<Chain id=A>, <Chain id=B>, <Chain id=C>]
1KEV : [<Chain id=A>, <Chain id=B>, <Chain id=C>, <Chain id=D>]
1KI2 : [<Chain id=A>, <Chain id=B>]
1KOQ : [<Chain id=A>, <Chain id=B>]
1L97 : [<Chain id=A>, <Chain id=B>]
1LCJ : [<Chain id=A>, <Chain id=B>]
1LOP : [<Chain id=A>, <Chain id=B>]
1MAC : [<Chain id=A>, <Chain id=B>]
1MHY : [<Chain id=B>, <Chain id=D>, <Chain id=G>]
1MKA : [<Chain id=A>, <Chain id=B>]
1MLD : [<Chain id=A>, <Chain id=B>, <Chain id=C>, <Chain id=D>]
1NEC : [<Chain id=A>, <Chain id=B>, <Chain id=C>, <Chain id=D>]
1NGS : [<Chain id=A>, <Chain id=B>]
1NIR : [<Chain id=A>, <Chain id=B>]
1NMT : [<Chain id=A>, <Chain id=B>, <Chain id=C>]
1NOZ : [<Chain id=A>, <Chain id=B>]
1OAC : [<Chain id=A>, <Chain id=B>]
1OAT : [<Chain id=A>, <Chain id=B>, <Chain id=C>]
1OIL : [<Chain id=A>, <Chain id=B>]
1ONR : [<Chain id=A>, <Chain id=B>]
1PMK : [<Chain id=A>, <Chain id=B>]
1PML : [<Chain id=A>, <Chain id=B>, <Chain id=C>]
1POX : [<Chain id=A>, <Chain id=B>]
1PVD : [<Chain id=A>, <Chain id=B>]
1QA7 : [<Chain id=A>, <Chain id=B>, <Chain id=C>, <Chain id=D>]
1QAE : [<Chain id=A>, <Chain id=B>]
1QAS : [<Chain id=A>, <Chain id=B>]
1QBG : [<Chain id=A>, <Chain id=B>, <Chain id=C>, <Chain id=D>]
1QBI : [<Chain id=A>, <Chain id=B>]
1QBQ : [<Chain id=A>, <Chain id=B>, <Chain id=P>]
1QCO : [<Chain id=A>, <Chain id=B>]
1QF7 : [<Chain id=A>, <Chain id=B>, <Chain id=C>, <Chain id=D>]
1QH5 : [<Chain id=A>, <Chain id=B>]
1QH7 : [<Chain id=A>, <Chain id=B>]
1QHA : [<Chain id=A>, <Chain id=B>]
1QHH : [<Chain id=A>, <Chain id=B>, <Chain id=C>, <Chain id=D>]
1QJ5 : [<Chain id=A>, <Chain id=B>]
1QJC : [<Chain id=A>, <Chain id=B>]
1QK3 : [<Chain id=A>, <Chain id=B>, <Chain id=C>, <Chain id=D>]
1QLB : [<Chain id=A>, <Chain id=B>, <Chain id=C>, <Chain id=D>, <Chain id=E>, <Chain id=F>]
1QLT : [<Chain id=A>, <Chain id=B>]
1QM6 : [<Chain id=A>, <Chain id=B>]
1QMG : [<Chain id=A>, <Chain id=B>, <Chain id=C>, <Chain id=D>]
1QMH : [<Chain id=A>, <Chain id=B>]
1QPO : [<Chain id=A>, <Chain id=B>, <Chain id=C>, <Chain id=D>, <Chain id=E>, <Chain id=F>]
1QRK : [<Chain id=A>, <Chain id=B>]
1QVB : [<Chain id=A>, <Chain id=B>]
1R2F : [<Chain id=A>, <Chain id=B>]
1RK2 : [<Chain id=A>, <Chain id=B>, <Chain id=C>, <Chain id=D>]
1SET : [<Chain id=A>, <Chain id=B>]
1SMR : [<Chain id=A>, <Chain id=B>, <Chain id=C>, <Chain id=D>, <Chain id=E>, <Chain id=F>, <Chain id=G>, <Chain id=H>]
1SVP : [<Chain id=A>, <Chain id=B>]
1TF4 : [<Chain id=A>, <Chain id=B>]
1XIK : [<Chain id=A>, <Chain id=B>]
1XKJ : [<Chain id=A>, <Chain id=B>]
1XO1 : [<Chain id=A>, <Chain id=B>]
1XPS : [<Chain id=A>, <Chain id=B>]
1XSO : [<Chain id=A>, <Chain id=B>]
1XYS : [<Chain id=A>, <Chain id=B>]
1YDV : [<Chain id=A>, <Chain id=B>]
1YFO : [<Chain id=A>, <Chain id=B>]
1YGH : [<Chain id=A>, <Chain id=B>]
1YPP : [<Chain id=A>, <Chain id=B>]
1ZYM : [<Chain id=A>, <Chain id=B>]
2AHJ : [<Chain id=A>, <Chain id=B>, <Chain id=C>, <Chain id=D>]
2DOR : [<Chain id=A>, <Chain id=B>]
2DUB : [<Chain id=A>, <Chain id=B>, <Chain id=C>, <Chain id=D>, <Chain id=E>, <Chain id=F>]
2ER6 : [<Chain id=E>, <Chain id=I>]
2F3G : [<Chain id=A>, <Chain id=B>]
2FGI : [<Chain id=A>, <Chain id=B>]
2FHE : [<Chain id=A>, <Chain id=B>]
2FIV : [<Chain id=A>, <Chain id=B>, <Chain id=I>, <Chain id=J>]
2FOK : [<Chain id=A>, <Chain id=B>]
2FUS : [<Chain id=A>, <Chain id=B>]
2GAC : [<Chain id=A>, <Chain id=B>, <Chain id=C>, <Chain id=D>]
2GD1 : [<Chain id=O>, <Chain id=P>, <Chain id=Q>, <Chain id=R>]
2HPD : [<Chain id=A>, <Chain id=B>]
2MAD : [<Chain id=L>, <Chain id=H>]
2MAS : [<Chain id=A>, <Chain id=B>, <Chain id=C>, <Chain id=D>]
2MIN : [<Chain id=A>, <Chain id=B>, <Chain id=C>, <Chain id=D>]
2NAD : [<Chain id=A>, <Chain id=B>]
2NSY : [<Chain id=A>, <Chain id=B>]
2PKA : [<Chain id=A>, <Chain id=B>, <Chain id=X>, <Chain id=Y>]
2POL : [<Chain id=A>, <Chain id=B>]
2PVA : [<Chain id=A>, <Chain id=B>, <Chain id=C>, <Chain id=D>]
2QR2 : [<Chain id=A>, <Chain id=B>]
2RUS : [<Chain id=A>, <Chain id=B>]
2SQC : [<Chain id=A>, <Chain id=B>]
2THF : [<Chain id=A>, <Chain id=B>]
2TMK : [<Chain id=A>, <Chain id=B>]
2TPL : [<Chain id=A>, <Chain id=B>]
2TSC : [<Chain id=A>, <Chain id=B>]
2UBP : [<Chain id=A>, <Chain id=B>, <Chain id=C>]
2UDP : [<Chain id=A>, <Chain id=B>]
2USH : [<Chain id=A>, <Chain id=B>]
3BLS : [<Chain id=A>, <Chain id=B>]
3BTO : [<Chain id=A>, <Chain id=B>, <Chain id=C>, <Chain id=D>]
3CEV : [<Chain id=A>, <Chain id=B>, <Chain id=C>, <Chain id=D>, <Chain id=E>, <Chain id=F>]
3CSU : [<Chain id=A>, <Chain id=B>, <Chain id=C>]
3DAA : [<Chain id=A>, <Chain id=B>]
3ECA : [<Chain id=A>, <Chain id=B>, <Chain id=C>, <Chain id=D>]
3HAD : [<Chain id=A>, <Chain id=B>]
3PMG : [<Chain id=A>, <Chain id=B>]
3PRK : [<Chain id=E>, <Chain id=I>]
3RUB : [<Chain id=L>, <Chain id=S>]
3STD : [<Chain id=A>, <Chain id=B>, <Chain id=C>]
3VGC : [<Chain id=A>, <Chain id=B>, <Chain id=C>]
4FBP : [<Chain id=A>, <Chain id=B>, <Chain id=C>, <Chain id=D>]
4GSA : [<Chain id=A>, <Chain id=B>]
4MDH : [<Chain id=A>, <Chain id=B>]
4NOS : [<Chain id=A>, <Chain id=B>, <Chain id=C>, <Chain id=D>]
4OTB : [<Chain id=A>, <Chain id=B>, <Chain id=C>, <Chain id=D>, <Chain id=E>, <Chain id=F>, <Chain id=G>, <Chain id=H>, <Chain id=I>, <Chain id=J>, <Chain id=K>, <Chain id=L>]
4PBG : [<Chain id=A>, <Chain id=B>]
4PGM : [<Chain id=A>, <Chain id=B>, <Chain id=C>, <Chain id=D>]
6GSS : [<Chain id=A>, <Chain id=B>]
7AAT : [<Chain id=A>, <Chain id=B>]
7CAT : [<Chain id=A>, <Chain id=B>]
7REQ : [<Chain id=A>, <Chain id=B>, <Chain id=C>, <Chain id=D>]
8LPR : [<Chain id=A>, <Chain id=P>]
