0:14,LYS,R
1:14,LYS,P
2:35,ARG,R
3:35,ARG,P
4:36,PRO,P
5:36,PRO,R
6:37,ASP,R
7:37,ASP,P
8:38,PHE,P
9:38,PHE,R
10:39,GLU,R
11:39,GLU,P
12:40,ALA,R
13:40,ALA,P
14:41,ARG,P
15:41,ARG,R
16:42,MET,R
17:42,MET,P
18:43,ALA,P
19:43,ALA,R
20:45,LYS,R
21:45,LYS,P
22:46,LYS,P
23:46,LYS,R
24:64,ALA,P
25:64,ALA,R
26:171,ASP,P
27:171,ASP,R
28:172,PRO,P
29:172,PRO,R
30:173,ALA,P
31:173,ALA,R
32:174,GLN,P
33:174,GLN,R
34:175,VAL,R
35:175,VAL,P
36:217,LEU,P
37:217,LEU,R
38:249,ILE,P
39:249,ILE,R
40:250,SER,P
41:250,SER,R
42:251,ALA,P
43:251,ALA,R
44:252,GLU,R
45:252,GLU,P
46:253,ASP,R
47:253,ASP,P
48:254,GLY,R
49:254,GLY,P
50:255,LEU,P
51:255,LEU,R
52:256,THR,R
53:256,THR,P
54:257,SER,P
55:257,SER,R
56:258,THR,P
57:258,THR,R
58:259,ALA,R
59:259,ALA,P
60:260,GLU,P
61:260,GLU,R
62:261,ILE,R
63:261,ILE,P
64:262,MET,R
65:262,MET,P
66:263,GLU,P
67:263,GLU,R
68:264,TYR,P
69:264,TYR,R
70:265,ALA,P
71:265,ALA,R
72:266,LYS,R
73:266,LYS,P
74:267,GLU,P
75:267,GLU,R
76:268,LEU,P
77:268,LEU,R
78:269,GLY,P
79:269,GLY,R
80:270,ARG,P
81:270,ARG,R
82:271,SER,P
83:271,SER,R
84:272,ARG,P
85:272,ARG,R
86:273,ASN,R
87:273,ASN,P
88:274,ASP,R
89:274,ASP,P
