0:12,LEU,A
1:12,LEU,B
2:13,PRO,A
3:13,PRO,B
4:14,ILE,A
5:14,ILE,B
6:15,ASP,B
7:15,ASP,A
8:16,LEU,A
9:16,LEU,B
10:17,ARG,A
11:38,LYS,B
12:38,LYS,A
13:39,SER,A
14:39,SER,B
15:40,LEU,B
16:40,LEU,A
17:41,ALA,A
18:41,ALA,B
19:42,ALA,A
20:42,ALA,B
21:43,ALA,B
22:43,ALA,A
23:44,GLY,A
24:44,GLY,B
25:74,LEU,A
26:74,LEU,B
27:75,PRO,B
28:75,PRO,A
29:76,ASP,A
30:76,ASP,B
31:211,SER,B
32:211,SER,A
33:213,THR,B
34:213,THR,A
35:214,ARG,B
36:214,ARG,A
37:215,VAL,A
38:215,VAL,B
39:216,LEU,B
40:216,LEU,A
41:217,ALA,B
42:217,ALA,A
43:218,PHE,B
44:218,PHE,A
45:219,GLU,A
46:219,GLU,B
47:220,ALA,A
48:220,ALA,B
49:221,GLY,A
50:221,GLY,B
51:222,ARG,B
52:222,ARG,A
53:223,LYS,A
54:223,LYS,B
55:224,GLN,B
56:224,GLN,A
57:225,ASN,B
58:225,ASN,A
59:226,ILE,B
60:226,ILE,A
61:227,ARG,B
62:227,ARG,A
63:228,VAL,B
64:228,VAL,A
65:229,ASN,B
66:229,ASN,A
67:233,ALA,A
68:233,ALA,B
69:234,GLY,B
70:234,GLY,A
71:257,ASN,B
72:257,ASN,A
73:258,ALA,B
74:258,ALA,A
75:259,PRO,B
76:259,PRO,A
77:260,ILE,B
78:260,ILE,A
79:261,GLN,A
80:261,GLN,B
81:262,LYS,B
82:262,LYS,A
83:263,THR,A
84:263,THR,B
85:264,LEU,A
86:264,LEU,B
87:265,THR,B
88:265,THR,A
89:267,ASP,A
90:267,ASP,B
91:268,GLU,A
92:268,GLU,B
93:269,VAL,A
94:269,VAL,B
95:270,GLY,A
96:270,GLY,B
97:271,ASN,A
98:271,ASN,B
99:272,ALA,B
100:272,ALA,A
101:274,ALA,B
102:274,ALA,A
103:275,PHE,B
104:275,PHE,A
105:276,LEU,B
106:276,LEU,A
107:279,PRO,B
108:279,PRO,A
109:280,LEU,B
110:280,LEU,A
111:281,ALA,A
112:281,ALA,B
113:282,SER,A
114:282,SER,B
115:283,ALA,B
116:283,ALA,A
117:284,ILE,A
118:284,ILE,B
119:285,THR,B
120:285,THR,A
121:286,GLY,A
122:286,GLY,B
123:287,ALA,A
124:287,ALA,B
125:288,THR,B
126:288,THR,A
127:289,ILE,B
128:289,ILE,A
129:290,TYR,B
130:290,TYR,A
131:291,VAL,B
132:291,VAL,A
133:292,ASP,B
134:292,ASP,A
135:293,ASN,A
136:293,ASN,B
137:294,GLY,B
138:294,GLY,A
139:295,LEU,B
140:295,LEU,A
141:296,ASN,A
142:296,ASN,B
143:297,SER,A
144:297,SER,B
145:298,MET,A
146:298,MET,B
