0:1,MET,A
1:1,MET,B
2:2,ASP,B
3:2,ASP,A
4:3,VAL,B
5:3,VAL,A
6:4,GLU,B
7:4,GLU,A
8:5,ALA,B
9:5,ALA,A
10:6,PHE,A
11:6,PHE,B
12:7,TYR,A
13:7,TYR,B
14:8,LYS,A
15:8,LYS,B
16:9,ILE,B
17:9,ILE,A
18:10,SER,B
19:10,SER,A
20:11,TYR,B
21:11,TYR,A
22:12,GLY,B
23:12,GLY,A
24:13,LEU,A
25:13,LEU,B
26:14,TYR,A
27:14,TYR,B
28:30,ASN,A
29:30,ASN,B
30:31,THR,B
31:31,THR,A
32:32,VAL,A
33:32,VAL,B
34:33,PHE,A
35:33,PHE,B
36:34,GLN,A
37:34,GLN,B
38:35,LEU,B
39:35,LEU,A
40:36,THR,B
41:36,THR,A
42:37,SER,A
43:37,SER,B
44:38,LYS,A
45:38,LYS,B
46:39,PRO,A
47:39,PRO,B
48:40,VAL,B
49:40,VAL,A
50:41,GLN,A
51:41,GLN,B
52:42,ILE,B
53:42,ILE,A
54:44,VAL,A
55:44,VAL,B
56:45,CYS,A
57:45,CYS,B
58:46,LEU,A
59:46,LEU,B
60:47,ASN,A
61:47,ASN,B
62:64,VAL,B
63:65,SER,B
64:65,SER,A
65:66,VAL,B
66:66,VAL,A
67:67,LEU,B
68:67,LEU,A
69:68,GLU,B
70:68,GLU,A
71:69,LEU,A
72:110,VAL,B
73:110,VAL,A
74:111,ALA,B
75:111,ALA,A
76:112,VAL,B
77:112,VAL,A
78:113,ILE,A
79:113,ILE,B
80:114,GLU,A
81:114,GLU,B
82:118,VAL,B
83:118,VAL,A
84:119,LYS,A
85:119,LYS,B
86:120,GLU,A
87:120,GLU,B
88:121,CYS,B
89:121,CYS,A
90:122,ASP,A
91:122,ASP,B
92:123,VAL,A
93:123,VAL,B
94:124,GLY,B
95:124,GLY,A
96:125,THR,B
97:125,THR,A
98:126,HIS,A
99:126,HIS,B
100:127,THR,B
101:127,THR,A
102:128,LEU,B
103:128,LEU,A
104:130,VAL,A
105:130,VAL,B
106:133,ALA,B
107:133,ALA,A
108:134,VAL,B
109:134,VAL,A
110:135,ASP,A
111:135,ASP,B
112:136,ALA,A
113:136,ALA,B
114:137,GLU,A
115:137,GLU,B
116:138,VAL,A
117:138,VAL,B
118:139,LEU,B
119:139,LEU,A
120:143,GLU,B
121:143,GLU,A
122:144,VAL,B
123:144,VAL,A
124:145,LEU,B
125:145,LEU,A
126:146,THR,B
127:146,THR,A
128:147,TYR,B
129:147,TYR,A
130:149,ASP,A
131:152,LEU,A
132:153,MET,A
133:155,LYS,A
134:156,GLY,A
135:157,LYS,A
136:158,THR,A
137:159,PRO,A
138:160,ARG,B
139:160,ARG,A
140:161,THR,A
141:161,THR,B
142:163,THR,B
143:164,VAL,B
144:165,TYR,B
145:166,PHE,B
146:167,GLU,B
147:168,SER,B
