0:25,TYR,B
1:25,TYR,A
2:26,HIS,B
3:26,HIS,A
4:29,LYS,A
5:29,LYS,B
6:30,HIS,B
7:30,HIS,A
8:61,GLY,B
9:62,GLY,B
10:62,GLY,A
11:65,ASN,A
12:65,ASN,B
13:116,LYS,A
14:116,LYS,B
15:118,PHE,B
16:118,PHE,A
17:119,GLY,B
18:119,GLY,A
19:120,SER,A
20:120,SER,B
21:121,GLY,A
22:121,GLY,B
23:139,SER,B
24:139,SER,A
25:140,ASN,A
26:140,ASN,B
27:141,ALA,B
28:141,ALA,A
29:158,TRP,A
30:158,TRP,B
31:159,GLU,A
32:159,GLU,B
33:160,HIS,B
34:160,HIS,A
35:163,TYR,B
36:163,TYR,A
37:164,ILE,B
38:164,ILE,A
39:167,ARG,A
40:167,ARG,B
41:168,ASN,A
42:168,ASN,B
43:169,ALA,B
44:169,ALA,A
