0:1,ASP,B
1:1,ASP,A
2:2,ILE,A
3:2,ILE,B
4:3,ILE,B
5:3,ILE,A
6:5,VAL,B
7:5,VAL,A
8:6,ALA,B
9:6,ALA,A
10:7,LEU,A
11:7,LEU,B
12:8,LYS,B
13:8,LYS,A
14:9,ARG,A
15:9,ARG,B
16:10,HIS,A
17:10,HIS,B
18:11,SER,A
19:11,SER,B
20:28,LYS,B
21:28,LYS,A
22:29,ILE,B
23:29,ILE,A
24:30,LYS,B
25:30,LYS,A
26:31,THR,B
27:31,THR,A
28:32,LEU,A
29:32,LEU,B
30:33,LEU,A
31:33,LEU,B
32:34,GLN,B
33:34,GLN,A
34:35,TYR,A
35:35,TYR,B
36:36,SER,A
37:36,SER,B
38:37,PRO,B
39:37,PRO,A
40:38,SER,B
41:38,SER,A
42:39,SER,A
43:39,SER,B
44:40,THR,A
45:40,THR,B
46:41,ASN,B
47:41,ASN,A
48:42,SER,B
49:42,SER,A
50:43,GLN,B
51:43,GLN,A
52:44,PRO,A
53:44,PRO,B
54:45,TRP,A
55:45,TRP,B
56:46,HIS,A
57:46,HIS,B
58:47,PHE,B
59:47,PHE,A
60:48,ILE,A
61:48,ILE,B
62:49,VAL,A
63:49,VAL,B
64:50,ALA,A
65:50,ALA,B
66:51,SER,A
67:51,SER,B
68:52,THR,B
69:52,THR,A
70:53,GLU,A
71:53,GLU,B
72:54,GLU,A
73:54,GLU,B
74:55,GLY,A
75:55,GLY,B
76:56,LYS,A
77:56,LYS,B
78:58,ARG,A
79:58,ARG,B
80:59,VAL,B
81:59,VAL,A
82:79,HIS,A
83:79,HIS,B
84:80,VAL,B
85:80,VAL,A
86:81,VAL,B
87:81,VAL,A
88:82,VAL,A
89:82,VAL,B
90:83,PHE,B
91:83,PHE,A
92:84,CYS,B
93:84,CYS,A
94:96,ARG,B
95:96,ARG,A
96:97,VAL,B
97:97,VAL,A
98:98,VAL,B
99:98,VAL,A
100:99,ASP,B
101:99,ASP,A
102:100,GLN,A
103:100,GLN,B
104:101,GLU,B
105:101,GLU,A
106:102,GLU,A
107:102,GLU,B
108:103,ALA,B
109:103,ALA,A
110:104,ASP,A
111:104,ASP,B
112:105,GLY,B
113:105,GLY,A
114:106,ARG,A
115:106,ARG,B
116:107,PHE,B
117:107,PHE,A
118:108,ASN,A
119:123,PHE,B
120:123,PHE,A
121:136,GLN,A
122:136,GLN,B
123:137,TRP,B
124:137,TRP,A
125:139,ALA,B
126:139,ALA,A
127:140,LYS,B
128:140,LYS,A
129:141,GLN,B
130:141,GLN,A
131:142,VAL,A
132:142,VAL,B
133:143,TYR,A
134:143,TYR,B
135:144,LEU,B
136:144,LEU,A
137:145,ASN,B
138:145,ASN,A
139:146,VAL,A
140:146,VAL,B
141:147,GLY,B
142:147,GLY,A
143:148,ASN,A
144:148,ASN,B
145:149,PHE,A
146:149,PHE,B
147:150,LEU,B
148:150,LEU,A
149:151,LEU,A
150:151,LEU,B
151:152,GLY,B
152:152,GLY,A
153:153,VAL,A
154:153,VAL,B
155:154,GLY,B
156:154,GLY,A
157:155,ALA,B
158:155,ALA,A
159:156,MET,A
160:156,MET,B
161:161,VAL,B
162:161,VAL,A
163:162,PRO,A
164:162,PRO,B
165:163,ILE,B
166:163,ILE,A
167:164,GLU,B
168:164,GLU,A
169:165,GLY,B
170:165,GLY,A
171:175,PHE,B
172:199,ASN,B
173:199,ASN,A
174:201,THR,B
175:201,THR,A
176:202,LEU,A
177:202,LEU,B
178:203,PRO,B
179:203,PRO,A
180:204,LYS,A
181:204,LYS,B
182:205,SER,B
183:205,SER,A
184:206,ARG,A
185:206,ARG,B
186:207,LEU,B
187:207,LEU,A
188:208,PRO,B
189:208,PRO,A
190:209,LEU,A
191:209,LEU,B
192:211,THR,B
193:211,THR,A
194:212,ILE,B
195:212,ILE,A
196:213,VAL,A
197:213,VAL,B
198:214,THR,A
199:214,THR,B
200:215,GLU,B
201:215,GLU,A
202:216,CYS,B
203:216,CYS,A
