0:4,ALA,A
1:4,ALA,B
2:5,VAL,A
3:5,VAL,B
4:6,CYS,B
5:6,CYS,A
6:7,VAL,A
7:7,VAL,B
8:8,LEU,A
9:8,LEU,B
10:16,GLY,A
11:16,GLY,B
12:17,VAL,A
13:17,VAL,B
14:18,VAL,B
15:18,VAL,A
16:47,VAL,A
17:47,VAL,B
18:48,PHE,B
19:48,PHE,A
20:49,GLY,A
21:49,GLY,B
22:50,ASP,A
23:50,ASP,B
24:51,ASN,A
25:51,ASN,B
26:52,THR,A
27:52,THR,B
28:53,ASN,A
29:53,ASN,B
30:54,GLY,A
31:54,GLY,B
32:57,SER,A
33:57,SER,B
34:58,ALA,A
35:58,ALA,B
36:59,GLY,B
37:59,GLY,A
38:110,ILE,B
39:110,ILE,A
40:111,ILE,A
41:111,ILE,B
42:112,GLY,A
43:112,GLY,B
44:113,ARG,A
45:113,ARG,B
46:114,THR,A
47:114,THR,B
48:145,GLY,B
49:145,GLY,A
50:146,VAL,A
51:146,VAL,B
52:147,ILE,A
53:147,ILE,B
54:148,GLY,A
55:148,GLY,B
56:149,TYR,A
57:149,TYR,B
58:150,SER,B
59:150,SER,A
60:151,PRO,B
61:151,PRO,A
