0:159,PHE,B
1:159,PHE,A
2:160,PHE,B
3:160,PHE,A
4:161,ASN,A
5:161,ASN,B
6:166,MET,A
7:166,MET,B
8:167,LYS,A
9:167,LYS,B
10:168,LEU,A
11:168,LEU,B
12:169,VAL,B
13:169,VAL,A
14:170,GLU,B
15:170,GLU,A
16:194,LYS,A
17:195,HIS,A
18:195,HIS,B
19:196,PRO,B
20:196,PRO,A
21:197,VAL,B
22:197,VAL,A
23:198,SER,B
24:198,SER,A
25:199,CYS,B
26:199,CYS,A
27:200,LYS,B
28:200,LYS,A
29:201,ASP,B
30:201,ASP,A
31:202,THR,B
32:202,THR,A
33:205,PHE,B
34:205,PHE,A
35:206,ILE,B
36:206,ILE,A
37:207,VAL,B
38:207,VAL,A
39:208,ASN,B
40:208,ASN,A
41:209,ARG,A
42:209,ARG,B
43:210,LEU,B
44:210,LEU,A
45:211,LEU,A
46:211,LEU,B
47:212,VAL,A
48:213,PRO,B
49:213,PRO,A
50:214,TYR,A
51:214,TYR,B
52:215,LEU,A
53:215,LEU,B
54:216,MET,A
55:216,MET,B
56:217,GLU,B
57:217,GLU,A
58:218,ALA,B
59:218,ALA,A
60:221,LEU,A
61:221,LEU,B
62:222,TYR,A
63:222,TYR,B
64:225,GLY,B
65:225,GLY,A
66:226,ASP,A
67:226,ASP,B
68:227,ALA,A
69:227,ALA,B
70:228,SER,A
71:228,SER,B
72:230,GLU,B
73:230,GLU,A
74:231,ASP,B
75:231,ASP,A
76:232,ILE,A
77:232,ILE,B
78:233,ASP,A
79:233,ASP,B
80:234,THR,A
81:234,THR,B
82:235,ALA,A
83:235,ALA,B
84:236,MET,B
85:236,MET,A
86:237,LYS,A
87:237,LYS,B
88:238,LEU,A
89:238,LEU,B
90:239,GLY,B
91:239,GLY,A
92:240,ALA,B
93:240,ALA,A
94:241,GLY,A
95:241,GLY,B
96:242,TYR,B
97:242,TYR,A
98:243,PRO,B
99:243,PRO,A
100:244,MET,B
101:244,MET,A
102:246,PRO,A
103:246,PRO,B
104:249,LEU,A
