0:101,ASN,A
1:101,ASN,B
2:102,ASP,B
3:102,ASP,A
4:103,LEU,B
5:103,LEU,A
6:147,GLN,B
7:147,GLN,A
8:148,ALA,B
9:148,ALA,A
10:149,ALA,A
11:149,ALA,B
12:150,GLU,B
13:190,PHE,A
14:190,PHE,B
15:191,PHE,B
16:191,PHE,A
17:193,SER,B
18:193,SER,A
19:194,ARG,B
20:194,ARG,A
21:195,TYR,A
22:220,TRP,A
23:220,TRP,B
24:221,GLU,A
25:221,GLU,B
26:239,PHE,B
27:239,PHE,A
28:240,TYR,B
29:240,TYR,A
30:241,ASN,A
31:241,ASN,B
32:242,ALA,B
33:242,ALA,A
34:243,LEU,A
35:243,LEU,B
36:244,ARG,B
37:244,ARG,A
38:245,GLU,A
39:245,GLU,B
40:246,ALA,B
41:246,ALA,A
42:247,ASN,A
43:247,ASN,B
44:248,LEU,A
45:248,LEU,B
46:249,GLY,A
47:249,GLY,B
48:250,TRP,B
49:250,TRP,A
50:251,SER,B
51:251,SER,A
52:252,TRP,A
53:252,TRP,B
54:253,GLU,A
55:253,GLU,B
56:254,GLU,B
57:254,GLU,A
58:255,LEU,B
59:255,LEU,A
60:256,THR,B
61:256,THR,A
62:259,PHE,A
63:259,PHE,B
64:458,PRO,A
65:458,PRO,B
66:459,GLY,A
67:459,GLY,B
68:460,THR,B
69:460,THR,A
70:461,THR,A
71:461,THR,B
72:478,LYS,B
73:478,LYS,A
74:479,TRP,A
75:479,TRP,B
76:480,GLY,B
77:480,GLY,A
78:481,TYR,B
79:481,TYR,A
80:482,ILE,B
81:482,ILE,A
82:483,THR,A
83:483,THR,B
84:484,SER,B
85:484,SER,A
86:485,ALA,B
87:487,GLY,A
88:487,GLY,B
89:488,SER,A
90:488,SER,B
91:489,ASP,A
92:489,ASP,B
93:490,SER,A
94:490,SER,B
95:491,ALA,B
96:491,ALA,A
97:492,TRP,A
98:492,TRP,B
99:493,LEU,B
100:493,LEU,A
