0:1,MET,B
1:1,MET,A
2:2,LEU,B
3:2,LEU,A
4:3,LEU,A
5:3,LEU,B
6:4,THR,B
7:4,THR,A
8:5,GLY,A
9:5,GLY,B
10:7,LEU,B
11:7,LEU,A
12:8,TYR,B
13:8,TYR,A
14:11,GLU,B
15:11,GLU,A
16:24,LEU,A
17:24,LEU,B
18:25,ILE,B
19:25,ILE,A
20:26,CYS,A
21:26,CYS,B
22:27,GLN,A
23:27,GLN,B
24:28,ARG,A
25:28,ARG,B
26:39,LEU,B
27:39,LEU,A
28:40,ASP,A
29:40,ASP,B
30:41,HIS,B
31:41,HIS,A
32:42,ASP,B
33:42,ASP,A
34:43,HIS,B
35:43,HIS,A
36:44,GLU,A
37:44,GLU,B
38:45,LEU,A
39:45,LEU,B
40:46,ASN,B
41:46,ASN,A
42:47,GLY,A
43:47,GLY,B
44:48,PRO,B
45:48,PRO,A
46:49,LYS,B
47:49,LYS,A
48:50,ALA,A
49:50,ALA,B
50:51,GLY,A
51:51,GLY,B
52:52,LYS,A
53:52,LYS,B
54:53,VAL,A
55:53,VAL,B
56:54,ARG,A
57:54,ARG,B
58:55,GLY,A
59:55,GLY,B
60:59,ASN,A
61:59,ASN,B
62:60,LEU,B
63:60,LEU,A
64:61,CYS,B
65:61,CYS,A
66:62,ASP,A
67:62,ASP,B
68:63,ALA,A
69:63,ALA,B
70:64,ALA,B
71:64,ALA,A
72:65,GLU,A
73:65,GLU,B
74:66,GLY,A
75:67,GLN,B
76:67,GLN,A
77:68,MET,B
78:68,MET,A
79:69,LYS,A
80:69,LYS,B
81:70,HIS,B
82:70,HIS,A
83:71,LYS,A
84:71,LYS,B
85:72,PHE,B
86:72,PHE,A
87:73,ASN,B
88:73,ASN,A
89:74,ARG,B
90:74,ARG,A
91:75,SER,B
92:75,SER,A
93:76,GLY,B
94:76,GLY,A
95:77,LEU,A
96:77,LEU,B
97:80,GLN,A
98:80,GLN,B
99:81,GLY,A
100:81,GLY,B
101:82,VAL,B
102:82,VAL,A
103:83,ASP,A
104:83,ASP,B
105:84,TYR,B
106:84,TYR,A
107:85,LEU,B
108:85,LEU,A
109:86,GLU,B
110:86,GLU,A
111:87,TRP,A
112:87,TRP,B
113:88,LEU,B
114:88,LEU,A
115:89,GLU,B
116:89,GLU,A
117:90,ASN,B
118:90,ASN,A
119:91,LEU,B
120:91,LEU,A
121:92,LEU,B
122:92,LEU,A
123:93,THR,B
124:93,THR,A
125:94,TYR,B
126:94,TYR,A
127:95,LEU,A
128:95,LEU,B
129:96,LYS,B
130:96,LYS,A
131:97,SER,A
132:97,SER,B
133:98,ASP,A
134:98,ASP,B
135:99,TYR,A
136:99,TYR,B
137:100,THR,B
138:100,THR,A
139:101,GLN,B
140:101,GLN,A
141:102,ASN,A
142:102,ASN,B
143:103,ASN,A
144:103,ASN,B
145:104,ILE,B
146:104,ILE,A
147:105,HIS,A
148:105,HIS,B
149:106,PRO,A
150:106,PRO,B
151:107,ASN,A
152:107,ASN,B
153:108,PHE,B
154:108,PHE,A
155:109,VAL,A
156:109,VAL,B
157:111,ASP,B
158:111,ASP,A
159:112,LYS,B
160:112,LYS,A
161:113,SER,B
162:115,GLU,B
163:115,GLU,A
164:153,ARG,A
165:153,ARG,B
166:154,LYS,B
167:154,LYS,A
168:155,SER,B
169:155,SER,A
170:156,LEU,B
171:156,LEU,A
172:157,LYS,B
173:157,LYS,A
