0:4,GLU,A
1:5,LEU,A
2:6,LYS,A
3:7,GLU,A
4:8,THR,A
5:9,PRO,A
6:10,SER,A
7:11,GLN,A
8:12,THR,A
9:13,GLY,A
10:14,GLY,A
11:15,PRO,A
12:16,TYR,A
13:17,VAL,A
14:19,ILE,A
15:20,GLY,A
16:21,LEU,A
17:22,LEU,A
18:23,PRO,A
19:26,ALA,A
20:27,ASN,A
21:28,ILE,A
22:29,GLU,A
23:30,VAL,A
24:31,PHE,A
25:32,GLU,A
26:33,HIS,A
27:34,ASN,A
28:55,VAL,A
29:56,PHE,A
30:57,ASP,A
31:58,GLY,A
32:59,LEU,A
33:60,GLY,A
34:61,LEU,A
35:63,LEU,A
36:70,ILE,A
37:71,TRP,A
38:72,GLN,A
39:73,ALA,A
40:77,GLY,A
41:78,VAL,A
42:79,TYR,A
43:80,PRO,A
44:81,SER,A
45:82,GLN,A
46:83,ALA,A
47:84,ASP,A
48:85,THR,A
49:86,GLN,A
50:89,PHE,A
51:90,LEU,A
52:91,GLY,A
53:92,TRP,A
54:93,GLY,A
55:114,VAL,A
56:115,PRO,A
57:116,GLY,A
58:117,ARG,A
59:118,LYS,A
60:119,GLY,A
61:120,SER,A
62:121,THR,A
63:122,GLN,A
64:125,HIS,A
65:126,ILE,A
66:127,SER,A
67:128,LEU,A
68:129,ILE,A
69:131,PHE,A
70:132,ALA,A
71:133,ARG,A
72:134,GLY,A
73:135,ILE,A
74:136,ASN,A
75:137,ILE,A
76:138,GLY,A
77:139,LEU,A
78:140,HIS,A
79:141,THR,A
80:156,PRO,A
81:157,VAL,A
82:158,LEU,A
83:160,SER,A
84:161,ILE,A
85:162,GLU,A
86:188,ARG,A
87:189,ILE,A
88:190,GLN,A
89:191,GLY,A
90:192,GLU,A
91:194,GLU,A
92:195,THR,A
93:196,VAL,A
94:197,PHE,A
95:198,PHE,A
96:199,ASP,A
97:200,ILE,A
98:304,ILE,B
99:305,TRP,B
100:307,ALA,B
101:308,TYR,B
102:309,ALA,B
103:310,GLN,B
104:311,ARG,B
105:312,ASN,B
106:313,THR,B
107:314,GLU,B
108:315,ASP,B
109:316,HIS,B
110:317,PRO,B
111:318,PRO,B
112:319,ALA,B
113:320,TYR,B
114:321,ALA,B
115:324,TYR,B
116:325,LYS,B
117:326,THR,B
118:327,SER,B
119:328,VAL,B
120:329,LEU,B
121:330,ARG,B
122:331,SER,B
123:332,PRO,B
124:333,LYS,B
125:334,ASN,B
126:335,ALA,B
127:336,LEU,B
128:337,ILE,B
129:338,SER,B
130:339,ILE,B
131:340,ALA,B
132:341,GLU,B
133:342,THR,B
134:343,LEU,B
135:344,SER,B
136:345,GLU,B
137:346,VAL,B
138:347,THR,B
139:348,ALA,B
140:349,PRO,B
141:350,HIS,B
142:351,PHE,B
143:354,ASP,B
144:355,LYS,B
145:356,PHE,B
146:357,GLY,B
147:358,PRO,B
148:359,LYS,B
149:360,ASP,B
150:363,LEU,B
151:365,LEU,B
152:366,ASN,B
153:367,TYR,B
154:368,ALA,B
155:384,VAL,B
156:385,ARG,B
157:386,ASP,B
158:387,GLN,B
159:388,PHE,B
160:389,GLY,B
161:398,GLU,B
162:399,VAL,B
163:400,TRP,B
164:401,GLN,B
165:402,ALA,B
166:408,TYR,B
167:409,ARG,B
168:410,HIS,B
169:411,PRO,B
170:412,ASN,B
171:413,ASP,B
172:423,PHE,B
173:424,GLY,B
174:425,GLY,B
175:426,CYS,B
176:427,GLY,B
177:428,ARG,B
178:462,HIS,B
179:463,PHE,B
180:464,SER,B
181:468,ASP,B
182:469,GLY,B
183:470,TRP,B
184:471,ALA,B
185:472,GLN,B
186:473,ARG,B
187:474,LEU,B
188:475,ILE,B
189:476,SER,B
190:477,GLN,B
191:478,PHE,B
192:491,ILE,B
193:492,LEU,B
194:494,THR,B
195:495,ILE,B
196:496,PRO,B
197:497,SER,B
198:499,GLN,B
199:500,GLN,B
200:501,ARG,B
201:502,ARG,B
202:503,ALA,B
203:504,LEU,B
204:524,ASP,B
205:525,ILE,B
206:526,THR,B
207:527,LEU,B
208:528,ARG,B
209:529,GLY,B
210:536,GLU,B
211:537,ASN,B
212:538,ASP,B
213:539,LEU,B
214:540,THR,B
