0:2,SER,B
1:3,GLN,B
2:4,LEU,B
3:5,GLN,B
4:24,SER,A
5:25,GLY,A
6:26,CYS,A
7:27,PHE,A
8:28,GLY,A
9:29,PHE,A
10:30,GLY,A
11:31,GLU,A
12:32,GLU,A
13:33,TYR,A
14:35,LYS,A
15:36,TYR,A
16:41,HIS,B
17:42,LEU,B
18:43,ALA,B
19:44,VAL,B
20:46,ASN,B
21:47,GLY,B
22:48,LYS,A
23:48,ALA,B
24:49,MET,B
25:50,LEU,B
26:51,LEU,B
27:52,ARG,B
28:55,ARG,A
29:56,PHE,A
30:57,GLY,A
31:58,ASN,A
32:59,PRO,A
33:60,THR,A
34:61,PRO,A
35:62,ARG,A
36:63,VAL,A
37:64,ALA,A
38:65,GLU,A
39:66,THR,A
40:67,ALA,A
41:68,SER,A
42:69,GLY,A
43:70,MET,A
44:72,ASN,A
45:73,ALA,A
46:74,ILE,A
47:75,GLY,A
48:76,LEU,A
49:77,GLN,A
50:78,ASN,A
51:79,PRO,A
52:93,ASP,B
53:95,MET,B
54:213,LEU,A
55:222,GLY,A
56:222,SER,B
57:223,ARG,B
58:223,PRO,A
59:224,MET,B
60:224,ALA,A
61:225,ALA,B
62:226,CYS,B
63:227,GLY,B
64:228,ILE,B
65:229,GLY,B
66:230,ALA,B
67:231,CYS,B
68:232,TYR,B
69:233,ALA,B
70:234,CYS,B
71:235,VAL,B
72:236,GLU,B
73:237,HIS,B
74:241,ASP,B
75:242,GLU,B
76:243,SER,B
77:244,HIS,B
78:245,ALA,B
79:250,GLU,B
80:271,THR,A
81:272,ALA,A
82:273,ASN,A
83:274,PHE,A
84:275,ALA,A
85:276,ASP,A
86:277,PRO,A
87:278,PHE,A
