0:0,GLY,B
1:1,GLY,B
2:1,GLY,A
3:2,ILE,A
4:2,ILE,B
5:3,TYR,B
6:4,GLY,B
7:5,ILE,B
8:6,GLY,B
9:7,LEU,A
10:7,LEU,B
11:8,ASP,B
12:9,ILE,B
13:9,ILE,A
14:10,THR,B
15:11,GLU,B
16:14,ARG,B
17:58,GLU,B
18:59,ALA,B
19:62,LYS,B
20:63,ALA,B
21:64,PHE,B
22:65,GLY,B
23:66,THR,B
24:67,GLY,B
25:71,GLN,B
26:82,ASP,A
27:83,GLN,A
28:84,ASN,A
29:85,GLY,A
30:86,LYS,A
31:87,PRO,A
32:97,ALA,A
33:98,ALA,A
34:99,VAL,A
35:100,HIS,A
36:101,VAL,A
37:102,SER,A
38:103,ILE,A
39:104,THR,A
40:105,HIS,A
41:106,THR,A
42:107,LYS,A
43:108,GLU,A
44:109,TYR,B
45:109,TYR,A
46:110,ALA,A
47:111,ALA,B
48:111,ALA,A
49:112,ALA,A
50:113,GLN,A
51:113,GLN,B
52:114,VAL,B
53:114,VAL,A
54:115,VAL,A
55:115,VAL,B
56:116,ILE,A
57:117,GLU,A
58:118,ARG,A
59:119,LEU,A
