0:1,MET,B
1:1,MET,A
2:2,ARG,B
3:2,ARG,A
4:3,LEU,A
5:3,LEU,B
6:4,LEU,B
7:4,LEU,A
8:5,HIS,A
9:5,HIS,B
10:6,THR,B
11:6,THR,A
12:7,MET,B
13:7,MET,A
14:8,LEU,A
15:8,LEU,B
16:9,ARG,B
17:9,ARG,A
18:10,VAL,A
19:10,VAL,B
20:11,GLY,A
21:11,GLY,B
22:24,LEU,B
23:24,LEU,A
24:25,GLY,B
25:25,GLY,A
26:26,MET,A
27:26,MET,B
28:45,GLY,A
29:45,GLY,B
30:46,TYR,B
31:46,TYR,A
32:47,GLY,A
33:47,GLY,B
34:50,THR,B
35:51,GLU,A
36:51,GLU,B
37:52,GLU,B
38:52,GLU,A
39:53,ALA,A
40:53,ALA,B
41:54,VAL,A
42:54,VAL,B
43:55,ILE,A
44:55,ILE,B
45:56,GLU,A
46:56,GLU,B
47:57,LEU,A
48:57,LEU,B
49:58,THR,A
50:58,THR,B
51:65,LYS,B
52:65,LYS,A
53:66,TYR,B
54:66,TYR,A
55:67,GLU,A
56:67,GLU,B
57:68,LEU,A
58:68,LEU,B
59:69,GLY,B
60:69,GLY,A
61:70,THR,B
62:70,THR,A
63:71,ALA,B
64:71,ALA,A
65:72,TYR,B
66:72,TYR,A
67:73,GLY,B
68:73,GLY,A
69:74,HIS,B
70:74,HIS,A
71:75,ILE,A
72:75,ILE,B
73:76,ALA,B
74:76,ALA,A
75:77,LEU,A
76:77,LEU,B
77:78,SER,A
78:78,SER,B
79:79,VAL,B
80:79,VAL,A
81:80,ASP,B
82:80,ASP,A
83:117,ASP,B
84:117,ASP,A
85:118,GLY,B
86:119,TYR,B
87:119,TYR,A
88:120,LYS,B
89:121,ILE,A
90:121,ILE,B
91:122,GLU,A
92:122,GLU,B
93:123,LEU,B
94:123,LEU,A
95:124,ILE,A
96:124,ILE,B
97:125,GLU,A
98:125,GLU,B
99:126,GLU,B
100:126,GLU,A
101:134,GLY,A
