0:117,SER,A
1:118,ALA,A
2:121,ALA,A
3:122,PHE,A
4:123,ASP,A
5:160,ASN,A
6:161,ALA,A
7:163,THR,A
8:164,VAL,A
9:165,ALA,A
10:166,VAL,A
11:167,ARG,A
12:168,LYS,A
13:169,ARG,A
14:170,ALA,A
15:171,ALA,A
16:172,ALA,A
17:173,TRP,A
18:174,GLY,A
19:175,GLU,A
20:176,ALA,A
21:177,GLY,A
22:178,VAL,A
23:179,ARG,A
24:180,LEU,A
25:181,ASN,A
26:185,PRO,A
27:186,GLY,A
28:209,PHE,A
29:210,VAL,A
30:211,PRO,A
31:212,PRO,A
32:213,MET,A
33:214,GLY,A
34:215,ARG,A
35:216,ARG,A
36:217,ALA,A
37:218,GLU,A
38:220,SER,A
39:221,GLU,A
40:222,MET,A
41:223,ALA,A
42:224,SER,A
43:225,VAL,A
44:226,ILE,A
45:227,ALA,A
46:228,PHE,A
47:229,LEU,A
48:232,PRO,A
49:233,ALA,A
50:234,ALA,A
51:235,SER,A
52:236,TYR,A
53:237,VAL,A
54:238,HIS,A
55:239,GLY,A
56:240,ALA,A
57:241,GLN,A
58:242,ILE,A
59:243,VAL,A
60:244,ILE,A
61:245,ASP,A
62:246,GLY,A
63:247,GLY,A
64:248,ILE,A
65:249,ASP,A
66:250,ALA,A
67:251,VAL,A
68:252,MET,A
69:253,ARG,A
70:254,PRO,A
71:255,THR,A
72:256,GLN,A
73:257,PHE,A
74:1105,HIS,B
75:1106,GLN,B
76:1107,PRO,B
77:1108,ALA,B
78:1117,SER,B
79:1118,ALA,B
80:1121,ALA,B
81:1122,PHE,B
82:1123,ASP,B
83:1160,ASN,B
84:1161,ALA,B
85:1163,THR,B
86:1164,VAL,B
87:1165,ALA,B
88:1166,VAL,B
89:1167,ARG,B
90:1168,LYS,B
91:1169,ARG,B
92:1170,ALA,B
93:1171,ALA,B
94:1172,ALA,B
95:1173,TRP,B
96:1174,GLY,B
97:1175,GLU,B
98:1176,ALA,B
99:1177,GLY,B
100:1178,VAL,B
101:1179,ARG,B
102:1180,LEU,B
103:1181,ASN,B
104:1185,PRO,B
105:1186,GLY,B
106:1211,PRO,B
107:1212,PRO,B
108:1213,MET,B
109:1214,GLY,B
110:1215,ARG,B
111:1216,ARG,B
112:1217,ALA,B
113:1218,GLU,B
114:1220,SER,B
115:1221,GLU,B
116:1222,MET,B
117:1223,ALA,B
118:1224,SER,B
119:1225,VAL,B
120:1226,ILE,B
121:1227,ALA,B
122:1228,PHE,B
123:1229,LEU,B
124:1231,SER,B
125:1232,PRO,B
126:1233,ALA,B
127:1234,ALA,B
128:1235,SER,B
129:1236,TYR,B
130:1237,VAL,B
131:1238,HIS,B
132:1239,GLY,B
133:1240,ALA,B
134:1241,GLN,B
135:1242,ILE,B
136:1243,VAL,B
137:1244,ILE,B
138:1245,ASP,B
139:1246,GLY,B
140:1247,GLY,B
141:1248,ILE,B
142:1249,ASP,B
143:1250,ALA,B
144:1251,VAL,B
145:1252,MET,B
146:1253,ARG,B
147:1254,PRO,B
148:1255,THR,B
149:1256,GLN,B
150:1257,PHE,B
