0:60,CYS,B
1:60,CYS,A
2:61,ASP,B
3:61,ASP,A
4:62,SER,B
5:62,SER,A
6:63,ALA,A
7:63,ALA,B
8:88,ARG,A
9:89,SER,A
10:90,ILE,B
11:90,ILE,A
12:91,THR,B
13:91,THR,A
14:92,GLY,A
15:92,GLY,B
16:93,PRO,A
17:93,PRO,B
18:94,ALA,A
19:94,ALA,B
20:97,ILE,A
21:97,ILE,B
22:98,GLU,A
23:98,GLU,B
24:101,ILE,B
25:101,ILE,A
26:102,VAL,B
27:102,VAL,A
28:103,GLY,B
29:105,TYR,A
30:105,TYR,B
31:106,ALA,B
32:106,ALA,A
33:109,GLU,B
34:136,VAL,B
35:136,VAL,A
36:138,GLY,B
37:138,GLY,A
38:158,THR,A
39:158,THR,B
40:159,THR,B
41:159,THR,A
42:160,ALA,B
43:160,ALA,A
44:161,TYR,B
45:161,TYR,A
46:162,ALA,B
47:162,ALA,A
48:163,PRO,A
49:163,PRO,B
50:164,SER,B
51:164,SER,A
52:165,SER,A
53:165,SER,B
54:166,PRO,B
55:166,PRO,A
56:167,TYR,B
57:167,TYR,A
58:168,SER,B
59:168,SER,A
60:169,ALA,B
61:169,ALA,A
62:170,SER,A
63:170,SER,B
64:171,LYS,B
65:171,LYS,A
66:172,ALA,B
67:172,ALA,A
68:173,SER,B
69:173,SER,A
70:174,SER,A
71:174,SER,B
72:175,ASP,A
73:175,ASP,B
74:176,HIS,B
75:176,HIS,A
76:177,LEU,B
77:177,LEU,A
78:178,VAL,B
79:178,VAL,A
80:179,ARG,A
81:179,ARG,B
82:180,ALA,A
83:180,ALA,B
84:181,TRP,B
85:181,TRP,A
86:182,ARG,A
87:182,ARG,B
88:183,ARG,A
89:183,ARG,B
90:184,THR,A
91:184,THR,B
92:185,TYR,A
93:185,TYR,B
94:186,GLY,B
95:186,GLY,A
96:298,PRO,A
97:298,PRO,B
98:299,GLY,A
99:299,GLY,B
100:300,HIS,B
101:300,HIS,A
102:301,ASP,B
