0:26,ARG,B
1:26,ARG,A
2:29,PHE,B
3:29,PHE,A
4:30,ASP,B
5:30,ASP,A
6:32,ASP,A
7:32,ASP,B
8:33,LYS,A
9:33,LYS,B
10:34,GLU,A
11:34,GLU,B
12:35,ARG,A
13:35,ARG,B
14:36,PHE,A
15:36,PHE,B
16:37,ASN,A
17:37,ASN,B
18:39,PHE,A
19:39,PHE,B
20:40,SER,B
21:40,SER,A
22:42,THR,A
23:42,THR,B
24:47,HIS,A
25:47,HIS,B
26:48,GLY,A
27:48,GLY,B
28:49,HIS,A
29:49,HIS,B
30:50,ILE,B
31:50,ILE,A
32:51,LEU,A
33:51,LEU,B
34:52,LEU,A
35:52,LEU,B
36:53,ASP,A
37:53,ASP,B
38:54,TYR,A
39:54,TYR,B
40:55,SER,A
41:55,SER,B
42:56,LYS,A
43:56,LYS,B
44:91,SER,B
45:91,SER,A
46:92,THR,B
47:92,THR,A
48:93,GLU,B
49:93,GLU,A
50:155,GLY,A
51:155,GLY,B
52:156,ILE,A
53:156,ILE,B
54:157,GLY,A
55:157,GLY,B
56:158,GLY,B
57:158,GLY,A
58:159,SER,A
59:159,SER,B
60:160,ASP,B
61:160,ASP,A
62:161,LEU,A
63:161,LEU,B
64:171,LYS,B
65:171,LYS,A
66:172,PRO,B
67:172,PRO,A
68:184,SER,B
69:184,SER,A
70:185,ASN,A
71:185,ASN,B
72:186,ILE,B
73:186,ILE,A
74:187,ASP,B
75:187,ASP,A
76:188,GLY,B
77:188,GLY,A
78:189,THR,B
79:189,THR,A
80:190,HIS,B
81:190,HIS,A
82:191,ILE,A
83:191,ILE,B
84:192,ALA,B
85:192,ALA,A
86:193,LYS,B
87:193,LYS,A
88:215,GLN,A
89:215,GLN,B
90:216,GLU,B
91:216,GLU,A
92:219,THR,B
93:219,THR,A
94:220,ASN,A
95:220,ASN,B
96:222,LYS,A
97:223,THR,B
98:223,THR,A
99:226,ASP,B
100:226,ASP,A
101:271,GLY,B
102:271,GLY,A
103:272,ARG,A
104:272,ARG,B
105:332,CYS,A
106:332,CYS,B
107:333,GLU,A
108:333,GLU,B
109:334,THR,A
110:334,THR,B
111:340,TYR,A
112:340,TYR,B
113:341,ASP,A
114:341,ASP,B
115:342,GLN,B
116:342,GLN,A
117:343,TYR,B
118:343,TYR,A
119:349,ALA,B
120:349,ALA,A
121:350,TYR,B
122:350,TYR,A
123:351,PHE,B
124:351,PHE,A
125:352,GLN,B
126:352,GLN,A
127:353,GLN,A
128:353,GLN,B
129:354,GLY,A
130:354,GLY,B
131:355,ASP,B
132:355,ASP,A
133:356,MET,B
134:356,MET,A
135:357,GLU,B
136:357,GLU,A
137:358,SER,B
138:358,SER,A
139:359,ASN,A
140:359,ASN,B
141:360,GLY,B
142:360,GLY,A
143:361,LYS,A
144:361,LYS,B
145:362,TYR,A
146:362,TYR,B
147:363,ILE,A
148:363,ILE,B
149:364,THR,A
150:364,THR,B
151:365,LYS,B
152:365,LYS,A
153:366,SER,B
154:366,SER,A
155:367,GLY,B
156:367,GLY,A
157:368,ALA,B
158:368,ALA,A
159:369,ARG,A
160:369,ARG,B
161:370,VAL,B
162:370,VAL,A
163:371,ASP,A
164:371,ASP,B
165:372,HIS,A
166:372,HIS,B
167:373,GLN,B
168:373,GLN,A
169:374,THR,B
170:374,THR,A
171:375,GLY,B
172:375,GLY,A
173:376,PRO,A
174:376,PRO,B
175:377,ILE,A
176:377,ILE,B
177:378,VAL,B
178:378,VAL,A
179:379,TRP,B
180:379,TRP,A
181:380,GLY,B
182:380,GLY,A
183:381,GLU,B
184:381,GLU,A
185:382,PRO,B
186:382,PRO,A
187:383,GLY,B
188:383,GLY,A
189:384,THR,B
190:384,THR,A
191:385,ASN,A
192:385,ASN,B
193:386,GLY,A
194:386,GLY,B
195:387,GLN,B
196:387,GLN,A
197:388,HIS,A
198:388,HIS,B
199:389,ALA,B
200:389,ALA,A
201:390,PHE,B
202:390,PHE,A
203:391,TYR,A
204:391,TYR,B
205:392,GLN,B
206:392,GLN,A
207:393,LEU,B
208:393,LEU,A
209:394,ILE,B
210:394,ILE,A
211:395,HIS,A
212:395,HIS,B
213:396,GLN,B
214:396,GLN,A
215:397,GLY,A
216:397,GLY,B
217:398,THR,A
218:398,THR,B
219:399,LYS,A
220:399,LYS,B
221:400,MET,B
222:400,MET,A
223:401,ILE,B
224:401,ILE,A
225:408,PRO,A
226:408,PRO,B
227:409,VAL,A
228:409,VAL,B
229:410,GLN,A
230:410,GLN,B
231:411,THR,A
232:411,THR,B
233:412,GLN,B
234:412,GLN,A
235:413,HIS,B
236:413,HIS,A
237:414,PRO,A
238:414,PRO,B
239:415,ILE,B
240:415,ILE,A
241:416,ARG,A
242:416,ARG,B
243:418,GLY,B
244:418,GLY,A
245:419,LEU,A
246:419,LEU,B
247:420,HIS,B
248:420,HIS,A
249:421,HIS,A
250:421,HIS,B
251:422,LYS,A
252:422,LYS,B
253:423,ILE,B
254:423,ILE,A
255:424,LEU,A
256:424,LEU,B
257:425,LEU,A
258:425,LEU,B
259:426,ALA,B
260:426,ALA,A
261:427,ASN,A
262:427,ASN,B
263:428,PHE,A
264:428,PHE,B
265:429,LEU,B
266:429,LEU,A
267:430,ALA,A
268:430,ALA,B
269:431,GLN,A
270:431,GLN,B
271:432,THR,B
272:432,THR,A
273:433,GLU,B
274:433,GLU,A
275:434,ALA,B
276:434,ALA,A
277:436,MET,A
278:436,MET,B
279:437,LYS,A
280:437,LYS,B
281:439,LYS,B
282:457,ASP,A
283:457,ASP,B
284:459,MET,A
285:459,MET,B
286:460,LYS,B
287:460,LYS,A
288:461,LEU,B
289:461,LEU,A
290:462,LEU,B
291:462,LEU,A
292:463,PRO,B
293:463,PRO,A
294:464,HIS,A
295:464,HIS,B
296:465,LYS,B
297:465,LYS,A
298:466,VAL,A
299:466,VAL,B
300:467,PHE,A
301:467,PHE,B
302:468,GLU,B
303:468,GLU,A
304:475,SER,B
305:475,SER,A
306:476,ILE,A
307:476,ILE,B
308:477,VAL,A
309:477,VAL,B
310:478,PHE,B
311:478,PHE,A
312:479,THR,B
313:479,THR,A
314:480,LYS,A
315:480,LYS,B
316:506,ILE,B
317:507,ASN,A
318:507,ASN,B
319:510,ASP,A
320:510,ASP,B
321:511,GLN,B
322:511,GLN,A
323:512,TRP,B
324:512,TRP,A
325:513,GLY,A
326:513,GLY,B
327:514,VAL,B
328:514,VAL,A
329:515,GLU,B
330:515,GLU,A
331:516,LEU,B
332:516,LEU,A
333:517,GLY,B
334:517,GLY,A
335:518,LYS,A
336:518,LYS,B
337:519,GLN,B
338:519,GLN,A
339:520,LEU,A
340:520,LEU,B
341:521,ALA,A
342:521,ALA,B
343:522,LYS,B
344:522,LYS,A
345:523,LYS,B
346:523,LYS,A
347:524,ILE,A
348:524,ILE,B
349:525,GLU,B
350:525,GLU,A
351:526,PRO,A
352:526,PRO,B
353:527,GLU,B
354:527,GLU,A
355:528,LEU,B
356:528,LEU,A
357:529,ASP,B
358:529,ASP,A
359:537,HIS,B
360:537,HIS,A
361:538,ASP,A
362:538,ASP,B
363:539,SER,B
364:539,SER,A
365:540,SER,B
366:540,SER,A
367:541,THR,B
368:541,THR,A
369:542,ASN,A
370:542,ASN,B
371:543,GLY,A
372:543,GLY,B
373:544,LEU,B
374:544,LEU,A
375:545,ILE,B
376:545,ILE,A
377:547,PHE,B
378:547,PHE,A
379:548,ILE,B
380:548,ILE,A
381:549,LYS,A
382:549,LYS,B
383:550,GLN,A
384:550,GLN,B
385:551,GLN,B
386:551,GLN,A
387:552,ARG,B
388:552,ARG,A
389:553,GLU,A
390:553,GLU,B
391:554,ALA,B
392:554,ALA,A
393:555,LYS,B
394:555,LYS,A
