0:7,ASP,A
1:8,LEU,A
2:8,LEU,B
3:9,ARG,B
4:9,ARG,A
5:10,ILE,A
6:10,ILE,B
7:11,LYS,B
8:11,LYS,A
9:12,GLU,A
10:12,GLU,B
11:13,ILE,A
12:13,ILE,B
13:14,LYS,B
14:14,LYS,A
15:15,GLU,A
16:15,GLU,B
17:16,LEU,B
18:16,LEU,A
19:17,LEU,B
20:17,LEU,A
21:18,PRO,B
22:18,PRO,A
23:19,PRO,A
24:97,LYS,B
25:97,LYS,A
26:98,PRO,B
27:98,PRO,A
28:99,ARG,B
29:99,ARG,A
30:100,THR,A
31:100,THR,B
32:101,THR,B
33:101,THR,A
34:102,VAL,B
35:102,VAL,A
36:103,GLY,A
37:103,GLY,B
38:105,LYS,A
39:105,LYS,B
40:108,ILE,A
41:108,ILE,B
42:109,ASN,A
43:109,ASN,B
44:110,ASP,A
45:110,ASP,B
46:115,ASN,B
47:115,ASN,A
48:116,SER,B
49:116,SER,A
50:117,PHE,A
51:117,PHE,B
52:118,GLN,A
53:118,GLN,B
54:119,ILE,A
55:119,ILE,B
56:120,ASN,A
57:120,ASN,B
58:145,LEU,A
59:145,LEU,B
60:146,ASP,B
61:146,ASP,A
62:147,MET,A
63:147,MET,B
64:148,ILE,B
65:148,ILE,A
66:149,THR,B
67:149,THR,A
68:154,ALA,B
69:155,ASP,B
70:155,ASP,A
71:163,GLY,B
72:163,GLY,A
73:164,ALA,A
74:164,ALA,B
75:165,ARG,B
76:165,ARG,A
77:166,THR,B
78:166,THR,A
79:167,THR,B
80:167,THR,A
81:168,GLU,B
82:168,GLU,A
83:169,SER,A
84:169,SER,B
85:170,GLN,B
86:170,GLN,A
87:171,VAL,B
88:171,VAL,A
89:172,HIS,B
90:172,HIS,A
91:173,ARG,A
92:173,ARG,B
93:176,ALA,B
94:176,ALA,A
95:177,SER,B
96:177,SER,A
97:178,GLY,B
98:178,GLY,A
99:179,LEU,A
100:179,LEU,B
101:180,SER,B
102:180,SER,A
103:181,CYS,A
104:181,CYS,B
105:188,GLY,B
106:188,GLY,A
107:189,THR,B
108:189,THR,A
109:190,ASP,A
110:190,ASP,B
111:192,THR,B
112:192,THR,A
113:194,LYS,A
114:195,VAL,A
115:195,VAL,B
116:197,ILE,A
117:197,ILE,B
118:198,ASP,B
119:198,ASP,A
120:199,ALA,B
121:199,ALA,A
122:200,ILE,B
123:200,ILE,A
124:201,ASN,B
125:201,ASN,A
126:202,ALA,B
127:202,ALA,A
128:203,ALA,A
129:203,ALA,B
130:204,GLY,A
131:205,ALA,B
132:205,ALA,A
133:206,PRO,A
134:206,PRO,B
135:207,HIS,A
136:207,HIS,B
137:208,CYS,B
138:208,CYS,A
139:209,PHE,A
140:209,PHE,B
141:210,LEU,B
142:210,LEU,A
143:211,SER,A
144:211,SER,B
145:212,VAL,A
146:212,VAL,B
147:213,THR,A
148:213,THR,B
149:215,TRP,B
150:215,TRP,A
151:216,GLY,B
152:216,GLY,A
153:217,HIS,B
154:217,HIS,A
155:218,SER,A
156:218,SER,B
157:219,ALA,B
158:219,ALA,A
159:220,ILE,A
160:220,ILE,B
161:221,VAL,B
162:221,VAL,A
163:222,ASN,B
164:222,ASN,A
165:223,THR,B
166:223,THR,A
167:224,SER,B
168:224,SER,A
169:225,GLY,A
170:225,GLY,B
171:226,ASN,A
172:226,ASN,B
