0:27,LEU,B
1:27,LEU,A
2:28,ALA,B
3:28,ALA,A
4:29,ASP,B
5:29,ASP,A
6:30,TYR,B
7:30,TYR,A
8:31,GLY,B
9:31,GLY,A
10:32,PRO,B
11:32,PRO,A
12:33,VAL,B
13:33,VAL,A
14:34,ARG,A
15:34,ARG,B
16:35,GLY,A
17:35,GLY,B
18:36,THR,A
19:36,THR,B
20:37,ILE,B
21:37,ILE,A
22:38,VAL,B
23:38,VAL,A
24:39,VAL,A
25:39,VAL,B
26:40,ARG,B
27:40,ARG,A
28:41,PRO,B
29:41,PRO,A
30:42,TYR,A
31:42,TYR,B
32:43,GLY,A
33:43,GLY,B
34:44,TYR,B
35:44,TYR,A
36:45,ALA,B
37:45,ALA,A
38:47,TRP,A
39:48,GLU,B
40:48,GLU,A
41:63,HIS,A
42:63,HIS,B
43:64,GLN,A
44:64,GLN,B
45:65,ASN,B
46:65,ASN,A
47:66,ALA,B
48:66,ALA,A
49:67,TYR,A
50:67,TYR,B
51:68,PHE,A
52:68,PHE,B
53:69,PRO,A
54:69,PRO,B
55:70,LEU,B
56:70,LEU,A
57:71,PHE,A
58:71,PHE,B
59:72,ILE,B
60:72,ILE,A
61:73,PRO,A
62:73,PRO,B
63:74,MET,B
64:74,MET,A
65:75,SER,A
66:76,PHE,A
67:76,PHE,B
68:87,PHE,B
69:87,PHE,A
70:88,SER,A
71:88,SER,B
72:89,PRO,B
73:89,PRO,A
74:90,GLU,B
75:90,GLU,A
76:91,LEU,B
77:91,LEU,A
78:92,ALA,B
79:92,ALA,A
80:93,VAL,B
81:93,VAL,A
82:94,VAL,A
83:94,VAL,B
84:95,THR,B
85:95,THR,A
86:96,HIS,B
87:96,HIS,A
88:97,ALA,B
89:97,ALA,A
90:98,GLY,A
91:98,GLY,B
92:99,GLY,A
93:99,GLY,B
94:100,GLU,B
95:100,GLU,A
96:101,GLU,B
97:101,GLU,A
98:102,LEU,A
99:104,GLU,B
100:104,GLU,A
101:105,PRO,A
102:105,PRO,B
103:106,LEU,A
104:106,LEU,B
105:107,ALA,A
106:107,ALA,B
107:108,VAL,B
108:108,VAL,A
109:114,THR,A
110:115,VAL,A
111:115,VAL,B
112:116,ILE,B
113:116,ILE,A
114:118,TYR,A
115:118,TYR,B
116:119,MET,B
117:119,MET,A
118:133,LEU,B
119:134,LEU,A
120:134,LEU,B
121:135,ASN,A
122:135,ASN,B
123:136,GLN,B
124:136,GLN,A
125:137,TRP,B
126:138,GLY,B
127:138,GLY,A
128:139,ASN,B
129:139,ASN,A
130:140,VAL,B
131:140,VAL,A
132:141,VAL,A
133:141,VAL,B
134:142,ARG,A
135:142,ARG,B
136:143,TRP,A
137:143,TRP,B
138:144,GLU,A
139:144,GLU,B
140:145,MET,B
141:145,MET,A
142:154,SER,A
143:154,SER,B
144:155,GLU,A
145:155,GLU,B
146:156,PHE,A
147:156,PHE,B
148:157,LEU,A
149:157,LEU,B
