0:1,MET,A
1:2,TYR,A
2:3,ASP,A
3:4,TRP,A
4:5,PHE,A
5:6,SER,A
6:7,GLU,A
7:8,MET,A
8:631,SER,B
9:632,LYS,B
10:633,ILE,B
11:634,LEU,B
12:635,GLY,B
13:636,LEU,B
14:637,PRO,B
15:638,ILE,B
16:678,HIS,B
17:679,LEU,B
18:680,ASN,B
19:681,SER,B
20:682,GLY,B
21:683,THR,B
22:684,GLU,B
