0:3,THR,A
1:4,ALA,A
2:5,ALA,A
3:6,ALA,A
4:7,LYS,A
5:8,PHE,A
6:9,GLU,A
7:10,ARG,A
8:11,GLN,A
9:12,HIS,A
10:13,MET,A
11:14,ASP,A
12:15,SER,A
13:29,MET,B
14:30,MET,B
15:32,SER,B
16:33,ARG,B
17:34,ASN,B
18:35,LEU,B
19:44,ASN,B
20:45,THR,B
21:46,PHE,B
22:47,VAL,B
23:48,HIS,B
24:49,GLU,B
25:50,SER,B
26:51,LEU,B
27:52,ALA,B
28:53,ASP,B
29:54,VAL,B
30:55,GLN,B
31:80,SER,B
32:81,ILE,B
33:82,THR,B
34:110,CYS,B
35:111,GLU,B
36:112,GLY,B
37:115,TYR,B
38:116,VAL,B
39:117,PRO,B
40:118,VAL,B
41:119,HIS,B
42:120,PHE,B
