0:2,GLU,A
1:3,LYS,A
2:4,LYS,A
3:5,LYS,A
4:92,GLY,A
5:152,ALA,A
6:153,LYS,A
7:154,ILE,A
8:155,GLU,A
9:156,GLY,A
10:157,ILE,A
11:158,ASN,A
12:542,ALA,B
13:544,GLU,B
14:545,GLY,B
15:546,LYS,B
16:547,LEU,B
17:548,ASN,B
18:549,PHE,B
19:550,GLU,B
20:551,GLN,B
21:552,SER,B
22:553,LEU,B
23:554,ARG,B
24:555,LYS,B
25:556,ARG,B
26:557,VAL,B
27:558,SER,B
28:559,LEU,B
29:632,GLY,B
30:633,ASP,B
31:641,GLU,B
32:669,ALA,B
