0:43,GLU,A
1:44,GLN,A
2:45,SER,A
3:46,PRO,A
4:88,LEU,B
5:89,ASP,B
6:90,VAL,B
7:93,THR,B
8:94,ASN,B
9:95,TRP,B
10:96,SER,B
11:98,ALA,B
12:99,LEU,B
13:103,THR,B
14:104,VAL,B
15:106,LEU,B
16:107,SER,B
17:110,ALA,B
18:111,LEU,B
19:114,SER,B
20:114,SER,A
21:115,PRO,A
22:115,PRO,B
23:116,ASN,B
24:116,ASN,A
25:117,PRO,A
26:118,ASN,A
27:119,ASP,B
28:120,PRO,B
29:121,LEU,B
30:129,TRP,A
31:130,ILE,A
32:131,LYS,A
33:132,ASN,A
34:133,GLU,A
35:134,GLN,A
36:137,LYS,A
37:138,ALA,A
