0:96,ALA,B
1:96,ALA,A
2:97,GLY,A
3:97,GLY,B
4:98,GLY,A
5:98,GLY,B
6:99,ARG,B
7:99,ARG,A
8:100,GLY,B
9:100,GLY,A
10:101,LEU,A
11:101,LEU,B
12:265,ALA,A
13:265,ALA,B
14:266,GLU,A
15:266,GLU,B
16:267,GLN,A
17:267,GLN,B
18:268,GLY,A
19:268,GLY,B
20:269,PHE,B
21:269,PHE,A
22:270,SER,B
23:270,SER,A
24:271,GLY,B
25:271,GLY,A
26:272,ARG,B
27:272,ARG,A
28:273,GLU,A
29:273,GLU,B
30:274,VAL,A
31:274,VAL,B
32:276,ALA,B
33:276,ALA,A
34:277,GLU,A
35:277,GLU,B
36:291,ILE,B
37:291,ILE,A
38:296,ARG,B
39:296,ARG,A
40:297,GLN,B
41:297,GLN,A
42:299,GLY,B
43:299,GLY,A
44:300,HIS,B
45:300,HIS,A
46:301,THR,A
47:301,THR,B
48:302,LEU,A
49:302,LEU,B
50:303,SER,A
51:303,SER,B
52:304,LEU,A
53:304,LEU,B
54:305,GLN,A
55:305,GLN,B
