0:75,GLY,B
1:98,TYR,B
2:98,TYR,A
3:99,GLN,B
4:99,GLN,A
5:100,VAL,A
6:100,VAL,B
7:101,ASP,A
8:101,ASP,B
9:102,PRO,B
10:102,PRO,A
11:103,SER,B
12:103,SER,A
13:104,LEU,A
14:104,LEU,B
15:105,PHE,A
16:105,PHE,B
17:106,LYS,B
18:106,LYS,A
19:107,PRO,B
20:107,PRO,A
21:108,ASN,B
22:109,ALA,B
23:120,MET,B
24:120,MET,A
25:121,LYS,A
26:121,LYS,B
27:122,ASP,A
28:122,ASP,B
29:123,ILE,A
30:123,ILE,B
31:124,GLY,B
32:124,GLY,A
33:125,ILE,A
34:125,ILE,B
35:126,MET,B
36:126,MET,A
37:127,ASP,B
38:127,ASP,A
39:129,ASP,A
40:129,ASP,B
41:130,LEU,B
42:130,LEU,A
43:131,LEU,A
44:131,LEU,B
45:132,ALA,A
46:132,ALA,B
47:192,ALA,A
48:193,VAL,B
49:193,VAL,A
50:194,GLY,A
51:194,GLY,B
52:195,VAL,A
53:195,VAL,B
54:196,ILE,A
55:196,ILE,B
56:197,ARG,B
57:197,ARG,A
58:198,ASN,A
59:198,ASN,B
