0:1,ALA,B
1:1,ALA,A
2:2,TYR,B
3:2,TYR,A
4:3,THR,A
5:3,THR,B
6:4,THR,A
7:4,THR,B
8:5,PHE,B
9:5,PHE,A
10:6,SER,B
11:6,SER,A
12:7,GLN,B
13:7,GLN,A
14:8,THR,A
15:8,THR,B
16:9,LYS,B
17:9,LYS,A
18:10,ASN,B
19:10,ASN,A
20:11,ASP,B
21:11,ASP,A
22:23,VAL,B
23:23,VAL,A
24:24,ASN,A
25:24,ASN,B
26:25,VAL,A
27:25,VAL,B
28:26,ALA,A
29:26,ALA,B
30:27,ARG,A
31:27,ARG,B
32:28,TYR,B
33:28,TYR,A
34:29,ASP,B
35:29,ASP,A
36:30,GLN,B
37:30,GLN,A
38:41,GLU,B
39:41,GLU,A
40:44,LEU,B
41:44,LEU,A
42:45,SER,B
43:45,SER,A
44:47,PHE,B
45:47,PHE,A
46:48,TRP,B
47:48,TRP,A
48:49,ARG,A
49:49,ARG,B
50:51,GLU,A
51:78,LYS,B
52:78,LYS,A
53:81,THR,B
54:81,THR,A
55:82,LEU,B
56:82,LEU,A
57:83,LEU,A
58:83,LEU,B
59:84,ASP,A
60:84,ASP,B
61:85,SER,A
62:85,SER,B
63:86,ILE,A
64:86,ILE,B
65:87,GLN,A
66:87,GLN,B
67:88,GLY,B
68:88,GLY,A
69:89,ARG,B
70:89,ARG,A
71:90,SER,A
72:90,SER,B
73:91,PRO,B
74:91,PRO,A
75:92,ASN,A
76:92,ASN,B
77:93,VAL,A
78:93,VAL,B
79:94,ALA,A
80:94,ALA,B
81:95,LEU,B
82:95,LEU,A
83:96,LEU,B
84:96,LEU,A
85:97,PRO,A
86:97,PRO,B
87:102,PRO,B
88:102,PRO,A
89:105,GLU,A
90:105,GLU,B
91:106,THR,A
92:106,THR,B
93:107,TRP,A
94:107,TRP,B
95:108,VAL,B
96:109,GLU,A
97:109,GLU,B
98:110,THR,A
99:110,THR,B
100:111,TRP,B
101:111,TRP,A
102:112,ALA,B
103:112,ALA,A
104:113,PHE,A
105:113,PHE,B
106:114,SER,B
107:114,SER,A
108:116,THR,A
109:116,THR,B
110:117,ILE,B
111:117,ILE,A
112:118,HIS,B
113:118,HIS,A
114:119,SER,B
115:119,SER,A
116:120,ARG,B
117:120,ARG,A
118:121,SER,A
119:121,SER,B
120:122,TYR,B
121:122,TYR,A
122:123,THR,B
123:123,THR,A
124:124,HIS,B
125:124,HIS,A
126:126,ILE,A
127:126,ILE,B
128:127,ARG,B
129:127,ARG,A
130:132,ASP,A
131:132,ASP,B
132:133,PRO,B
133:133,PRO,A
134:134,SER,B
135:134,SER,A
136:137,PHE,B
137:137,PHE,A
138:138,ASP,A
139:138,ASP,B
140:139,ASP,B
141:139,ASP,A
142:140,ILE,A
143:140,ILE,B
144:141,VAL,A
145:141,VAL,B
146:142,THR,B
147:142,THR,A
148:147,GLN,B
149:147,GLN,A
150:153,ILE,B
151:153,ILE,A
152:154,SER,A
153:154,SER,B
154:155,SER,A
155:155,SER,B
156:156,TYR,A
157:156,TYR,B
158:157,TYR,B
159:157,TYR,A
160:158,ASP,A
161:158,ASP,B
162:159,GLU,B
163:159,GLU,A
164:161,ILE,A
165:161,ILE,B
166:162,GLU,A
167:162,GLU,B
168:163,MET,B
169:163,MET,A
170:164,THR,B
171:164,THR,A
172:165,SER,A
173:165,SER,B
174:166,TYR,A
175:166,TYR,B
176:168,HIS,A
177:168,HIS,B
178:169,LEU,A
179:169,LEU,B
180:170,LEU,B
181:170,LEU,A
182:174,THR,A
183:174,THR,B
184:175,HIS,A
185:175,HIS,B
186:176,THR,B
187:176,THR,A
188:177,VAL,B
189:177,VAL,A
190:178,ASN,B
191:178,ASN,A
192:179,GLY,B
193:179,GLY,A
194:180,LYS,A
195:180,LYS,B
196:181,THR,A
197:181,THR,B
198:182,VAL,A
199:182,VAL,B
