0:26,ALA,A
1:26,ALA,B
2:27,ASN,B
3:27,ASN,A
4:28,SER,A
5:28,SER,B
6:29,GLY,B
7:29,GLY,A
8:69,HIS,A
9:69,HIS,B
10:92,GLN,A
11:92,GLN,B
12:93,PHE,A
13:93,PHE,B
14:94,ARG,B
15:94,ARG,A
16:95,GLN,A
17:95,GLN,B
18:96,LEU,B
19:96,LEU,A
20:97,GLY,A
21:97,GLY,B
22:98,SER,B
23:98,SER,A
24:99,ARG,A
25:99,ARG,B
26:100,THR,A
27:100,THR,B
28:101,PRO,B
29:101,PRO,A
30:102,GLY,A
31:102,GLY,B
32:103,HIS,B
33:103,HIS,A
34:104,PRO,B
35:104,PRO,A
36:105,GLU,A
37:105,GLU,B
38:114,THR,B
39:114,THR,A
40:115,THR,B
41:115,THR,A
42:116,GLY,B
43:116,GLY,A
44:117,PRO,B
45:117,PRO,A
46:118,LEU,B
47:118,LEU,A
48:119,GLY,A
49:119,GLY,B
50:157,ASP,B
51:157,ASP,A
52:158,GLY,B
53:158,GLY,A
54:159,CYS,B
55:159,CYS,A
56:160,LEU,B
57:160,LEU,A
58:161,GLN,B
59:161,GLN,A
60:162,GLU,A
61:162,GLU,B
62:163,GLY,B
63:163,GLY,A
64:164,ILE,B
65:164,ILE,A
66:165,SER,A
67:165,SER,B
68:166,SER,B
69:166,SER,A
70:167,GLU,A
71:167,GLU,B
72:168,ALA,A
73:168,ALA,B
74:169,SER,A
75:170,SER,A
76:170,SER,B
77:171,LEU,B
78:171,LEU,A
79:172,ALA,B
80:172,ALA,A
81:173,GLY,B
82:173,GLY,A
83:174,HIS,A
84:174,HIS,B
85:175,LEU,A
86:175,LEU,B
87:190,THR,A
88:190,THR,B
89:191,ILE,A
90:191,ILE,B
91:192,ASP,B
92:192,ASP,A
93:193,GLY,A
94:193,GLY,B
95:195,THR,A
96:195,THR,B
97:196,SER,B
98:196,SER,A
99:197,ILE,B
100:197,ILE,A
101:198,SER,A
102:198,SER,B
103:199,PHE,A
104:199,PHE,B
105:200,ASP,A
106:200,ASP,B
107:201,GLU,A
108:201,GLU,B
109:202,ASP,B
110:202,ASP,A
111:203,VAL,B
112:203,VAL,A
113:204,ALA,A
114:204,ALA,B
115:205,LYS,B
116:205,LYS,A
117:206,ARG,B
118:206,ARG,A
119:207,TYR,B
120:207,TYR,A
121:208,GLU,B
122:208,GLU,A
123:209,ALA,B
124:209,ALA,A
125:210,TYR,B
126:210,TYR,A
127:211,GLY,B
128:211,GLY,A
129:212,TRP,B
130:212,TRP,A
131:380,SER,B
132:380,SER,A
133:381,ALA,A
134:381,ALA,B
135:382,ASP,A
136:382,ASP,B
137:383,LEU,A
138:383,LEU,B
139:384,THR,B
140:384,THR,A
141:385,PRO,B
142:385,PRO,A
143:386,SER,B
144:386,SER,A
145:396,ASP,B
146:396,ASP,A
147:398,GLN,B
148:398,GLN,A
149:402,SER,A
150:402,SER,B
151:404,SER,A
152:404,SER,B
153:405,GLY,A
154:405,GLY,B
155:412,ILE,A
156:412,ILE,B
157:413,ARG,A
158:413,ARG,B
159:414,TYR,B
160:414,TYR,A
161:415,GLY,B
162:415,GLY,A
163:416,ILE,A
164:416,ILE,B
165:417,ARG,A
166:417,ARG,B
167:418,GLU,A
168:418,GLU,B
169:419,HIS,B
170:419,HIS,A
171:420,ALA,A
172:420,ALA,B
173:444,ASN,B
174:444,ASN,A
175:445,PHE,B
176:445,PHE,A
177:446,VAL,A
178:446,VAL,B
179:447,SER,A
180:447,SER,B
181:448,TYR,B
182:448,TYR,A
183:449,ALA,B
184:449,ALA,A
185:450,ALA,B
186:450,ALA,A
187:451,GLY,B
188:451,GLY,A
189:452,ALA,A
190:452,ALA,B
191:454,ARG,A
192:454,ARG,B
193:455,LEU,B
194:455,LEU,A
195:457,ALA,A
196:457,ALA,B
197:458,LEU,A
198:458,LEU,B
199:459,SER,B
200:459,SER,A
201:475,GLY,A
202:475,GLY,B
203:476,GLU,A
204:476,GLU,B
205:477,ASP,B
206:477,ASP,A
207:478,GLY,A
208:478,GLY,B
209:479,PRO,A
210:479,PRO,B
211:480,THR,A
212:480,THR,B
213:481,HIS,B
214:481,HIS,A
215:483,PRO,A
216:483,PRO,B
217:484,ILE,B
218:484,ILE,A
219:485,GLU,B
220:485,GLU,A
221:486,THR,A
222:486,THR,B
223:487,LEU,B
224:487,LEU,A
225:488,ALA,A
226:488,ALA,B
227:489,HIS,B
228:489,HIS,A
229:490,PHE,B
230:490,PHE,A
231:491,ARG,B
232:491,ARG,A
233:492,SER,A
234:492,SER,B
235:493,LEU,A
236:493,LEU,B
237:494,PRO,A
238:494,PRO,B
239:495,ASN,B
240:495,ASN,A
241:613,MET,A
242:613,MET,B
243:618,LEU,A
244:618,LEU,B
245:619,ALA,A
246:619,ALA,B
247:620,THR,B
248:620,THR,A
249:621,THR,A
250:621,THR,B
251:622,CYS,B
252:622,CYS,A
253:623,TRP,A
254:623,TRP,B
255:624,GLY,A
256:624,GLY,B
257:625,LYS,B
258:625,LYS,A
259:626,TYR,B
260:626,TYR,A
261:627,ALA,B
262:627,ALA,A
263:628,HIS,A
264:628,HIS,B
265:629,GLN,B
266:629,GLN,A
267:630,SER,A
268:630,SER,B
269:631,PHE,B
270:631,PHE,A
271:633,ILE,B
272:633,ILE,A
273:634,ASP,A
274:634,ASP,B
275:635,ARG,B
276:635,ARG,A
277:636,PHE,B
278:636,PHE,A
279:637,GLY,A
280:637,GLY,B
281:638,ALA,A
282:638,ALA,B
283:639,SER,A
284:639,SER,B
285:640,GLY,A
286:640,GLY,B
287:641,LYS,B
288:641,LYS,A
289:642,ALA,B
290:642,ALA,A
291:644,GLU,A
292:644,GLU,B
293:645,VAL,A
294:645,VAL,B
295:648,PHE,A
296:648,PHE,B
297:658,GLU,A
298:658,GLU,B
299:659,ARG,B
300:659,ARG,A
301:660,ALA,B
302:660,ALA,A
303:661,GLN,B
304:661,GLN,A
305:662,LYS,A
306:662,LYS,B
307:663,THR,B
308:663,THR,A
309:664,ILE,B
310:664,ILE,A
311:665,ALA,B
312:665,ALA,A
313:666,PHE,A
314:666,PHE,B
315:667,TYR,B
316:667,TYR,A
317:675,PRO,A
318:675,PRO,B
319:677,LYS,A
320:677,LYS,B
321:678,LYS,A
322:678,LYS,B
323:679,ALA,B
324:679,ALA,A
325:680,PHE,B
326:680,PHE,A
