0:1,CYS,B
1:1,CYS,A
2:8,SER,B
3:8,SER,A
4:9,TYR,A
5:9,TYR,B
6:10,ARG,B
7:10,ARG,A
8:11,GLY,B
9:11,GLY,A
10:12,THR,A
11:12,THR,B
12:13,SER,A
13:13,SER,B
14:45,GLY,A
15:45,GLY,B
16:47,THR,B
17:47,THR,A
