0:64,LEU,A
1:64,LEU,B
2:65,TYR,B
3:65,TYR,A
4:66,GLN,B
5:66,GLN,A
6:67,ASP,A
7:67,ASP,B
8:139,ASN,A
9:139,ASN,B
10:140,VAL,A
11:140,VAL,B
12:141,THR,B
13:141,THR,A
14:142,ALA,B
15:142,ALA,A
16:143,VAL,B
17:143,VAL,A
18:144,ASP,B
19:144,ASP,A
20:145,SER,B
21:145,SER,A
22:146,ALA,A
23:146,ALA,B
24:147,GLY,B
25:147,GLY,A
