0:5,MET,A
1:5,MET,B
2:6,LEU,A
3:6,LEU,B
4:7,GLY,A
5:7,GLY,B
6:8,ASN,A
7:8,ASN,B
8:9,LEU,A
9:9,LEU,B
10:10,LYS,B
11:10,LYS,A
12:11,PRO,A
13:11,PRO,B
14:12,GLN,A
15:12,GLN,B
16:13,ALA,B
17:13,ALA,A
18:14,PRO,A
19:14,PRO,B
20:15,ASP,A
21:15,ASP,B
22:18,LEU,B
23:37,VAL,B
24:38,GLY,A
25:38,GLY,B
26:39,VAL,A
27:39,VAL,B
28:40,TYR,A
29:40,TYR,B
30:41,LYS,A
31:41,LYS,B
32:46,HIS,A
33:46,HIS,B
34:47,THR,B
35:47,THR,A
36:48,PRO,B
37:48,PRO,A
38:49,ILE,A
39:49,ILE,B
40:50,MET,B
41:50,MET,A
42:54,HIS,B
43:54,HIS,A
44:55,ALA,A
45:57,GLU,B
46:57,GLU,A
47:58,GLN,B
48:58,GLN,A
49:61,LEU,A
50:61,LEU,B
51:62,GLU,B
52:62,GLU,A
53:64,GLU,A
54:64,GLU,B
55:66,THR,B
56:66,THR,A
57:67,THR,B
58:67,THR,A
59:68,LYS,A
60:68,LYS,B
61:69,THR,A
62:69,THR,B
63:70,TYR,A
64:70,TYR,B
65:71,ALA,B
66:71,ALA,A
67:72,GLY,B
68:72,GLY,A
69:73,LEU,B
70:73,LEU,A
71:105,THR,A
72:105,THR,B
73:106,VAL,A
74:106,VAL,B
75:107,GLY,B
76:107,GLY,A
77:108,GLY,A
78:108,GLY,B
79:109,THR,B
80:109,THR,A
81:110,GLY,B
82:110,GLY,A
83:111,ALA,A
84:111,ALA,B
85:112,LEU,B
86:112,LEU,A
87:113,ARG,A
88:113,ARG,B
89:114,GLN,B
90:114,GLN,A
91:118,LEU,B
92:118,LEU,A
93:119,ALA,B
94:119,ALA,A
95:120,ARG,B
96:120,ARG,A
97:121,MET,A
98:121,MET,B
99:122,ALA,A
100:122,ALA,B
101:123,ASN,A
102:123,ASN,B
103:126,LEU,A
104:142,ASN,B
105:142,ASN,A
106:143,HIS,B
107:143,HIS,A
108:144,VAL,B
109:144,VAL,A
110:145,SER,B
111:145,SER,A
112:146,ILE,A
113:146,ILE,B
114:147,MET,A
115:147,MET,B
116:148,ASN,B
117:148,ASN,A
118:149,PHE,A
119:149,PHE,B
120:150,MET,B
121:150,MET,A
122:182,LYS,A
123:182,LYS,B
124:183,GLY,A
125:183,GLY,B
126:184,ASP,B
127:184,ASP,A
128:185,MET,A
129:216,GLY,B
130:216,GLY,A
131:217,ALA,A
132:217,ALA,B
133:218,LEU,A
134:218,LEU,B
135:249,GLU,B
136:249,GLU,A
137:250,VAL,A
138:250,VAL,B
139:257,SER,B
140:257,SER,A
141:258,LYS,B
142:258,LYS,A
143:260,PHE,A
144:261,GLY,B
145:261,GLY,A
146:262,ILE,B
147:262,ILE,A
148:263,TYR,B
149:263,TYR,A
150:264,ARG,A
151:264,ARG,B
152:265,GLU,B
153:265,GLU,A
154:266,ARG,B
155:266,ARG,A
156:267,THR,B
157:267,THR,A
158:272,ALA,B
159:272,ALA,A
160:273,LEU,B
161:273,LEU,A
162:274,CYS,B
163:274,CYS,A
164:275,ALA,B
165:275,ALA,A
166:276,ASP,B
167:276,ASP,A
168:278,ALA,B
169:278,ALA,A
170:279,THR,A
171:279,THR,B
172:280,ARG,B
173:280,ARG,A
174:281,GLU,B
175:281,GLU,A
176:282,LEU,A
177:282,LEU,B
178:283,ALA,B
179:283,ALA,A
180:284,GLN,A
181:284,GLN,B
182:285,GLY,B
183:285,GLY,A
184:286,ALA,A
185:286,ALA,B
186:287,MET,A
187:287,MET,B
188:288,ALA,B
189:288,ALA,A
190:289,PHE,A
191:289,PHE,B
192:290,LEU,A
193:290,LEU,B
194:291,ASN,A
195:291,ASN,B
196:292,ARG,B
197:292,ARG,A
198:293,GLN,B
199:293,GLN,A
200:294,THR,B
201:294,THR,A
202:295,TYR,A
203:295,TYR,B
204:296,SER,A
205:296,SER,B
206:297,PHE,B
207:297,PHE,A
208:298,PRO,A
209:298,PRO,B
210:299,PRO,B
211:299,PRO,A
212:300,PHE,B
213:300,PHE,A
214:301,HIS,B
215:301,HIS,A
216:302,GLY,B
217:302,GLY,A
