0:6,ILE,A
1:6,ILE,B
2:7,SER,B
3:7,SER,A
4:8,ALA,A
5:8,ALA,B
6:9,ILE,B
7:9,ILE,A
8:10,ASN,B
9:10,ASN,A
10:11,TRP,B
11:11,TRP,A
12:12,ASN,A
13:12,ASN,B
14:13,LYS,B
15:13,LYS,A
16:24,ASN,A
17:27,THR,B
18:27,THR,A
19:28,SER,A
20:28,SER,B
21:30,PHE,B
22:30,PHE,A
23:31,TRP,B
24:31,TRP,A
25:32,LEU,A
26:32,LEU,B
27:34,GLU,A
28:34,GLU,B
29:61,THR,B
30:61,THR,A
31:62,GLY,B
32:62,GLY,A
33:63,LEU,B
34:63,LEU,A
35:64,THR,A
36:64,THR,B
37:65,LEU,A
38:65,LEU,B
39:66,LEU,B
40:66,LEU,A
41:67,ASP,A
42:67,ASP,B
43:68,THR,A
44:68,THR,B
45:69,ILE,A
46:69,ILE,B
47:71,ASN,B
48:71,ASN,A
49:72,ILE,B
50:72,ILE,A
51:73,ALA,A
52:73,ALA,B
53:76,PRO,B
54:76,PRO,A
55:79,MET,A
56:79,MET,B
57:80,ALA,B
58:80,ALA,A
59:85,PRO,A
60:85,PRO,B
61:86,HIS,B
62:86,HIS,A
63:88,GLU,B
64:88,GLU,A
65:89,ALA,A
66:89,ALA,B
67:90,VAL,A
68:90,VAL,B
69:91,LEU,B
70:91,LEU,A
71:92,SER,B
72:92,SER,A
73:93,ASN,A
74:93,ASN,B
75:94,ILE,A
76:94,ILE,B
77:95,SER,A
78:95,SER,B
79:96,PHE,A
80:96,PHE,B
81:97,MET,A
82:97,MET,B
83:98,GLU,A
84:98,GLU,B
85:99,ALA,B
86:99,ALA,A
87:100,VAL,A
88:100,VAL,B
89:102,ALA,B
90:102,ALA,A
91:103,ARG,A
92:103,ARG,B
93:104,SER,A
94:104,SER,B
95:105,TYR,A
96:105,TYR,B
97:106,SER,A
98:106,SER,B
99:107,SER,B
100:107,SER,A
101:109,PHE,A
102:109,PHE,B
103:110,SER,B
104:110,SER,A
105:115,THR,A
106:115,THR,B
107:118,VAL,B
108:118,VAL,A
109:119,ASP,A
110:119,ASP,B
111:122,TYR,B
112:122,TYR,A
113:123,ALA,A
114:125,SER,B
115:125,SER,A
116:126,GLU,B
117:126,GLU,A
118:132,GLN,B
119:132,GLN,A
120:135,ALA,B
121:135,ALA,A
122:136,GLN,B
123:136,GLN,A
124:139,LEU,B
125:139,LEU,A
