0:145,TRP,B
1:145,TRP,A
2:146,TRP,A
3:146,TRP,B
4:147,GLU,B
5:147,GLU,A
6:148,PRO,B
7:148,PRO,A
8:149,ARG,A
9:149,ARG,B
10:150,ILE,A
11:150,ILE,B
12:151,SER,A
13:151,SER,B
14:152,GLN,A
15:152,GLN,B
16:153,VAL,B
17:153,VAL,A
18:154,SER,A
19:154,SER,B
20:155,GLY,B
21:155,GLY,A
22:158,SER,A
23:158,SER,B
24:159,TYR,B
25:159,TYR,A
26:160,ALA,A
27:160,ALA,B
28:161,LEU,B
29:161,LEU,A
30:162,LYS,B
31:162,LYS,A
32:163,GLY,B
33:163,GLY,A
34:164,ASP,A
35:164,ASP,B
36:165,LEU,A
37:165,LEU,B
38:166,ALA,B
39:166,ALA,A
40:167,LEU,B
41:167,LEU,A
42:169,GLU,B
43:169,GLU,A
44:170,LEU,A
45:170,LEU,B
46:171,ALA,B
47:171,ALA,A
48:173,LEU,A
49:173,LEU,B
50:174,ARG,A
51:174,ARG,B
52:177,MET,B
53:177,MET,A
54:178,ASP,B
55:178,ASP,A
56:181,ALA,A
57:181,ALA,B
58:185,PHE,A
59:185,PHE,B
60:186,LEU,A
61:186,LEU,B
62:187,PRO,B
63:187,PRO,A
64:188,MET,A
65:188,MET,B
66:189,THR,B
67:189,THR,A
68:190,LEU,A
69:190,LEU,B
70:191,PRO,A
71:191,PRO,B
72:192,SER,B
73:192,SER,A
74:193,TYR,B
75:193,TYR,A
76:194,ALA,B
77:194,ALA,A
78:195,ARG,A
79:195,ARG,B
80:196,GLU,B
81:196,GLU,A
82:197,LYS,B
83:197,LYS,A
84:198,ALA,B
85:198,ALA,A
86:199,PHE,A
87:199,PHE,B
88:213,TRP,B
89:213,TRP,A
90:214,ALA,B
91:214,ALA,A
92:215,ILE,A
93:215,ILE,B
94:216,ALA,A
95:216,ALA,B
96:217,GLU,A
97:217,GLU,B
98:218,THR,A
99:218,THR,B
100:219,ASP,A
101:219,ASP,B
102:220,LEU,A
103:220,LEU,B
104:221,TYR,B
105:221,TYR,A
106:222,LEU,B
107:222,LEU,A
108:228,VAL,A
109:228,VAL,B
110:229,VAL,A
111:229,VAL,B
112:230,LEU,B
113:230,LEU,A
114:231,ASN,B
115:231,ASN,A
116:232,ALA,A
117:232,ALA,B
118:233,LEU,A
119:233,LEU,B
120:234,HIS,A
121:234,HIS,B
122:235,SER,A
123:235,SER,B
124:248,TYR,A
125:248,TYR,B
126:249,ALA,B
127:249,ALA,A
128:250,GLY,B
129:250,GLY,A
130:251,TYR,A
131:251,TYR,B
132:252,ALA,B
133:252,ALA,A
134:253,PRO,A
135:253,PRO,B
136:255,PHE,A
137:255,PHE,B
138:257,SER,B
139:257,SER,A
140:272,VAL,A
141:273,HIS,A
142:273,HIS,B
143:274,GLN,A
144:274,GLN,B
145:275,PHE,A
146:275,PHE,B
147:411,TYR,B
148:411,TYR,A
149:412,MET,B
150:420,CYS,A
151:420,CYS,B
152:421,GLY,B
