0:119,LYS,B
1:120,ASN,B
2:121,GLU,B
3:122,ASP,B
4:123,GLY,B
5:124,ASP,B
6:125,VAL,B
7:181,THR,A
8:182,SER,A
9:183,GLU,A
10:184,HIS,A
11:185,PRO,A
12:186,GLU,A
13:201,GLY,A
14:248,ASN,A
15:249,SER,A
16:250,LYS,A
