0:1,ALA,B
1:1,ALA,A
2:2,TYR,A
3:2,TYR,B
4:3,THR,A
5:3,THR,B
6:4,THR,A
7:4,THR,B
8:5,PHE,B
9:5,PHE,A
10:6,SER,B
11:6,SER,A
12:7,GLN,B
13:7,GLN,A
14:8,THR,A
15:8,THR,B
16:9,LYS,B
17:9,LYS,A
18:10,ASN,B
19:10,ASN,A
20:11,ASP,B
21:11,ASP,A
22:23,VAL,B
23:23,VAL,A
24:24,ASN,A
25:24,ASN,B
26:25,VAL,A
27:25,VAL,B
28:26,ALA,A
29:26,ALA,B
30:27,ARG,A
31:27,ARG,B
32:28,TYR,B
33:28,TYR,A
34:29,ASP,B
35:29,ASP,A
36:30,GLN,B
37:30,GLN,A
38:41,GLU,B
39:41,GLU,A
40:44,LEU,B
41:44,LEU,A
42:45,SER,B
43:45,SER,A
44:47,PHE,B
45:47,PHE,A
46:48,TRP,B
47:48,TRP,A
48:49,ARG,A
49:49,ARG,B
50:78,LYS,B
51:78,LYS,A
52:81,THR,B
53:81,THR,A
54:82,LEU,B
55:82,LEU,A
56:83,LEU,A
57:83,LEU,B
58:84,ASP,A
59:84,ASP,B
60:85,SER,A
61:85,SER,B
62:86,ILE,A
63:86,ILE,B
64:87,GLN,A
65:87,GLN,B
66:88,GLY,B
67:88,GLY,A
68:89,ARG,B
69:89,ARG,A
70:90,SER,A
71:90,SER,B
72:91,PRO,B
73:91,PRO,A
74:92,ASN,A
75:92,ASN,B
76:93,VAL,A
77:93,VAL,B
78:94,ALA,A
79:94,ALA,B
80:95,LEU,B
81:95,LEU,A
82:96,LEU,B
83:96,LEU,A
84:97,PRO,A
85:97,PRO,B
86:102,PRO,B
87:102,PRO,A
88:105,GLU,A
89:105,GLU,B
90:106,THR,A
91:106,THR,B
92:107,TRP,A
93:107,TRP,B
94:109,GLU,A
95:109,GLU,B
96:110,THR,A
97:110,THR,B
98:111,TRP,B
99:111,TRP,A
100:112,ALA,B
101:112,ALA,A
102:113,PHE,A
103:113,PHE,B
104:114,SER,B
105:114,SER,A
106:116,THR,A
107:116,THR,B
108:117,ILE,B
109:117,ILE,A
110:118,HIS,B
111:118,HIS,A
112:119,SER,B
113:119,SER,A
114:120,ARG,B
115:120,ARG,A
116:121,SER,A
117:121,SER,B
118:122,TYR,B
119:122,TYR,A
120:123,THR,B
121:123,THR,A
122:124,HIS,B
123:124,HIS,A
124:126,ILE,A
125:126,ILE,B
126:127,ARG,B
127:127,ARG,A
128:132,ASP,A
129:132,ASP,B
130:133,PRO,B
131:133,PRO,A
132:134,SER,B
133:134,SER,A
134:137,PHE,B
135:137,PHE,A
136:138,ASP,A
137:138,ASP,B
138:139,ASP,B
139:139,ASP,A
140:140,ILE,A
141:140,ILE,B
142:141,VAL,A
143:141,VAL,B
144:142,THR,B
145:142,THR,A
146:143,ASN,B
147:147,GLN,B
148:147,GLN,A
149:153,ILE,B
150:153,ILE,A
151:154,SER,A
152:154,SER,B
153:155,SER,A
154:155,SER,B
155:156,TYR,A
156:156,TYR,B
157:157,TYR,B
158:157,TYR,A
159:158,ASP,A
160:158,ASP,B
161:159,GLU,B
162:159,GLU,A
163:161,ILE,A
164:161,ILE,B
165:162,GLU,A
166:162,GLU,B
167:163,MET,B
168:163,MET,A
169:164,THR,B
170:164,THR,A
171:165,SER,A
172:165,SER,B
173:166,TYR,A
174:166,TYR,B
175:168,HIS,A
176:168,HIS,B
177:169,LEU,A
178:169,LEU,B
179:170,LEU,B
180:170,LEU,A
181:174,THR,A
182:174,THR,B
183:175,HIS,A
184:175,HIS,B
185:176,THR,B
186:176,THR,A
187:177,VAL,B
188:177,VAL,A
189:178,ASN,B
190:178,ASN,A
191:179,GLY,B
192:179,GLY,A
193:180,LYS,A
194:180,LYS,B
195:181,THR,A
196:181,THR,B
197:182,VAL,A
198:182,VAL,B
