0:4,VAL,B
1:5,HIS,B
2:6,ASP,B
3:7,LEU,B
4:8,ALA,B
5:9,GLY,B
6:10,VAL,B
7:11,GLN,B
8:12,GLY,B
9:13,PRO,A
10:13,PHE,B
11:14,ALA,A
12:14,GLY,B
13:15,LYS,B
14:15,GLN,A
15:16,ALA,A
16:16,VAL,B
17:17,PRO,B
18:17,PRO,A
19:18,HIS,B
20:18,VAL,A
21:19,SER,A
22:19,THR,B
23:20,VAL,B
24:20,ASP,A
25:21,ASN,B
26:21,ARG,A
27:22,ALA,B
28:22,ALA,A
29:23,TRP,A
30:24,ALA,A
31:24,ILE,B
32:25,LEU,A
33:25,GLY,B
34:26,PRO,B
35:26,PHE,A
36:27,ARG,A
37:27,THR,B
38:28,ALA,A
39:28,PHE,B
40:29,HIS,B
41:29,LEU,A
42:30,ALA,B
43:31,GLU,B
44:32,LYS,A
45:32,TRP,B
46:33,GLU,B
47:34,LEU,A
48:34,HIS,B
49:35,LEU,B
50:35,VAL,A
51:36,PRO,A
52:36,PRO,B
53:37,TYR,B
54:38,SER,B
55:39,LEU,B
56:39,TYR,A
57:40,VAL,A
58:41,GLU,A
59:41,PHE,B
60:42,ALA,B
61:42,GLY,A
62:43,TRP,A
63:43,GLY,B
64:44,LYS,A
65:45,LYS,A
66:46,GLU,B
67:47,PHE,A
68:47,LEU,B
69:48,GLU,A
70:49,GLU,A
71:56,ARG,B
72:59,VAL,B
73:60,GLU,B
74:63,GLU,B
75:65,ARG,B
76:66,HIS,B
77:68,MET,B
78:70,THR,B
79:71,PRO,B
80:72,TYR,B
81:73,TYR,B
82:74,GLU,B
83:76,TYR,B
84:76,ASP,A
85:77,VAL,B
86:78,ILE,B
87:80,VAL,B
88:81,ALA,B
89:84,MET,B
90:89,ILE,B
91:89,PRO,A
92:90,LEU,B
93:91,THR,B
94:93,TYR,A
95:94,GLU,B
96:95,VAL,A
97:95,LEU,B
98:96,GLU,B
99:97,SER,B
100:98,LEU,B
101:99,ALA,B
102:100,GLY,B
103:101,GLY,B
104:102,PRO,B
105:103,PHE,B
106:103,LEU,A
107:104,PRO,B
108:104,LYS,A
109:105,ASN,A
110:106,VAL,A
111:107,ILE,A
112:108,VAL,A
113:109,CYS,A
114:110,SER,A
115:111,LEU,A
116:113,SER,A
117:121,GLY,A
118:122,LEU,A
119:123,PRO,A
120:124,PRO,A
121:125,THR,A
122:126,TRP,A
123:127,TYR,A
124:128,LYS,A
125:129,SER,A
126:130,PHE,A
127:131,GLU,A
128:132,TYR,A
129:133,ARG,A
130:134,ALA,A
131:135,ARG,A
132:136,VAL,A
133:137,VAL,A
134:138,ARG,A
135:139,GLU,A
136:140,PRO,A
137:140,ILE,B
138:141,ARG,B
139:141,ARG,A
140:142,MET,B
141:142,LYS,A
142:143,PRO,B
143:143,VAL,A
144:144,LEU,A
145:145,SER,A
146:145,TYR,B
147:146,GLU,A
148:147,MET,A
149:148,GLY,A
150:149,THR,A
151:153,SER,A
152:154,ASP,A
153:155,ILE,A
154:155,HIS,B
155:156,GLU,A
156:157,THR,B
157:157,ILE,A
158:158,ARG,A
159:158,THR,B
160:159,GLU,B
161:159,VAL,A
162:160,LYS,B
163:160,TYR,A
164:161,TRP,B
165:161,ASP,A
166:162,THR,A
167:163,THR,A
168:163,PHE,B
169:164,PRO,B
170:164,ALA,A
171:165,GLU,A
172:166,THR,A
173:167,ARG,A
174:178,PRO,B
175:179,THR,B
176:180,TYR,B
177:181,HIS,B
178:182,VAL,B
179:183,LYS,B
180:184,PHE,B
181:185,ALA,B
182:186,ALA,B
183:187,GLU,B
184:189,LEU,B
185:190,PHE,B
186:191,THR,A
187:192,LYS,A
188:193,ASP,B
189:193,ASP,A
190:194,THR,B
191:194,CYS,A
192:195,ASP,B
193:196,GLY,B
194:197,GLY,B
195:198,VAL,A
196:198,SER,B
197:199,VAL,B
198:199,ALA,A
199:200,ILE,A
200:200,VAL,B
201:201,VAL,B
202:202,ASP,B
203:203,LEU,B
204:204,PHE,B
