0:38,ASP,B
1:38,ASP,A
2:39,VAL,B
3:39,VAL,A
4:40,VAL,A
5:40,VAL,B
6:41,PHE,A
7:41,PHE,B
8:43,GLU,A
9:43,GLU,B
10:44,LYS,B
11:45,ILE,A
12:45,ILE,B
13:46,VAL,A
14:46,VAL,B
15:47,GLY,A
16:68,GLY,A
17:69,LYS,A
18:70,ILE,A
19:71,PHE,A
20:71,PHE,B
21:72,GLU,A
22:76,ALA,B
23:77,PHE,A
24:78,SER,A
25:87,LEU,A
26:88,PHE,A
27:90,HIS,A
28:90,HIS,B
29:93,ILE,B
30:94,ASP,B
31:94,ASP,A
32:95,THR,B
33:95,THR,A
34:96,VAL,B
35:96,VAL,A
36:97,GLU,B
37:141,SER,B
38:141,SER,A
39:142,ASN,A
