0:4,VAL,B
1:4,VAL,A
2:5,GLY,B
3:5,GLY,A
4:6,THR,B
5:6,THR,A
6:7,THR,A
7:7,THR,B
8:8,THR,A
9:8,THR,B
10:9,THR,B
11:9,THR,A
12:10,LEU,B
13:10,LEU,A
14:11,GLU,B
15:11,GLU,A
16:12,LYS,A
17:12,LYS,B
18:13,ARG,B
19:13,ARG,A
20:14,PRO,A
21:14,PRO,B
22:15,GLU,A
23:15,GLU,B
24:28,LEU,B
25:28,LEU,A
26:29,LEU,A
27:29,LEU,B
28:30,ASN,B
29:30,ASN,A
30:31,THR,B
31:31,THR,A
32:32,GLY,A
33:32,GLY,B
34:33,ALA,A
35:33,ALA,B
36:34,ASP,A
37:34,ASP,B
38:80,TYR,A
39:80,TYR,B
40:81,LYS,B
41:81,LYS,A
42:101,LEU,A
43:101,LEU,B
44:102,LEU,B
45:102,LEU,A
46:103,GLY,A
47:103,GLY,B
48:104,ARG,B
49:104,ARG,A
50:105,ASP,B
51:105,ASP,A
52:106,ASN,A
53:106,ASN,B
54:107,MET,A
55:107,MET,B
56:108,ILE,A
57:108,ILE,B
58:109,LYS,A
59:109,LYS,B
60:110,PHE,A
61:110,PHE,B
62:111,ASN,A
63:111,ASN,B
64:112,ILE,B
65:112,ILE,A
66:113,ARG,A
67:113,ARG,B
68:114,LEU,A
69:114,LEU,B
70:115,VAL,A
71:115,VAL,B
72:116,MET,A
73:116,MET,B
