0:89,SER,B
1:89,SER,A
2:90,VAL,B
3:90,VAL,A
4:91,GLN,B
5:91,GLN,A
6:92,LYS,A
7:92,LYS,B
8:93,PRO,B
9:93,PRO,A
10:94,LEU,B
11:94,LEU,A
12:95,GLU,A
13:95,GLU,B
14:96,TYR,B
15:96,TYR,A
16:97,TYR,A
17:97,TYR,B
18:98,ASP,B
19:98,ASP,A
20:101,VAL,A
21:101,VAL,B
22:102,ASN,A
23:102,ASN,B
24:103,GLY,A
25:103,GLY,B
26:105,LEU,A
27:105,LEU,B
28:106,ARG,B
29:106,ARG,A
30:108,ILE,A
31:108,ILE,B
32:109,SER,A
33:109,SER,B
34:112,ARG,A
35:112,ARG,B
36:147,SER,B
37:147,SER,A
38:148,PRO,A
39:148,PRO,B
40:151,LYS,A
41:151,LYS,B
42:152,SER,A
43:152,SER,B
44:155,MET,B
45:155,MET,A
46:158,GLN,B
47:158,GLN,A
48:159,ILE,A
49:159,ILE,B
50:160,LEU,B
51:160,LEU,A
52:161,THR,B
53:161,THR,A
54:162,ASP,B
55:162,ASP,A
56:163,LEU,B
57:163,LEU,A
58:164,GLN,B
59:164,GLN,A
60:165,LYS,A
61:165,LYS,B
62:166,ALA,B
63:166,ALA,A
64:167,GLN,A
65:167,GLN,B
