0:3,THR,A
1:3,THR,B
2:12,ASP,B
3:12,ASP,A
4:13,GLU,A
5:13,GLU,B
6:15,VAL,A
7:15,VAL,B
8:16,LYS,B
9:16,LYS,A
10:17,ILE,A
11:17,ILE,B
12:18,ASP,B
13:18,ASP,A
14:19,LYS,B
15:19,LYS,A
16:20,GLU,B
17:21,ASP,A
18:21,ASP,B
19:22,ARG,A
20:22,ARG,B
21:23,GLY,A
22:23,GLY,B
23:24,TYR,A
24:24,TYR,B
25:25,GLN,B
26:25,GLN,A
27:26,PHE,B
28:26,PHE,A
29:27,GLY,B
30:27,GLY,A
31:28,ASP,A
32:28,ASP,B
33:29,GLY,B
34:29,GLY,A
35:30,VAL,A
36:30,VAL,B
37:31,TYR,A
38:31,TYR,B
39:58,ILE,B
40:58,ILE,A
41:59,ARG,B
42:59,ARG,A
43:88,TYR,A
44:88,TYR,B
45:90,GLN,B
46:90,GLN,A
47:92,THR,B
48:92,THR,A
49:97,PRO,A
50:97,PRO,B
51:98,ARG,A
52:98,ARG,B
53:99,ALA,B
54:99,ALA,A
55:100,HIS,B
56:100,HIS,A
57:101,GLN,B
58:101,GLN,A
59:102,PHE,A
60:102,PHE,B
61:103,PRO,B
62:103,PRO,A
63:112,ILE,A
64:112,ILE,B
65:113,GLY,A
66:113,GLY,B
67:114,TYR,B
68:114,TYR,A
69:116,LYS,A
70:116,LYS,B
71:136,ASP,B
72:136,ASP,A
73:137,ILE,A
74:137,ILE,B
75:138,ARG,B
76:138,ARG,A
77:139,TRP,A
78:139,TRP,B
79:140,LEU,A
80:140,LEU,B
81:141,ARG,A
82:141,ARG,B
83:146,SER,A
84:146,SER,B
85:147,LEU,B
86:147,LEU,A
87:148,ASN,B
88:148,ASN,A
89:149,LEU,A
90:149,LEU,B
91:150,LEU,B
92:150,LEU,A
93:151,GLY,A
94:151,GLY,B
95:152,ALA,A
96:152,ALA,B
97:153,VAL,A
98:153,VAL,B
99:154,LEU,A
100:154,LEU,B
101:155,ALA,A
102:155,ALA,B
103:156,LYS,A
104:156,LYS,B
105:157,GLN,A
106:157,GLN,B
107:158,GLU,A
108:158,GLU,B
109:159,ALA,A
110:159,ALA,B
111:160,HIS,A
112:160,HIS,B
113:161,GLU,B
114:161,GLU,A
115:179,SER,A
116:179,SER,B
117:180,SER,B
118:180,SER,A
