0:20,ALA,B
1:20,ALA,A
2:21,THR,B
3:21,THR,A
4:22,LYS,B
5:22,LYS,A
6:23,SER,B
7:23,SER,A
8:24,ASN,A
9:24,ASN,B
10:39,VAL,A
11:39,VAL,B
12:41,GLN,A
13:41,GLN,B
14:42,LEU,A
15:118,SER,B
16:120,SER,A
17:120,SER,B
18:121,MET,B
19:121,MET,A
20:122,SER,B
21:122,SER,A
22:123,ALA,A
23:123,ALA,B
24:124,ASP,A
25:124,ASP,B
26:125,GLY,B
27:125,GLY,A
28:126,PRO,B
29:126,PRO,A
30:127,PHE,B
31:127,PHE,A
32:128,ASN,B
33:128,ASN,A
34:130,TYR,B
35:130,TYR,A
36:131,ASN,A
37:131,ASN,B
38:151,ASN,B
39:151,ASN,A
40:152,ASP,A
41:152,ASP,B
42:153,THR,A
43:153,THR,B
44:166,THR,B
45:166,THR,A
46:167,ASP,A
47:167,ASP,B
48:168,VAL,B
49:168,VAL,A
50:169,ALA,B
51:169,ALA,A
52:170,THR,B
53:170,THR,A
54:181,TYR,B
55:183,HIS,A
56:183,HIS,B
57:184,ASN,B
58:184,ASN,A
59:185,GLY,A
60:185,GLY,B
