0:6,LEU,B
1:7,GLU,B
2:7,GLU,A
3:8,SER,B
4:8,SER,A
5:9,ILE,B
6:9,ILE,A
7:11,LEU,B
8:25,PHE,B
9:26,LYS,A
10:26,LYS,B
11:27,LYS,A
12:27,LYS,B
13:28,ARG,A
14:28,ARG,B
15:29,LEU,A
16:29,LEU,B
17:41,GLU,B
18:41,GLU,A
19:42,TYR,A
20:42,TYR,B
21:43,ASP,B
22:43,ASP,A
23:44,PHE,B
24:44,PHE,A
25:45,GLU,A
26:45,GLU,B
27:46,ARG,A
28:46,ARG,B
29:47,GLY,A
30:47,GLY,B
31:48,ARG,A
32:48,ARG,B
33:76,GLU,A
34:76,GLU,B
35:88,GLU,B
36:89,MET,B
37:89,MET,A
38:90,GLU,B
39:90,GLU,A
40:91,GLN,B
41:91,GLN,A
42:92,ILE,B
43:92,ILE,A
44:93,SER,B
45:93,SER,A
46:94,ILE,B
47:94,ILE,A
48:95,ILE,B
49:95,ILE,A
50:96,GLU,A
51:96,GLU,B
52:97,ARG,B
53:97,ARG,A
54:116,PRO,A
55:116,PRO,B
56:120,LEU,A
57:120,LEU,B
