0:47,CYS,A
1:48,LEU,A
2:49,TYR,A
3:50,GLY,A
4:57,ASP,A
5:60,LEU,A
6:61,THR,A
7:62,LEU,A
8:63,TYR,A
9:64,GLN,A
10:65,SER,A
11:66,ASN,A
12:67,THR,A
13:68,ILE,A
14:69,LEU,A
15:70,ARG,A
16:71,HIS,A
17:72,LEU,A
18:74,ARG,A
19:75,THR,A
20:83,GLN,B
21:84,GLN,B
22:85,GLU,B
23:86,ALA,B
24:87,ALA,B
25:88,LEU,B
26:89,VAL,B
27:90,ASP,B
28:91,MET,B
29:92,VAL,B
30:93,ASN,B
31:94,ASP,B
32:95,GLY,B
33:98,ASP,B
34:124,GLY,B
35:125,GLN,B
36:126,LEU,B
37:127,LYS,B
38:128,PRO,B
39:129,PHE,B
40:131,THR,B
41:132,LEU,B
