0:12,GLY,A
1:13,SER,A
2:14,ASP,A
3:15,CYS,A
4:16,HIS,A
5:17,ALA,A
6:18,VAL,A
7:19,GLY,A
8:21,LYS,A
9:22,ILE,A
10:38,GLY,A
11:39,VAL,A
12:40,LEU,A
13:41,SER,A
14:63,LEU,A
15:64,TYR,A
16:65,GLY,A
17:66,GLN,A
18:67,GLY,A
19:68,GLU,A
20:69,VAL,B
21:69,ILE,A
22:70,ASP,A
23:92,GLY,A
24:93,ASN,A
25:94,ILE,A
26:95,VAL,A
27:96,ASP,B
28:96,VAL,A
29:97,GLY,A
30:97,ALA,B
31:98,LYS,A
32:98,TYR,B
33:99,GLN,A
34:99,THR,B
35:100,ARG,B
36:101,GLN,B
37:103,ARG,B
38:106,GLU,B
39:109,ASN,B
40:110,GLY,B
41:113,GLU,B
42:118,ALA,A
43:119,PRO,A
44:119,ARG,B
45:120,GLY,A
46:120,SER,B
47:121,LEU,B
48:122,LEU,B
49:123,ASN,B
50:124,GLY,B
51:151,GLY,B
52:179,VAL,B
53:180,PRO,B
54:181,TYR,B
55:182,ALA,B
56:183,LYS,B
57:184,ASN,B
58:220,THR,B
59:221,GLY,B
60:222,THR,B
61:295,GLY,B
62:296,GLY,B
63:297,PHE,B
64:298,PRO,B
65:299,GLN,B
66:329,HIS,B
67:330,GLU,B
68:331,ALA,B
69:332,ILE,B
70:333,GLY,B
71:334,ILE,B
72:335,PRO,B
73:336,THR,B
74:407,PRO,B
75:408,PHE,B
76:409,GLY,B
77:410,PRO,B
78:411,SER,B
79:467,ILE,B
80:470,ILE,B
81:474,GLY,B
