0:63,GLN,B
1:64,GLY,B
2:65,GLY,B
3:66,VAL,B
4:67,GLY,B
5:68,ILE,B
6:117,SER,B
7:121,TYR,B
8:140,GLY,B
9:144,GLY,B
10:145,LYS,B
11:146,LYS,B
12:147,GLY,B
13:148,ASN,B
14:149,LEU,B
15:171,PRO,A
16:172,TYR,A
17:173,ARG,A
18:174,GLU,A
19:175,ASN,A
20:176,LYS,A
21:187,ILE,A
22:188,ASN,A
23:190,HIS,A
24:191,LEU,A
25:192,GLY,A
26:193,ILE,A
27:194,GLU,A
28:230,TYR,A
29:231,GLU,A
30:232,ARG,A
31:233,ILE,A
32:234,SER,A
33:235,GLU,A
34:237,LYS,A
35:238,MET,A
36:239,SER,A
37:240,THR,A
38:241,PRO,A
39:242,ILE,A
40:243,GLU,A
41:254,ALA,A
42:255,THR,A
43:257,LEU,A
44:258,ASN,A
45:259,PHE,A
46:260,CYS,A
47:261,ARG,A
48:262,SER,A
49:263,LEU,A
50:264,ARG,A
51:272,SER,B
52:275,ARG,B
53:276,GLN,B
54:279,ARG,B
55:282,PHE,B
56:283,HIS,B
57:287,PHE,B
58:288,SER,B
59:289,TYR,B
60:290,ASP,B
61:291,TYR,B
62:292,VAL,B
