0:16,ARG,B
1:17,ALA,B
2:18,VAL,B
3:19,LEU,B
4:20,THR,A
5:20,THR,B
6:21,LEU,B
7:21,LEU,A
8:22,ASN,B
9:22,ASN,A
10:23,GLY,A
11:23,GLY,B
12:24,LEU,B
13:24,LEU,A
14:25,GLN,A
15:25,GLN,B
16:26,ILE,B
17:27,LYS,B
18:81,GLU,A
19:84,ASP,B
20:85,GLY,B
21:134,VAL,B
22:135,ASP,B
23:136,ILE,B
24:136,ILE,A
25:137,VAL,B
26:138,GLU,B
27:139,LYS,B
28:140,LYS,B
29:200,LYS,A
30:200,LYS,B
31:201,ASP,A
32:203,LEU,A
33:203,LEU,B
34:204,LYS,B
35:204,LYS,A
36:205,LYS,B
37:205,LYS,A
38:206,ALA,B
39:206,ALA,A
40:207,ASN,A
41:207,ASN,B
42:208,ALA,A
43:208,ALA,B
44:209,ILE,B
45:209,ILE,A
46:210,TYR,B
47:210,TYR,A
48:211,HIS,A
49:211,HIS,B
50:212,THR,A
51:212,THR,B
52:213,ASP,A
53:213,ASP,B
54:214,GLY,A
55:214,GLY,B
56:215,LEU,A
57:215,LEU,B
58:236,LYS,A
59:236,LYS,B
60:237,PRO,B
61:237,PRO,A
62:238,GLY,B
63:238,GLY,A
64:239,THR,B
65:239,THR,A
66:240,HIS,B
67:240,HIS,A
68:241,HIS,A
69:241,HIS,B
70:242,THR,A
71:249,SER,B
72:250,GLU,A
73:250,GLU,B
74:251,ASP,B
75:251,ASP,A
76:252,GLY,A
77:252,GLY,B
78:269,LYS,A
79:270,LEU,B
80:270,LEU,A
81:271,ASP,A
82:271,ASP,B
83:272,GLY,B
84:272,GLY,A
85:273,TYR,B
86:273,TYR,A
87:274,TYR,B
88:274,TYR,A
89:275,ASN,A
90:275,ASN,B
91:276,LYS,B
92:276,LYS,A
93:278,SER,A
94:279,ILE,A
95:280,VAL,A
96:281,GLU,A
97:282,CYS,A
98:282,CYS,B
99:283,GLY,A
100:283,GLY,B
101:284,PHE,A
102:284,PHE,B
103:285,ALA,A
104:285,ALA,B
105:286,ASP,B
106:286,ASP,A
107:287,GLY,B
108:287,GLY,A
109:288,THR,B
110:288,THR,A
111:289,TRP,A
112:289,TRP,B
113:290,LYS,B
114:290,LYS,A
115:291,TYR,A
116:291,TYR,B
117:292,ILE,A
118:292,ILE,B
119:293,GLN,B
120:293,GLN,A
121:294,GLY,A
122:295,ARG,A
123:296,SER,A
124:297,ASP,A
125:298,LYS,A
126:319,THR,A
127:319,THR,B
128:320,ILE,A
129:320,ILE,B
130:321,ASP,A
131:322,GLU,A
