0:11,GLY,A
1:11,GLY,B
2:12,THR,A
3:12,THR,B
4:13,GLU,B
5:13,GLU,A
6:14,CYS,B
7:14,CYS,A
8:38,ILE,B
9:38,ILE,A
10:39,VAL,B
11:39,VAL,A
12:40,ALA,A
13:40,ALA,B
14:41,VAL,A
15:41,VAL,B
16:42,THR,B
17:42,THR,A
18:43,LYS,A
19:43,LYS,B
20:44,ASP,B
21:44,ASP,A
22:45,PRO,B
23:45,PRO,A
24:46,ASN,B
25:46,ASN,A
26:47,TRP,B
27:47,TRP,A
28:48,TYR,B
29:48,TYR,A
30:62,ALA,A
31:62,ALA,B
32:63,ASN,B
33:63,ASN,A
34:65,VAL,B
35:65,VAL,A
36:66,GLN,B
37:66,GLN,A
38:67,LYS,B
39:67,LYS,A
40:68,ARG,A
41:68,ARG,B
