0:2,ASP,B
1:2,ASP,A
2:3,PHE,A
3:3,PHE,B
4:4,THR,B
5:4,THR,A
6:49,GLY,B
7:49,GLY,A
8:50,LEU,B
9:50,LEU,A
10:51,GLU,A
11:51,GLU,B
12:52,ILE,A
13:52,ILE,B
14:53,PRO,B
15:53,PRO,A
16:59,PHE,A
17:59,PHE,B
18:62,TRP,A
19:62,TRP,B
20:63,ALA,A
21:63,ALA,B
22:66,ASN,A
23:66,ASN,B
24:67,LEU,B
25:67,LEU,A
26:70,ALA,B
27:70,ALA,A
28:71,HIS,A
29:71,HIS,B
30:72,SER,B
31:73,ARG,B
32:73,ARG,A
33:74,ILE,B
34:74,ILE,A
35:75,ARG,A
36:75,ARG,B
37:76,ARG,B
38:76,ARG,A
39:77,PHE,B
40:77,PHE,A
41:78,GLU,B
42:78,GLU,A
43:79,SER,A
44:79,SER,B
45:80,PRO,B
46:80,PRO,A
47:81,ASP,A
48:81,ASP,B
49:82,GLU,B
50:82,GLU,A
51:94,PHE,B
52:94,PHE,A
53:95,LEU,A
54:95,LEU,B
55:96,PRO,B
56:96,PRO,A
57:97,SER,A
58:98,ILE,B
59:98,ILE,A
60:100,TYR,A
61:100,TYR,B
62:136,ASP,A
63:136,ASP,B
64:137,LYS,A
65:137,LYS,B
66:138,ASN,A
67:138,ASN,B
68:139,ASN,A
69:139,ASN,B
70:140,PHE,A
71:140,PHE,B
72:141,GLY,A
73:141,GLY,B
74:142,SER,B
75:142,SER,A
76:145,THR,B
77:145,THR,A
78:501,TRP,B
79:502,TRP,A
