0:1,MET,A
1:1,MET,B
2:2,LYS,A
3:2,LYS,B
4:3,LEU,A
5:3,LEU,B
6:91,ASN,B
7:91,ASN,A
8:92,GLY,B
9:92,GLY,A
10:93,LYS,B
11:93,LYS,A
12:94,SER,A
13:94,SER,B
14:95,PRO,A
15:95,PRO,B
16:148,ASP,B
17:148,ASP,A
18:149,ARG,B
19:149,ARG,A
20:150,MET,B
21:150,MET,A
22:151,TYR,A
23:151,TYR,B
24:153,VAL,A
25:153,VAL,B
26:154,LYS,A
27:154,LYS,B
28:155,LEU,A
29:155,LEU,B
30:157,ALA,A
31:157,ALA,B
32:158,LEU,A
33:158,LEU,B
34:159,ASP,B
35:159,ASP,A
36:160,TYR,B
37:160,TYR,A
38:161,LEU,A
39:161,LEU,B
40:162,ASP,A
41:162,ASP,B
42:163,LYS,A
43:163,LYS,B
44:164,PHE,A
45:164,PHE,B
46:165,ASN,A
47:165,ASN,B
48:180,HIS,B
49:180,HIS,A
50:181,GLU,B
51:183,ASP,A
52:183,ASP,B
53:184,ALA,A
54:184,ALA,B
55:185,ALA,A
56:185,ALA,B
57:186,ARG,B
58:186,ARG,A
59:187,ALA,A
60:187,ALA,B
61:188,MET,B
62:188,MET,A
63:189,GLY,B
64:189,GLY,A
65:190,ALA,B
66:190,ALA,A
