0:102,GLN,B
1:102,GLN,A
2:103,ASP,B
3:103,ASP,A
4:104,ARG,B
5:104,ARG,A
6:105,LYS,B
7:105,LYS,A
8:106,ALA,A
9:106,ALA,B
10:107,ARG,B
11:107,ARG,A
12:108,SER,A
13:108,SER,B
14:109,ARG,A
15:109,ARG,B
16:111,PRO,A
17:111,PRO,B
18:112,ILE,B
19:112,ILE,A
20:113,THR,A
21:113,THR,B
22:114,ALA,A
23:114,ALA,B
24:115,LYS,B
25:115,LYS,A
26:116,LEU,A
27:116,LEU,B
28:119,ASN,B
29:119,ASN,A
30:136,ALA,A
31:136,ALA,B
32:137,PRO,A
33:137,PRO,B
34:138,GLN,B
35:138,GLN,A
36:139,ILE,B
37:139,ILE,A
38:140,GLN,B
39:140,GLN,A
40:141,GLY,A
41:141,GLY,B
42:142,PHE,A
43:142,PHE,B
44:143,PHE,B
45:143,PHE,A
46:144,ASP,B
47:144,ASP,A
48:147,ILE,A
49:147,ILE,B
50:148,ASP,A
51:148,ASP,B
52:149,HIS,B
53:149,HIS,A
54:310,SER,A
55:310,SER,B
56:311,VAL,B
57:311,VAL,A
58:312,SER,B
59:312,SER,A
60:313,TYR,A
61:313,TYR,B
62:315,PHE,A
63:315,PHE,B
