0:101,ASN,A
1:101,ASN,B
2:102,ASP,A
3:102,ASP,B
4:103,LEU,B
5:103,LEU,A
6:104,GLY,A
7:104,GLY,B
8:105,VAL,A
9:107,HIS,B
10:107,HIS,A
11:144,GLN,B
12:144,GLN,A
13:145,TYR,B
14:145,TYR,A
15:146,PRO,B
16:146,PRO,A
17:147,GLN,B
18:147,GLN,A
19:148,ALA,B
20:148,ALA,A
21:149,ALA,B
22:149,ALA,A
23:150,GLU,B
24:150,GLU,A
25:151,VAL,B
26:151,VAL,A
27:189,ALA,B
28:189,ALA,A
29:190,PHE,A
30:190,PHE,B
31:191,PHE,B
32:191,PHE,A
33:192,LEU,A
34:192,LEU,B
35:193,SER,A
36:193,SER,B
37:194,ARG,A
38:194,ARG,B
39:195,TYR,A
40:195,TYR,B
41:196,TYR,B
42:196,TYR,A
43:197,SER,A
44:197,SER,B
45:220,TRP,B
46:220,TRP,A
47:221,GLU,B
48:221,GLU,A
49:222,LYS,B
50:222,LYS,A
51:239,PHE,B
52:239,PHE,A
53:240,TYR,A
54:240,TYR,B
55:241,ASN,B
56:241,ASN,A
57:242,ALA,A
58:242,ALA,B
59:243,LEU,B
60:243,LEU,A
61:244,ARG,B
62:244,ARG,A
63:245,GLU,A
64:245,GLU,B
65:246,ALA,B
66:246,ALA,A
67:247,ASN,B
68:247,ASN,A
69:248,LEU,B
70:248,LEU,A
71:249,GLY,A
72:249,GLY,B
73:250,TRP,A
74:250,TRP,B
75:251,SER,A
76:251,SER,B
77:252,TRP,B
78:252,TRP,A
79:253,GLU,B
80:253,GLU,A
81:254,GLU,A
82:254,GLU,B
83:255,LEU,B
84:255,LEU,A
85:256,THR,B
86:256,THR,A
87:257,ARG,A
88:257,ARG,B
89:258,ALA,B
90:258,ALA,A
91:259,PHE,A
92:259,PHE,B
93:260,PRO,B
94:260,PRO,A
95:261,SER,A
96:261,SER,B
97:314,GLY,A
98:314,GLY,B
99:315,GLU,B
100:315,GLU,A
101:458,PRO,B
102:458,PRO,A
103:459,GLY,A
104:459,GLY,B
105:460,THR,A
106:460,THR,B
107:461,THR,A
108:461,THR,B
109:463,ALA,A
110:463,ALA,B
111:464,GLN,B
112:464,GLN,A
113:477,THR,A
114:477,THR,B
115:478,LYS,B
116:478,LYS,A
117:479,TRP,A
118:479,TRP,B
119:480,GLY,B
120:480,GLY,A
121:481,TYR,A
122:481,TYR,B
123:482,ILE,A
124:482,ILE,B
125:483,THR,A
126:483,THR,B
127:484,SER,B
128:484,SER,A
129:485,ALA,A
130:485,ALA,B
131:486,PRO,A
132:486,PRO,B
133:487,GLY,B
134:487,GLY,A
135:488,SER,A
136:488,SER,B
137:489,ASP,B
138:489,ASP,A
139:490,SER,A
140:490,SER,B
141:491,ALA,B
142:491,ALA,A
143:492,TRP,B
144:492,TRP,A
145:493,LEU,A
146:493,LEU,B
147:494,LYS,B
