0:1,MET,A
1:214,LYS,A
2:222,ARG,A
3:223,ASP,A
4:224,LYS,A
5:225,ASN,A
6:226,ASP,A
7:227,ASN,A
8:228,CYS,A
9:229,ILE,A
10:230,ILE,A
11:231,VAL,A
12:232,CYS,A
13:233,SER,A
14:251,ALA,A
15:252,PRO,A
16:253,ALA,A
17:254,GLN,A
18:255,THR,A
19:256,LEU,A
20:257,THR,A
21:258,ASP,A
22:259,LYS,A
23:260,GLU,A
24:261,TYR,A
25:262,GLN,A
26:263,ILE,A
27:264,MET,A
28:265,ARG,A
29:266,ASN,A
30:267,ALA,A
31:269,MET,A
32:288,VAL,A
33:289,ASN,A
34:290,PRO,A
35:291,LYS,A
36:292,ASN,A
37:293,GLY,A
38:294,ARG,A
39:295,LEU,A
40:331,THR,A
41:332,LEU,A
42:333,ASP,A
43:334,GLU,A
44:335,LEU,A
45:336,MET,A
46:337,ASN,A
47:340,THR,A
48:342,GLY,A
49:343,ARG,A
50:344,THR,A
51:345,PRO,A
52:346,ALA,A
53:347,SER,A
54:348,PHE,A
55:349,GLU,A
56:350,PRO,A
57:351,SER,A
58:352,ILE,A
59:353,ASP,A
60:354,TYR,A
61:355,VAL,A
62:356,VAL,A
63:388,GLY,A
64:389,ARG,A
65:390,THR,A
66:391,GLN,A
67:392,GLN,A
68:393,GLU,A
69:394,SER,A
70:449,VAL,A
71:458,ILE,A
72:459,ASP,A
73:460,ARG,A
74:461,TRP,A
75:462,PHE,A
76:463,LEU,A
77:464,VAL,A
78:465,GLN,A
79:466,ILE,A
80:467,GLU,A
81:468,GLU,A
82:469,LEU,A
83:491,GLN,A
84:494,ARG,A
85:495,LYS,A
86:525,VAL,A
87:526,TYR,A
88:527,LYS,A
89:528,ARG,A
90:529,VAL,A
91:530,ASP,A
92:531,THR,A
93:532,CYS,A
94:533,ALA,A
95:534,ALA,A
96:535,GLU,A
97:536,PHE,A
98:537,ALA,A
99:538,THR,A
100:546,THR,A
101:547,TYR,A
102:548,GLU,A
103:549,GLU,A
104:550,GLU,A
105:551,CYS,A
106:552,GLU,A
107:1514,GLN,B
108:1515,PHE,B
109:1516,HIS,B
110:1517,GLY,B
111:1531,VAL,B
112:1532,PHE,B
113:1533,ASN,B
114:1534,THR,B
115:1535,SER,B
116:1536,MET,B
117:1537,THR,B
118:1538,GLY,B
119:1539,TYR,B
120:1540,GLN,B
121:1541,GLU,B
122:1542,ILE,B
123:1554,THR,B
124:1555,LEU,B
125:1556,THR,B
126:1557,TYR,B
127:1558,PRO,B
128:1559,HIS,B
129:1560,ILE,B
130:1561,GLY,B
131:1562,ASN,B
132:1563,VAL,B
133:1564,GLY,B
134:1565,THR,B
135:1566,ASN,B
136:1568,ALA,B
137:1569,ASP,B
138:1570,GLU,B
139:1582,ILE,B
140:1583,ARG,B
141:1584,ASP,B
142:1585,LEU,B
143:1586,PRO,B
144:1587,LEU,B
145:1588,ILE,B
146:1589,ALA,B
147:1590,SER,B
148:1591,ASN,B
149:1592,PHE,B
150:1593,ARG,B
151:1594,ASN,B
152:1612,ASP,B
153:1613,ILE,B
154:1614,ASP,B
155:1615,THR,B
156:1616,ARG,B
157:1617,LYS,B
158:1618,LEU,B
159:1619,THR,B
160:1620,ARG,B
161:1621,LEU,B
162:1622,LEU,B
163:1623,ARG,B
164:1624,GLU,B
165:1626,GLY,B
166:1674,SER,B
167:1675,TRP,B
168:1676,THR,B
169:1677,LEU,B
170:1678,THR,B
171:1679,GLY,B
172:1680,GLY,B
173:1788,PHE,B
174:1789,GLY,B
175:1790,HIS,B
176:1791,HIS,B
177:1792,GLY,B
178:1793,GLY,B
179:1794,ASN,B
180:1795,HIS,B
181:1796,PRO,B
182:1797,VAL,B
183:1798,LYS,B
184:1799,ASP,B
185:1800,VAL,B
186:1802,LYS,B
187:1803,ASN,B
188:1804,VAL,B
189:1805,VAL,B
190:1806,MET,B
191:1807,ILE,B
192:1808,THR,B
193:1809,ALA,B
194:1831,SER,B
195:1832,LEU,B
196:1833,PHE,B
197:1834,ASP,B
198:1835,GLY,B
199:1856,ALA,B
200:1857,SER,B
201:1858,PRO,B
202:1859,GLY,B
203:1860,PRO,B
204:1861,HIS,B
205:1862,ASP,B
