0:29,VAL,A
1:29,VAL,B
2:30,PHE,B
3:30,PHE,A
4:31,GLY,A
5:31,GLY,B
6:32,LYS,A
7:32,LYS,B
8:33,THR,B
9:33,THR,A
10:34,PHE,B
11:34,PHE,A
12:35,THR,B
13:35,THR,A
14:37,HIS,A
15:37,HIS,B
16:38,MET,A
17:38,MET,B
18:39,LEU,A
19:39,LEU,B
20:40,MET,A
21:40,MET,B
22:55,PRO,A
23:55,PRO,B
24:56,PHE,B
25:56,PHE,A
26:57,GLN,A
27:57,GLN,B
28:58,ASN,A
29:58,ASN,B
30:59,LEU,B
31:59,LEU,A
32:60,THR,B
33:60,THR,A
34:61,LEU,A
35:61,LEU,B
36:62,HIS,B
37:62,HIS,A
38:63,PRO,B
39:63,PRO,A
40:64,ALA,B
41:64,ALA,A
42:65,SER,B
43:65,SER,A
44:66,SER,A
45:66,SER,B
46:67,SER,B
47:67,SER,A
48:68,LEU,B
49:68,LEU,A
50:69,HIS,A
51:69,HIS,B
52:70,TYR,A
53:70,TYR,B
54:71,SER,B
55:71,SER,A
56:72,LEU,A
57:72,LEU,B
58:73,GLN,A
59:73,GLN,B
60:74,LEU,A
61:74,LEU,B
62:75,PHE,B
63:75,PHE,A
64:76,GLU,A
65:76,GLU,B
66:77,GLY,A
67:77,GLY,B
68:103,SER,A
69:103,SER,B
70:104,ALA,A
71:104,ALA,B
72:105,MET,B
73:105,MET,A
74:106,ARG,A
75:106,ARG,B
76:107,LEU,B
77:107,LEU,A
78:108,CYS,A
79:108,CYS,B
80:109,LEU,A
81:109,LEU,B
82:141,TYR,A
83:141,TYR,B
84:142,VAL,B
85:142,VAL,A
86:143,ARG,B
87:143,ARG,A
88:144,PRO,B
89:144,PRO,A
90:145,VAL,B
91:145,VAL,A
92:146,LEU,A
93:146,LEU,B
94:147,ILE,B
95:147,ILE,A
96:148,GLY,A
97:148,GLY,B
98:149,ASN,B
99:149,ASN,A
100:150,GLU,B
101:150,GLU,A
102:151,PRO,B
103:151,PRO,A
104:152,SER,B
105:152,SER,A
106:153,LEU,B
107:153,LEU,A
108:154,GLY,B
109:154,GLY,A
110:155,VAL,A
111:155,VAL,B
112:156,SER,A
113:156,SER,B
114:157,GLN,A
115:157,GLN,B
116:158,PRO,B
117:158,PRO,A
118:162,LEU,B
119:162,LEU,A
120:163,LEU,A
121:163,LEU,B
122:164,PHE,B
123:164,PHE,A
124:165,VAL,B
125:165,VAL,A
126:166,ILE,A
127:166,ILE,B
128:167,LEU,A
129:167,LEU,B
130:168,CYS,A
131:168,CYS,B
132:169,PRO,B
133:169,PRO,A
134:170,VAL,B
135:170,VAL,A
136:187,ASP,A
137:187,ASP,B
138:188,PRO,A
139:188,PRO,B
140:189,ALA,A
141:189,ALA,B
142:190,PHE,A
143:190,PHE,B
144:191,ILE,A
145:191,ILE,B
146:192,ARG,A
147:192,ARG,B
148:193,ALA,A
149:193,ALA,B
150:194,TRP,B
151:194,TRP,A
152:195,VAL,A
153:195,VAL,B
154:196,GLY,A
155:196,GLY,B
156:197,GLY,B
157:197,GLY,A
158:198,VAL,A
159:198,VAL,B
160:199,GLY,A
161:199,GLY,B
162:201,TYR,A
163:201,TYR,B
164:202,LYS,A
165:202,LYS,B
166:203,LEU,A
167:203,LEU,B
168:204,GLY,B
169:204,GLY,A
170:205,GLY,B
171:205,GLY,A
172:206,ASN,B
173:206,ASN,A
174:207,TYR,A
175:207,TYR,B
176:208,GLY,A
177:208,GLY,B
178:209,PRO,A
179:209,PRO,B
180:210,THR,A
181:210,THR,B
182:211,VAL,B
183:211,VAL,A
184:212,LEU,A
185:212,LEU,B
186:213,VAL,B
187:213,VAL,A
188:214,GLN,B
189:214,GLN,A
190:215,GLN,A
191:215,GLN,B
192:216,GLU,A
193:216,GLU,B
194:218,LEU,B
195:218,LEU,A
196:224,GLN,A
197:224,GLN,B
198:228,LEU,B
199:228,LEU,A
200:229,TYR,A
201:229,TYR,B
202:230,GLY,A
203:230,GLY,B
204:239,GLY,A
205:239,GLY,B
206:240,THR,B
207:240,THR,A
208:314,ALA,A
209:314,ALA,B
