0:2,SER,B
1:3,GLN,B
2:4,LEU,B
3:5,GLN,B
4:6,GLU,B
5:22,PRO,A
6:23,ALA,A
7:24,SER,A
8:25,GLY,A
9:26,CYS,A
10:27,PHE,A
11:28,GLY,A
12:29,PHE,A
13:30,GLY,A
14:31,GLU,A
15:32,GLU,A
16:33,TYR,A
17:34,ALA,A
18:35,LYS,A
19:36,TYR,A
20:37,TYR,A
21:41,HIS,B
22:42,LEU,B
23:43,ALA,B
24:44,VAL,B
25:45,PRO,B
26:46,ASN,B
27:47,VAL,A
28:47,GLY,B
29:48,ALA,B
30:48,LYS,A
31:49,ALA,A
32:49,MET,B
33:50,LEU,B
34:51,LEU,B
35:52,ARG,B
36:53,ARG,B
37:54,PRO,A
38:55,ARG,A
39:56,PHE,A
40:57,GLY,A
41:58,ASN,A
42:59,PRO,A
43:60,THR,A
44:61,PRO,A
45:62,ARG,A
46:63,VAL,A
47:64,ALA,A
48:65,GLU,A
49:66,THR,A
50:67,ALA,A
51:68,SER,A
52:69,GLY,A
53:70,MET,A
54:71,LEU,A
55:72,ASN,A
56:73,ALA,A
57:74,ILE,A
58:75,GLY,A
59:76,LEU,A
60:77,THR,B
61:77,GLN,A
62:78,THR,B
63:78,ASN,A
64:79,PRO,A
65:79,GLY,B
66:93,ASP,B
67:94,VAL,B
68:95,MET,B
69:96,GLY,B
70:98,LEU,B
71:212,ILE,A
72:213,LEU,A
73:214,ALA,A
74:221,SER,A
75:221,GLU,B
76:222,GLY,A
77:222,SER,B
78:223,ARG,B
79:223,PRO,A
80:224,MET,B
81:224,ALA,A
82:225,ALA,B
83:226,CYS,B
84:227,GLY,B
85:228,ILE,B
86:229,GLY,B
87:230,ALA,B
88:231,CYS,B
89:232,TYR,B
90:233,ALA,B
91:234,CYS,B
92:235,VAL,B
93:236,GLU,B
94:237,HIS,B
95:238,ASP,B
96:241,ASP,B
97:242,GLU,B
98:243,SER,B
99:244,HIS,B
100:245,ALA,B
101:246,LEU,B
102:247,LYS,B
103:248,VAL,B
104:249,GLY,A
105:249,CYS,B
106:250,GLU,B
107:251,ALA,A
108:270,GLY,A
109:271,THR,A
110:272,ALA,A
111:273,ASN,A
112:274,PHE,A
113:275,ALA,A
114:276,ASP,A
115:277,PRO,A
116:278,PHE,A
