0:149,GLY,A
1:149,GLY,B
2:150,GLY,A
3:150,GLY,B
4:151,ARG,A
5:151,ARG,B
6:152,LYS,A
7:152,LYS,B
8:153,GLU,A
9:153,GLU,B
10:154,ILE,B
11:154,ILE,A
12:155,ILE,A
13:155,ILE,B
14:156,SER,A
15:156,SER,B
16:157,ALA,A
17:157,ALA,B
18:158,VAL,B
19:158,VAL,A
20:159,GLN,B
21:159,GLN,A
22:160,LEU,A
23:160,LEU,B
24:161,ILE,A
25:161,ILE,B
26:162,ALA,B
27:162,ALA,A
28:163,GLU,A
29:163,GLU,B
30:164,ARG,B
31:164,ARG,A
32:165,TYR,A
33:165,TYR,B
34:166,LYS,B
35:166,LYS,A
36:167,SER,B
37:167,SER,A
38:168,GLY,A
39:168,GLY,B
40:170,ILE,B
41:170,ILE,A
42:171,SER,A
43:171,SER,B
44:172,LEU,A
45:172,LEU,B
46:173,ASP,B
47:173,ASP,A
48:174,GLU,A
49:174,GLU,B
50:175,ILE,B
51:175,ILE,A
52:176,SER,A
53:176,SER,B
54:177,GLU,A
55:177,GLU,B
56:178,THR,B
57:178,THR,A
58:179,HIS,A
59:179,HIS,B
60:180,PHE,A
61:180,PHE,B
62:181,ASN,B
63:181,ASN,A
64:192,PRO,B
65:193,GLU,B
66:193,GLU,A
67:194,LEU,A
68:194,LEU,B
69:195,LEU,B
70:195,LEU,A
71:196,ILE,B
72:196,ILE,A
73:197,ARG,A
74:197,ARG,B
75:199,SER,A
76:200,GLY,B
77:200,GLY,A
78:201,GLU,B
79:201,GLU,A
80:202,GLU,B
81:202,GLU,A
82:203,ARG,B
83:203,ARG,A
84:204,LEU,A
85:204,LEU,B
86:205,SER,B
87:205,SER,A
88:206,ASN,B
89:206,ASN,A
90:207,PHE,B
91:207,PHE,A
92:208,LEU,A
93:208,LEU,B
94:209,ILE,A
95:209,ILE,B
96:210,TRP,B
97:210,TRP,A
98:211,GLN,A
99:211,GLN,B
100:212,CYS,B
101:212,CYS,A
102:213,SER,B
103:213,SER,A
104:214,TYR,A
105:214,TYR,B
106:215,SER,A
107:215,SER,B
108:216,GLU,A
109:216,GLU,B
110:217,PHE,A
111:217,PHE,B
112:218,VAL,A
113:218,VAL,B
114:219,PHE,B
115:219,PHE,A
116:235,CYS,B
117:238,ILE,B
118:238,ILE,A
119:239,TYR,A
120:239,TYR,B
121:241,ASN,B
122:241,ASN,A
123:242,ARG,B
