0:17,ASN,A
1:17,ASN,B
2:19,GLY,B
3:19,GLY,A
4:20,VAL,A
5:20,VAL,B
6:21,GLY,B
7:21,GLY,A
8:22,PHE,B
9:22,PHE,A
10:23,ASP,B
11:23,ASP,A
12:24,VAL,B
13:24,VAL,A
14:25,PHE,B
15:25,PHE,A
16:26,GLY,A
17:26,GLY,B
18:140,ASP,B
19:140,ASP,A
20:150,PHE,B
21:150,PHE,A
22:151,THR,A
23:151,THR,B
24:152,MET,A
25:152,MET,B
26:153,VAL,B
27:153,VAL,A
28:154,THR,A
29:154,THR,B
30:155,ASN,A
31:155,ASN,B
32:156,TYR,A
33:156,TYR,B
34:160,GLU,A
35:160,GLU,B
36:161,VAL,A
37:161,VAL,B
38:162,LEU,B
39:162,LEU,A
40:163,HIS,B
41:163,HIS,A
42:164,ILE,B
43:164,ILE,A
44:165,PRO,B
45:165,PRO,A
46:187,ARG,B
47:187,ARG,A
48:188,GLU,B
49:190,LEU,B
50:190,LEU,A
51:191,PRO,A
52:191,PRO,B
53:192,LYS,B
54:192,LYS,A
55:193,ALA,B
56:193,ALA,A
57:194,VAL,A
58:194,VAL,B
59:195,GLY,B
60:195,GLY,A
61:196,LEU,A
62:196,LEU,B
63:197,LYS,A
64:197,LYS,B
65:198,ASP,A
66:198,ASP,B
67:199,LEU,A
68:199,LEU,B
69:200,VAL,B
70:200,VAL,A
71:201,ASN,B
72:201,ASN,A
73:202,ASN,B
74:202,ASN,A
75:203,VAL,A
76:203,VAL,B
77:204,GLY,B
78:204,GLY,A
79:205,LYS,B
80:205,LYS,A
81:206,ALA,A
82:206,ALA,B
83:207,CYS,A
84:207,CYS,B
85:208,GLY,B
86:208,GLY,A
87:209,MET,A
88:209,MET,B
89:210,VAL,A
90:210,VAL,B
91:211,TYR,A
92:211,TYR,B
93:212,ALA,A
94:212,ALA,B
95:213,LEU,A
96:213,LEU,B
97:214,TYR,A
98:214,TYR,B
99:215,ASN,A
100:215,ASN,B
101:220,LEU,A
102:220,LEU,B
103:223,ARG,B
104:223,ARG,A
105:224,TYR,A
106:224,TYR,B
107:227,SER,B
108:227,SER,A
109:228,ASP,A
110:230,VAL,A
111:230,VAL,B
112:231,ILE,B
113:231,ILE,A
