0:19,LEU,A
1:20,PRO,A
2:22,PHE,A
3:23,GLY,A
4:24,ARG,A
5:25,LYS,A
6:85,GLY,A
7:87,PHE,A
8:88,ASN,A
9:89,PHE,A
10:90,ILE,A
11:91,ASN,A
12:92,GLY,A
13:93,ILE,A
14:94,PRO,A
15:95,PHE,A
16:96,PHE,A
17:115,GLU,A
18:116,PHE,A
19:117,LEU,A
20:118,THR,A
21:119,LYS,A
22:120,SER,A
23:132,LEU,A
24:140,LYS,A
25:146,ASN,A
26:148,VAL,A
27:149,ILE,A
28:150,SER,A
29:151,TYR,A
30:152,TYR,A
31:153,PRO,A
32:154,SER,A
33:155,LYS,A
34:156,LYS,A
35:157,ILE,A
36:158,ASP,A
37:159,LEU,A
38:160,GLU,A
39:161,LYS,A
40:162,LEU,A
41:163,ARG,A
42:164,ASN,A
43:168,ARG,A
44:169,VAL,A
45:170,ARG,A
46:171,ILE,A
47:172,PHE,A
48:173,GLY,A
49:174,ALA,A
50:177,LEU,A
51:178,GLU,A
52:180,CYS,A
53:181,TYR,A
54:182,VAL,A
55:184,LYS,A
56:185,GLY,A
57:186,THR,A
58:187,LEU,A
59:319,LEU,B
60:322,PHE,B
61:323,GLY,B
62:324,ARG,B
63:325,LYS,B
64:387,PHE,B
65:388,ASN,B
66:389,PHE,B
67:390,ILE,B
68:391,ASN,B
69:392,GLY,B
70:393,ILE,B
71:394,PRO,B
72:395,PHE,B
73:396,PHE,B
74:415,GLU,B
75:416,PHE,B
76:417,LEU,B
77:418,THR,B
78:419,LYS,B
79:420,SER,B
80:432,LEU,B
81:435,ARG,B
82:440,LYS,B
83:448,VAL,B
84:449,ILE,B
85:450,SER,B
86:451,TYR,B
87:452,TYR,B
88:453,PRO,B
89:454,SER,B
90:455,LYS,B
91:456,LYS,B
92:457,ILE,B
93:458,ASP,B
94:459,LEU,B
95:460,GLU,B
96:461,LYS,B
97:462,LEU,B
98:463,ARG,B
99:464,ASN,B
100:468,ARG,B
101:469,VAL,B
102:470,ARG,B
103:471,ILE,B
104:472,PHE,B
105:473,GLY,B
106:474,ALA,B
107:477,LEU,B
108:478,GLU,B
109:480,CYS,B
110:481,TYR,B
111:482,VAL,B
112:484,LYS,B
113:485,GLY,B
114:486,THR,B
115:487,LEU,B
