0:131,ALA,B
1:135,ALA,B
2:135,ALA,A
3:136,GLU,A
4:136,GLU,B
5:137,PRO,B
6:137,PRO,A
7:138,SER,A
8:138,SER,B
9:140,VAL,B
10:140,VAL,A
11:141,LYS,A
12:141,LYS,B
13:142,VAL,B
14:142,VAL,A
15:143,VAL,A
16:143,VAL,B
17:144,VAL,B
18:144,VAL,A
19:145,ASN,B
20:145,ASN,A
21:146,THR,A
22:146,THR,B
23:147,ARG,A
24:147,ARG,B
25:148,GLN,B
26:148,GLN,A
27:149,ASP,B
28:149,ASP,A
29:150,ALA,A
30:150,ALA,B
31:151,LEU,A
32:151,LEU,B
33:152,TYR,A
34:152,TYR,B
35:153,PHE,B
36:153,PHE,A
37:154,SER,B
38:154,SER,A
39:155,ARG,A
40:155,ARG,B
41:156,SER,A
42:156,SER,B
43:157,PRO,A
44:157,PRO,B
45:158,ILE,B
46:158,ILE,A
47:159,PRO,A
48:159,PRO,B
49:160,TYR,B
50:160,TYR,A
51:161,PRO,A
52:161,PRO,B
53:162,ARG,A
54:162,ARG,B
55:163,ASN,B
56:163,ASN,A
57:164,ALA,B
58:164,ALA,A
59:165,GLU,A
60:165,GLU,B
61:166,LYS,B
62:166,LYS,A
63:167,ALA,B
64:167,ALA,A
65:168,ARG,B
66:168,ARG,A
67:169,TYR,A
68:169,TYR,B
69:170,LEU,A
70:170,LEU,B
71:189,LEU,B
72:189,LEU,A
73:190,PRO,B
74:190,PRO,A
75:191,GLU,A
76:191,GLU,B
77:192,SER,A
78:192,SER,B
79:193,MET,A
80:193,MET,B
81:194,PRO,A
82:194,PRO,B
83:195,GLU,B
84:195,GLU,A
85:196,GLN,B
86:196,GLN,A
87:197,ALA,B
88:197,ALA,A
89:198,GLU,A
90:198,GLU,B
91:199,SER,A
92:199,SER,B
93:200,LEU,B
94:200,LEU,A
95:203,LEU,B
96:203,LEU,A
97:204,ARG,B
98:204,ARG,A
99:205,LEU,A
100:205,LEU,B
101:206,MET,B
102:206,MET,A
103:207,ASN,A
104:207,ASN,B
105:208,ALA,A
106:208,ALA,B
107:209,GLY,B
108:209,GLY,A
109:210,ILE,A
110:210,ILE,B
111:211,ASN,A
112:211,ASN,B
