0:1,MET,A
1:1,MET,B
2:2,LEU,A
3:2,LEU,B
4:3,LYS,A
5:3,LYS,B
6:4,PRO,A
7:4,PRO,B
8:5,ASN,A
9:6,VAL,A
10:81,TYR,B
11:82,GLU,B
12:83,ASN,B
13:84,GLU,B
14:85,ILE,B
15:91,ILE,B
16:92,HIS,B
17:93,ALA,B
18:94,SER,B
19:95,SER,B
20:96,ILE,B
21:97,GLU,A
22:97,GLU,B
23:98,SER,B
24:99,SER,B
25:100,LEU,B
26:101,ASN,B
27:102,LEU,B
28:103,VAL,B
29:104,SER,B
30:104,SER,A
31:105,ASP,A
32:106,VAL,A
33:107,GLU,A
34:120,GLU,A
35:121,LEU,A
36:121,LEU,B
37:122,ILE,B
38:122,ILE,A
39:123,ASN,A
40:123,ASN,B
41:124,ASN,A
42:124,ASN,B
43:125,SER,B
44:125,SER,A
45:126,LEU,B
46:126,LEU,A
47:127,VAL,B
48:127,VAL,A
49:128,SER,A
50:129,HIS,A
51:152,PRO,A
52:155,SER,A
53:156,TRP,A
54:157,THR,A
55:190,THR,A
56:191,ARG,A
57:192,LYS,A
