0:96,ALA,B
1:96,ALA,A
2:97,GLY,A
3:97,GLY,B
4:98,GLY,B
5:98,GLY,A
6:99,ARG,B
7:99,ARG,A
8:100,GLY,B
9:100,GLY,A
10:101,LEU,B
11:101,LEU,A
12:264,GLY,B
13:264,GLY,A
14:265,ALA,A
15:265,ALA,B
16:266,GLU,A
17:266,GLU,B
18:267,GLN,A
19:267,GLN,B
20:268,GLY,A
21:268,GLY,B
22:269,PHE,B
23:269,PHE,A
24:270,SER,B
25:270,SER,A
26:271,GLY,B
27:271,GLY,A
28:272,ARG,A
29:272,ARG,B
30:273,GLU,B
31:273,GLU,A
32:274,VAL,B
33:274,VAL,A
34:275,MET,B
35:275,MET,A
36:276,ALA,B
37:276,ALA,A
38:277,GLU,A
39:277,GLU,B
40:290,MET,B
41:290,MET,A
42:291,ILE,B
43:291,ILE,A
44:292,ALA,B
45:292,ALA,A
46:293,THR,A
47:293,THR,B
48:296,ARG,B
49:296,ARG,A
50:297,GLN,B
51:297,GLN,A
52:298,MET,A
53:298,MET,B
54:299,GLY,B
55:299,GLY,A
56:300,HIS,B
57:300,HIS,A
58:301,THR,A
59:301,THR,B
60:302,LEU,B
61:302,LEU,A
62:303,SER,B
63:303,SER,A
64:304,LEU,A
65:304,LEU,B
66:305,GLN,B
67:305,GLN,A
68:306,SER,B
69:306,SER,A
