0:23,LEU,A
1:23,LEU,B
2:24,GLY,A
3:24,GLY,B
4:25,ALA,A
5:25,ALA,B
6:55,PRO,A
7:55,PRO,B
8:56,VAL,A
9:56,VAL,B
10:57,THR,A
11:57,THR,B
12:58,ILE,A
13:58,ILE,B
14:59,ASN,B
15:59,ASN,A
16:60,GLY,A
17:60,GLY,B
18:61,GLY,A
19:61,GLY,B
20:62,TYR,A
21:62,TYR,B
22:63,GLU,A
23:63,GLU,B
24:64,MET,B
25:64,MET,A
26:65,PRO,A
27:70,ILE,A
28:70,ILE,B
29:71,LYS,B
30:71,LYS,A
31:72,ALA,B
32:72,ALA,A
33:73,MET,A
34:73,MET,B
35:74,SER,B
36:74,SER,A
37:75,PRO,B
38:75,PRO,A
39:76,ALA,A
40:76,ALA,B
41:77,ARG,A
42:77,ARG,B
43:78,SER,A
44:78,SER,B
45:79,ILE,B
46:79,ILE,A
47:165,GLY,B
48:165,GLY,A
49:166,GLN,A
50:166,GLN,B
51:167,TYR,B
52:167,TYR,A
53:168,ASP,B
54:168,ASP,A
55:169,ASP,A
56:169,ASP,B
57:170,VAL,B
58:170,VAL,A
59:171,VAL,A
60:171,VAL,B
61:172,GLN,B
62:172,GLN,A
63:173,ASN,B
64:173,ASN,A
65:195,TYR,B
66:195,TYR,A
67:196,PRO,B
68:196,PRO,A
69:197,MET,A
70:197,MET,B
71:198,GLY,A
72:198,GLY,B
73:199,HIS,B
74:199,HIS,A
75:200,GLU,B
76:200,GLU,A
77:201,VAL,A
