0:120,THR,A
1:121,ILE,A
2:122,GLY,A
3:123,ASP,A
4:124,TYR,A
5:125,THR,A
6:126,ASP,A
7:127,PHE,A
8:128,TYR,A
9:134,ALA,A
10:137,VAL,A
11:138,GLY,A
12:141,PHE,A
13:142,ARG,A
14:147,ALA,A
15:148,LEU,A
16:149,LEU,A
17:150,PRO,A
18:151,ASN,A
19:152,TRP,A
20:153,LEU,A
21:154,HIS,A
22:155,LEU,A
23:156,PRO,A
24:157,VAL,A
25:158,GLY,A
26:159,TYR,A
27:160,HIS,A
28:161,GLY,A
29:162,ARG,A
30:163,ALA,A
31:164,SER,A
32:165,SER,A
33:166,ILE,A
34:167,VAL,A
35:171,THR,A
36:172,PRO,A
37:173,ILE,A
38:174,ARG,A
39:175,ARG,A
40:176,PRO,A
41:177,MET,A
42:178,GLY,A
43:179,GLN,A
44:180,MET,A
45:181,ARG,A
46:184,ASN,A
47:185,SER,A
48:186,LYS,A
49:187,PRO,A
50:188,PRO,A
51:189,VAL,A
52:190,TYR,A
53:191,GLY,A
54:192,ALA,A
55:193,CYS,A
56:209,GLY,A
57:210,ASN,A
58:211,ARG,A
59:212,PHE,A
60:213,GLY,A
61:214,GLU,A
62:215,PRO,A
63:235,SER,A
64:236,ALA,A
65:239,ILE,A
66:240,GLN,A
67:241,GLN,A
68:242,TRP,A
69:243,GLU,A
70:244,TYR,A
71:245,VAL,A
72:246,PRO,A
73:247,LEU,A
74:248,GLY,A
75:249,PRO,A
76:250,PHE,A
77:251,LEU,A
78:252,GLY,A
79:253,LYS,A
80:254,SER,A
81:255,PHE,A
82:256,GLY,A
83:257,THR,A
84:281,PRO,A
85:282,LYS,A
86:283,PRO,A
87:284,LEU,A
88:285,PRO,A
89:286,TYR,A
90:287,LEU,A
91:331,THR,A
92:332,HIS,A
93:333,HIS,A
94:334,SER,A
95:335,VAL,A
96:336,ASN,A
97:337,GLY,A
98:338,CYS,A
99:339,ASN,A
100:340,LEU,A
101:341,ARG,A
102:342,PRO,A
103:343,GLY,A
104:344,ASP,A
105:349,GLY,A
106:412,VAL,A
107:413,LEU,A
108:414,PRO,A
109:415,ALA,A
110:416,LEU,A
111:620,THR,B
112:621,ILE,B
113:622,GLY,B
114:623,ASP,B
115:624,TYR,B
116:625,THR,B
117:626,ASP,B
118:627,PHE,B
119:628,TYR,B
120:634,ALA,B
121:637,VAL,B
122:638,GLY,B
123:641,PHE,B
124:642,ARG,B
125:647,ALA,B
126:648,LEU,B
127:649,LEU,B
128:650,PRO,B
129:651,ASN,B
130:652,TRP,B
131:653,LEU,B
132:654,HIS,B
133:655,LEU,B
134:656,PRO,B
135:657,VAL,B
136:658,GLY,B
137:659,TYR,B
138:660,HIS,B
139:661,GLY,B
140:662,ARG,B
141:663,ALA,B
142:664,SER,B
143:665,SER,B
144:666,ILE,B
145:667,VAL,B
146:671,THR,B
147:672,PRO,B
148:673,ILE,B
149:674,ARG,B
150:675,ARG,B
151:676,PRO,B
152:677,MET,B
153:678,GLY,B
154:679,GLN,B
155:680,MET,B
156:681,ARG,B
157:684,ASN,B
158:685,SER,B
159:686,LYS,B
160:687,PRO,B
161:688,PRO,B
162:689,VAL,B
163:690,TYR,B
164:691,GLY,B
165:692,ALA,B
166:693,CYS,B
167:709,GLY,B
168:710,ASN,B
169:711,ARG,B
170:712,PHE,B
171:713,GLY,B
172:714,GLU,B
173:715,PRO,B
174:716,ILE,B
175:735,SER,B
176:736,ALA,B
177:739,ILE,B
178:740,GLN,B
179:741,GLN,B
180:742,TRP,B
181:743,GLU,B
182:744,TYR,B
183:745,VAL,B
184:746,PRO,B
185:747,LEU,B
186:748,GLY,B
187:749,PRO,B
188:750,PHE,B
189:751,LEU,B
190:752,GLY,B
191:753,LYS,B
192:754,SER,B
193:755,PHE,B
194:756,GLY,B
195:757,THR,B
196:781,PRO,B
197:782,LYS,B
198:783,PRO,B
199:784,LEU,B
200:785,PRO,B
201:786,TYR,B
202:787,LEU,B
203:831,THR,B
204:832,HIS,B
205:833,HIS,B
206:834,SER,B
207:835,VAL,B
208:836,ASN,B
209:837,GLY,B
210:838,CYS,B
211:839,ASN,B
212:840,LEU,B
213:841,ARG,B
214:842,PRO,B
215:843,GLY,B
216:844,ASP,B
217:849,GLY,B
218:912,VAL,B
219:913,LEU,B
220:914,PRO,B
221:915,ALA,B
222:916,LEU,B
223:1001,CA,B
224:1002,CA,A
