0:123,PRO,A
1:123,PRO,B
2:126,ILE,B
3:126,ILE,A
4:212,HIS,A
5:212,HIS,B
6:213,LYS,B
7:213,LYS,A
8:214,PHE,A
9:214,PHE,B
10:215,PRO,B
11:215,PRO,A
12:216,ASP,A
13:216,ASP,B
14:217,PHE,A
15:217,PHE,B
16:218,VAL,A
17:218,VAL,B
18:219,HIS,A
19:219,HIS,B
20:220,ALA,B
21:220,ALA,A
22:221,VAL,B
23:221,VAL,A
24:222,LYS,B
25:222,LYS,A
26:223,PRO,B
27:223,PRO,A
28:224,GLU,B
29:224,GLU,A
30:225,PRO,A
31:225,PRO,B
32:226,HIS,A
33:226,HIS,B
34:227,TRP,B
35:227,TRP,A
36:228,ALA,A
37:228,ALA,B
38:237,ASP,B
39:237,ASP,A
40:238,THR,B
41:238,THR,A
42:239,PHE,B
43:239,PHE,A
44:240,TRP,B
45:240,TRP,A
46:241,ASP,A
47:241,ASP,B
48:242,TYR,B
49:242,TYR,A
50:243,VAL,B
51:243,VAL,A
52:244,SER,A
53:244,SER,B
54:245,LEU,B
55:245,LEU,A
56:246,GLN,A
57:246,GLN,B
58:247,PRO,B
59:247,PRO,A
60:413,PHE,B
61:413,PHE,A
62:414,SER,B
63:414,SER,A
64:416,THR,B
65:416,THR,A
66:417,ASP,A
67:417,ASP,B
68:418,THR,B
69:418,THR,A
70:419,GLN,A
71:419,GLN,B
72:420,ILE,B
73:420,ILE,A
74:421,SER,B
75:421,SER,A
76:422,ARG,B
77:422,ARG,A
78:423,LEU,A
79:423,LEU,B
80:424,GLY,B
81:424,GLY,A
82:425,GLY,A
83:425,GLY,B
84:426,PRO,A
85:426,PRO,B
86:442,ASN,B
87:442,ASN,A
88:443,PHE,B
89:443,PHE,A
90:444,GLN,B
91:444,GLN,A
92:445,ARG,B
93:445,ARG,A
94:446,ASP,B
95:446,ASP,A
96:447,GLY,A
97:447,GLY,B
98:448,MET,B
99:448,MET,A
100:453,ILE,A
101:453,ILE,B
102:454,ASP,A
103:454,ASP,B
104:455,THR,B
105:455,THR,A
106:456,ASN,B
107:456,ASN,A
108:457,PRO,B
109:457,PRO,A
110:458,ALA,B
111:458,ALA,A
112:459,ASN,A
113:459,ASN,B
114:460,TYR,B
115:460,TYR,A
116:461,GLU,A
117:461,GLU,B
118:462,PRO,B
119:462,PRO,A
120:463,ASN,A
121:463,ASN,B
122:464,SER,A
123:464,SER,B
124:465,ILE,A
125:465,ILE,B
126:466,ASN,A
127:466,ASN,B
128:467,ASP,B
129:467,ASP,A
130:468,ASN,A
131:468,ASN,B
132:535,VAL,B
133:535,VAL,A
134:536,ARG,B
135:536,ARG,A
136:537,PRO,A
137:537,PRO,B
138:538,TYR,A
139:538,TYR,B
140:539,ILE,A
141:539,ILE,B
142:542,ARG,B
143:542,ARG,A
