0:14,GLU,B
1:18,TYR,A
2:19,ASP,B
3:19,ASP,A
4:20,VAL,A
5:20,VAL,B
6:21,CYS,A
7:21,CYS,B
8:22,GLY,B
9:22,GLY,A
10:23,ILE,A
11:23,ILE,B
12:24,ILE,A
13:24,ILE,B
14:25,SER,A
15:25,SER,B
16:26,ALA,A
17:26,ALA,B
18:27,GLU,A
19:27,GLU,B
20:28,GLY,B
21:28,GLY,A
22:29,LYS,B
23:29,LYS,A
24:30,ILE,A
25:30,ILE,B
26:31,TYR,A
27:31,TYR,B
28:32,PRO,B
29:32,PRO,A
30:33,LEU,A
31:33,LEU,B
32:34,GLY,B
33:35,SER,B
34:36,ASP,B
35:38,LYS,B
36:39,VAL,B
37:40,LEU,B
38:41,SER,A
39:41,SER,B
40:42,THR,A
41:42,THR,B
42:43,ILE,B
43:43,ILE,A
44:44,PHE,A
45:44,PHE,B
46:45,GLU,A
47:45,GLU,B
48:46,LEU,B
49:46,LEU,A
50:47,PHE,A
51:47,PHE,B
52:48,SER,A
53:48,SER,B
54:49,ARG,B
55:49,ARG,A
56:50,PRO,B
57:50,PRO,A
58:51,ILE,A
59:51,ILE,B
60:52,ILE,B
61:53,ASN,B
62:54,LYS,A
63:54,LYS,B
64:65,GLU,A
65:66,PRO,A
66:67,LYS,A
67:69,GLN,A
68:74,ASP,A
69:149,LYS,B
70:149,LYS,A
71:150,THR,A
72:150,THR,B
73:151,TYR,B
74:151,TYR,A
75:152,ASN,A
76:152,ASN,B
77:153,ILE,B
78:153,ILE,A
79:154,ASN,A
80:154,ASN,B
81:155,GLU,B
82:155,GLU,A
83:156,LEU,A
84:156,LEU,B
85:157,ASN,B
86:157,ASN,A
87:158,GLU,B
88:158,GLU,A
89:159,ILE,B
90:159,ILE,A
91:160,PRO,A
92:160,PRO,B
93:161,LYS,B
94:161,LYS,A
