0:141,PHE,A
1:142,LYS,A
2:143,VAL,A
3:144,ASP,A
4:145,PRO,A
5:146,SER,A
6:147,CYS,A
7:148,PRO,A
8:149,GLY,A
9:161,ALA,B
10:164,SER,B
11:172,PRO,B
12:173,ALA,B
13:175,ALA,B
14:176,ALA,B
15:177,THR,B
16:178,LEU,B
17:179,VAL,B
18:180,GLN,B
19:181,HIS,B
20:182,ALA,B
21:183,LYS,B
22:184,GLN,B
23:192,TYR,A
24:193,ARG,A
25:194,GLY,A
26:195,VAL,A
27:196,TYR,A
28:197,SER,A
29:198,ASP,A
30:199,CYS,A
31:200,VAL,A
32:201,PRO,A
33:203,GLY,A
34:223,LEU,B
35:224,TYR,B
36:225,LYS,B
37:226,ALA,B
38:227,THR,B
39:228,GLY,B
40:229,ASP,B
41:230,ASP,B
42:231,SER,B
43:232,TYR,B
44:233,LEU,B
45:234,ALA,B
