0:2,ILE,B
1:3,SER,B
2:3,SER,A
3:4,GLY,B
4:4,GLY,A
5:5,ILE,A
6:5,ILE,B
7:6,LEU,A
8:6,LEU,B
9:7,ALA,B
10:7,ALA,A
11:8,SER,B
12:8,SER,A
13:9,PRO,A
14:9,PRO,B
15:185,GLY,B
16:185,GLY,A
17:186,ARG,A
18:186,ARG,B
19:187,THR,B
20:187,THR,A
21:191,SER,A
22:191,SER,B
23:192,ILE,A
24:192,ILE,B
25:195,ARG,B
26:195,ARG,A
27:196,SER,B
28:196,SER,A
29:201,ALA,B
30:201,ALA,A
31:202,ILE,B
32:202,ILE,A
33:203,VAL,B
34:203,VAL,A
35:204,GLY,B
36:204,GLY,A
37:205,THR,B
38:221,ASP,B
39:221,ASP,A
40:222,ALA,A
41:222,ALA,B
42:223,VAL,B
43:223,VAL,A
44:224,ASN,B
45:224,ASN,A
46:225,ASN,B
47:225,ASN,A
48:226,GLN,B
49:226,GLN,A
50:239,MET,B
51:242,VAL,A
52:242,VAL,B
53:243,GLN,B
54:243,GLN,A
55:244,GLU,A
56:244,GLU,B
57:245,GLN,B
58:245,GLN,A
59:246,VAL,A
60:246,VAL,B
61:248,SER,A
62:249,GLU,A
63:249,GLU,B
