0:54,PRO,B
1:54,PRO,A
2:55,LEU,B
3:55,LEU,A
4:56,PRO,A
5:56,PRO,B
6:57,ARG,B
7:57,ARG,A
8:61,LEU,A
9:61,LEU,B
10:62,GLU,A
11:62,GLU,B
12:63,LEU,A
13:63,LEU,B
14:64,GLY,A
15:64,GLY,B
16:65,SER,B
17:65,SER,A
18:66,ILE,B
19:66,ILE,A
20:129,SER,A
21:129,SER,B
22:130,CYS,B
23:130,CYS,A
24:131,PRO,B
25:131,PRO,A
26:132,ASN,B
27:132,ASN,A
28:133,VAL,A
29:133,VAL,B
30:134,PRO,B
31:134,PRO,A
32:135,GLY,A
33:135,GLY,B
34:136,LYS,B
35:136,LYS,A
36:137,PRO,B
37:137,PRO,A
38:138,GLN,B
39:138,GLN,A
40:139,LEU,B
41:139,LEU,A
42:140,ALA,B
43:140,ALA,A
44:141,TYR,B
45:141,TYR,A
46:142,ASP,A
47:142,ASP,B
48:166,PRO,A
49:166,PRO,B
50:167,PRO,B
51:167,PRO,A
52:168,TYR,A
53:168,TYR,B
54:169,PHE,B
55:169,PHE,A
56:170,ASP,B
57:170,ASP,A
58:171,LEU,B
59:171,LEU,A
60:172,VAL,A
61:172,VAL,B
62:173,HIS,B
63:173,HIS,A
64:174,PHE,A
65:174,PHE,B
66:175,ASP,B
67:175,ASP,A
68:193,ASN,B
69:193,ASN,A
70:194,SER,B
71:194,SER,A
72:195,ILE,B
73:195,ILE,A
74:196,GLY,B
75:196,GLY,A
76:197,ASN,A
77:197,ASN,B
78:198,GLY,A
79:198,GLY,B
80:199,LEU,A
81:199,LEU,B
82:200,PHE,A
83:200,PHE,B
84:201,ILE,A
85:201,ILE,B
86:202,ASP,A
87:202,ASP,B
88:203,PRO,A
89:203,PRO,B
90:204,GLU,A
91:204,GLU,B
92:205,ALA,B
93:205,ALA,A
94:206,GLU,A
95:206,GLU,B
96:207,SER,B
97:207,SER,A
98:208,VAL,A
99:208,VAL,B
100:209,VAL,B
101:209,VAL,A
102:210,ILE,A
103:210,ILE,B
104:211,LYS,A
105:211,LYS,B
106:212,PRO,A
107:212,PRO,B
108:213,LYS,B
109:213,LYS,A
110:214,ASP,A
111:214,ASP,B
112:215,GLY,A
113:215,GLY,B
114:216,PHE,B
115:216,PHE,A
116:217,GLY,B
117:217,GLY,A
118:218,GLY,A
119:218,GLY,B
120:219,ILE,A
121:219,ILE,B
122:220,GLY,B
123:220,GLY,A
124:221,GLY,B
125:221,GLY,A
126:222,ALA,A
127:222,ALA,B
128:223,TYR,A
129:223,TYR,B
130:224,ILE,A
131:224,ILE,B
132:225,LYS,B
133:225,LYS,A
134:226,PRO,A
135:226,PRO,B
136:227,THR,B
137:227,THR,A
138:228,ALA,A
139:228,ALA,B
140:229,LEU,A
141:229,LEU,B
142:230,ALA,B
143:230,ALA,A
144:231,ASN,B
145:231,ASN,A
146:232,VAL,B
147:232,VAL,A
148:233,ARG,B
149:233,ARG,A
150:234,ALA,A
151:234,ALA,B
152:237,THR,A
153:237,THR,B
154:250,GLY,A
155:250,GLY,B
156:254,GLY,A
157:254,GLY,B
158:255,GLN,A
159:255,GLN,B
160:256,ASP,A
161:256,ASP,B
162:257,ALA,B
163:257,ALA,A
164:258,PHE,A
165:258,PHE,B
166:259,GLU,A
167:259,GLU,B
168:260,HIS,A
169:260,HIS,B
170:261,LEU,B
171:261,LEU,A
172:262,LEU,B
173:262,LEU,A
174:263,CYS,A
175:263,CYS,B
176:289,LEU,B
177:289,LEU,A
178:292,ILE,A
179:292,ILE,B
180:293,MET,B
181:293,MET,A
182:295,GLN,B
183:295,GLN,A
184:296,LYS,B
185:296,LYS,A
186:304,PHE,A
187:304,PHE,B
188:305,HIS,B
189:305,HIS,A
190:306,GLY,B
191:306,GLY,A
192:307,LYS,A
193:307,LYS,B
194:308,LEU,A
195:308,LEU,B
196:309,LYS,A
197:309,LYS,B
198:310,SER,B
199:310,SER,A
200:311,LEU,A
201:311,LEU,B
