0:60,ARG,A
1:60,ARG,B
2:87,GLY,B
3:87,GLY,A
4:88,GLU,B
5:88,GLU,A
6:89,SER,A
7:89,SER,B
8:90,VAL,B
9:90,VAL,A
10:91,GLN,B
11:91,GLN,A
12:92,LYS,B
13:92,LYS,A
14:93,PRO,B
15:93,PRO,A
16:94,LEU,B
17:94,LEU,A
18:95,GLU,A
19:95,GLU,B
20:96,TYR,B
21:96,TYR,A
22:97,TYR,B
23:97,TYR,A
24:98,ASP,B
25:98,ASP,A
26:99,ASN,A
27:99,ASN,B
28:100,ASN,B
29:100,ASN,A
30:101,VAL,A
31:101,VAL,B
32:102,ASN,A
33:102,ASN,B
34:103,GLY,B
35:103,GLY,A
36:104,THR,B
37:104,THR,A
38:105,LEU,B
39:105,LEU,A
40:106,ARG,B
41:106,ARG,A
42:107,LEU,B
43:107,LEU,A
44:108,ILE,A
45:108,ILE,B
46:109,SER,A
47:109,SER,B
48:110,ALA,B
49:110,ALA,A
50:111,MET,B
51:111,MET,A
52:112,ARG,B
53:112,ARG,A
54:113,ALA,B
55:141,PRO,A
56:141,PRO,B
57:142,THR,B
58:142,THR,A
59:143,GLY,B
60:143,GLY,A
61:144,THR,B
62:144,THR,A
63:145,PRO,A
64:145,PRO,B
65:146,GLN,A
66:146,GLN,B
67:147,SER,A
68:147,SER,B
69:148,PRO,B
70:148,PRO,A
71:149,TYR,B
72:149,TYR,A
73:150,GLY,A
74:151,LYS,B
75:151,LYS,A
76:152,SER,B
77:152,SER,A
78:153,LYS,B
79:153,LYS,A
80:154,LEU,B
81:154,LEU,A
82:155,MET,A
83:155,MET,B
84:156,VAL,A
85:156,VAL,B
86:157,GLU,B
87:158,GLN,B
88:158,GLN,A
89:159,ILE,A
90:159,ILE,B
91:160,LEU,A
92:160,LEU,B
93:161,THR,A
94:161,THR,B
95:162,ASP,A
96:162,ASP,B
97:163,LEU,B
98:163,LEU,A
99:164,GLN,B
100:164,GLN,A
101:165,LYS,A
102:165,LYS,B
103:166,ALA,A
104:166,ALA,B
105:167,GLN,B
106:167,GLN,A
107:168,PRO,B
108:168,PRO,A
