0:11,LYS,B
1:11,LYS,A
2:12,SER,B
3:12,SER,A
4:13,ASP,A
5:13,ASP,B
6:14,GLU,A
7:14,GLU,B
8:15,ILE,B
9:15,ILE,A
10:16,PHE,B
11:16,PHE,A
12:17,ALA,A
13:17,ALA,B
14:18,ALA,B
15:18,ALA,A
16:19,ALA,B
17:19,ALA,A
18:20,GLN,B
19:20,GLN,A
20:21,LYS,B
21:21,LYS,A
22:22,LEU,A
23:22,LEU,B
24:23,MET,A
25:23,MET,B
26:24,PRO,B
27:24,PRO,A
28:25,GLY,A
29:25,GLY,B
30:26,GLY,A
31:26,GLY,B
32:27,VAL,A
33:27,VAL,B
34:28,SER,B
35:28,SER,A
36:29,SER,B
37:29,SER,A
38:30,PRO,A
39:30,PRO,B
40:31,VAL,A
41:31,VAL,B
42:32,ARG,B
43:32,ARG,A
44:33,ALA,A
45:33,ALA,B
46:34,PHE,B
47:34,PHE,A
48:35,LYS,B
49:35,LYS,A
50:36,SER,B
51:36,SER,A
52:39,GLY,B
53:40,GLN,B
54:40,GLN,A
55:41,PRO,B
56:41,PRO,A
57:42,ILE,B
58:42,ILE,A
59:43,VAL,B
60:43,VAL,A
61:44,PHE,A
62:44,PHE,B
63:45,ASP,A
64:45,ASP,B
65:46,ARG,B
66:46,ARG,A
67:47,VAL,B
68:47,VAL,A
69:48,LYS,B
70:48,LYS,A
71:49,ASP,A
72:49,ASP,B
73:50,ALA,A
74:50,ALA,B
75:51,TYR,A
76:51,TYR,B
77:52,ALA,B
78:52,ALA,A
79:53,TRP,B
80:53,TRP,A
81:54,ASP,A
82:54,ASP,B
83:55,VAL,A
84:55,VAL,B
85:62,ASP,B
86:62,ASP,A
87:63,TYR,B
88:63,TYR,A
89:64,VAL,A
90:64,VAL,B
91:65,GLY,A
92:65,GLY,B
93:66,THR,B
94:66,THR,A
95:67,TRP,B
96:67,TRP,A
97:68,GLY,A
98:68,GLY,B
99:69,PRO,A
100:69,PRO,B
101:70,ALA,A
102:70,ALA,B
103:73,GLY,B
104:73,GLY,A
105:74,HIS,A
106:74,HIS,B
107:75,ALA,A
108:75,ALA,B
109:76,HIS,B
110:76,HIS,A
111:77,PRO,B
112:77,PRO,A
113:78,GLU,A
114:78,GLU,B
115:79,VAL,A
116:79,VAL,B
117:80,ILE,B
118:80,ILE,A
119:81,GLU,A
120:81,GLU,B
121:82,ALA,A
122:82,ALA,B
123:83,LEU,A
124:83,LEU,B
125:84,LYS,A
126:84,LYS,B
127:85,VAL,A
128:85,VAL,B
129:86,ALA,A
130:86,ALA,B
131:87,MET,A
132:87,MET,B
133:88,GLU,B
134:88,GLU,A
135:89,LYS,B
136:89,LYS,A
137:90,GLY,B
138:90,GLY,A
139:91,THR,A
140:91,THR,B
141:92,SER,A
142:92,SER,B
143:93,PHE,B
144:93,PHE,A
145:94,GLY,A
146:94,GLY,B
147:95,ALA,B
148:95,ALA,A
149:96,PRO,B
150:96,PRO,A
151:97,CYS,A
152:97,CYS,B
153:98,ALA,A
154:98,ALA,B
155:99,LEU,A
156:99,LEU,B
157:100,GLU,A
158:100,GLU,B
159:101,ASN,A
160:101,ASN,B
161:102,VAL,A
162:102,VAL,B
163:103,LEU,B
164:103,LEU,A
165:104,ALA,A
166:104,ALA,B
167:105,GLU,A
168:105,GLU,B
169:106,MET,A
170:106,MET,B
171:107,VAL,B
172:107,VAL,A
173:108,ASN,A
174:108,ASN,B
175:109,ASP,A
176:109,ASP,B
177:114,ILE,B
178:114,ILE,A
179:115,GLU,A
180:115,GLU,B
181:116,MET,B
182:116,MET,A
183:117,VAL,B
184:117,VAL,A
185:118,ARG,B
186:118,ARG,A
187:119,PHE,A
188:119,PHE,B
189:120,VAL,A
190:120,VAL,B
191:121,ASN,B
192:121,ASN,A
193:122,SER,B
194:122,SER,A
195:123,GLY,B
196:123,GLY,A
197:124,THR,B
198:124,THR,A
199:125,GLU,A
200:125,GLU,B
201:126,ALA,B
202:126,ALA,A
203:127,CYS,A
204:127,CYS,B
205:128,MET,A
206:128,MET,B
207:129,ALA,A
208:129,ALA,B
209:130,VAL,A
210:130,VAL,B
211:131,LEU,A
212:131,LEU,B
213:132,ARG,A
214:132,ARG,B
215:133,LEU,B
216:133,LEU,A
217:134,MET,A
218:134,MET,B
219:135,ARG,A
220:135,ARG,B
221:136,ALA,A
222:136,ALA,B
223:137,TYR,A
224:137,TYR,B
225:138,THR,A
226:138,THR,B
227:139,GLY,B
228:139,GLY,A
229:140,ARG,B
230:140,ARG,A
231:141,ASP,A
232:141,ASP,B
233:142,LYS,A
234:142,LYS,B
235:143,ILE,B
236:150,TYR,A
237:150,TYR,B
238:151,HIS,B
239:151,HIS,A
240:152,GLY,A
241:152,GLY,B
242:153,HIS,B
243:153,HIS,A
244:154,ALA,B
245:154,ALA,A
246:155,ASP,A
247:155,ASP,B
248:156,MET,A
249:156,MET,B
250:157,PHE,A
251:157,PHE,B
252:158,LEU,B
253:158,LEU,A
254:159,VAL,A
255:159,VAL,B
256:160,LYS,B
257:161,ALA,A
258:161,ALA,B
259:162,GLY,B
260:162,GLY,A
261:163,SER,B
262:163,SER,A
263:164,GLY,A
264:164,GLY,B
265:165,VAL,A
266:165,VAL,B
267:166,ALA,B
268:166,ALA,A
269:167,THR,B
270:167,THR,A
271:168,LEU,A
272:168,LEU,B
273:169,GLY,B
274:169,GLY,A
275:170,LEU,B
276:170,LEU,A
277:171,PRO,A
278:171,PRO,B
279:172,SER,B
280:172,SER,A
281:173,SER,B
282:173,SER,A
283:174,PRO,B
284:174,PRO,A
285:175,GLY,A
286:175,GLY,B
287:176,VAL,B
288:176,VAL,A
289:177,PRO,B
290:177,PRO,A
291:178,LYS,B
292:178,LYS,A
293:179,LYS,B
294:179,LYS,A
295:180,THR,B
296:180,THR,A
297:181,THR,B
298:181,THR,A
299:182,ALA,A
300:182,ALA,B
301:183,ASN,A
302:183,ASN,B
303:184,THR,B
304:184,THR,A
305:205,GLU,B
306:207,ALA,A
307:207,ALA,B
308:247,VAL,A
309:247,VAL,B
310:248,MET,B
311:248,MET,A
312:272,GLY,A
313:272,GLY,B
314:273,LYS,B
315:273,LYS,A
316:274,ILE,B
317:274,ILE,A
318:276,GLY,A
319:276,GLY,B
320:277,GLY,A
321:277,GLY,B
322:278,GLY,B
323:278,GLY,A
324:279,LEU,B
325:279,LEU,A
326:280,PRO,B
327:280,PRO,A
328:281,VAL,A
329:281,VAL,B
330:282,GLY,A
331:282,GLY,B
332:283,ALA,A
333:283,ALA,B
334:284,TYR,A
335:284,TYR,B
336:285,GLY,A
337:285,GLY,B
338:286,GLY,B
339:286,GLY,A
340:287,LYS,A
341:287,LYS,B
342:288,ARG,A
343:288,ARG,B
344:289,GLU,B
345:289,GLU,A
346:290,ILE,B
347:290,ILE,A
348:291,MET,B
349:291,MET,A
350:292,GLN,B
351:292,GLN,A
352:293,LEU,B
353:293,LEU,A
354:294,VAL,B
355:294,VAL,A
356:295,ALA,A
357:295,ALA,B
358:296,PRO,A
359:296,PRO,B
360:297,ALA,B
361:297,ALA,A
362:298,GLY,B
363:298,GLY,A
364:299,PRO,A
365:299,PRO,B
366:300,MET,A
367:300,MET,B
368:301,TYR,B
369:301,TYR,A
370:302,GLN,A
371:302,GLN,B
372:303,ALA,A
373:303,ALA,B
374:304,GLY,A
375:304,GLY,B
376:305,THR,A
377:305,THR,B
378:306,LEU,B
379:306,LEU,A
380:307,SER,B
381:307,SER,A
382:308,GLY,B
383:308,GLY,A
384:309,ASN,A
385:309,ASN,B
386:310,PRO,A
387:310,PRO,B
388:311,LEU,B
389:311,LEU,A
390:312,ALA,A
391:312,ALA,B
392:313,MET,A
393:313,MET,B
394:315,ALA,B
395:315,ALA,A
396:399,TYR,B
397:399,TYR,A
398:400,LEU,A
399:400,LEU,B
400:401,ALA,B
401:401,ALA,A
402:402,PRO,A
403:402,PRO,B
