0:3,ASN,B
1:3,ASN,A
2:4,ARG,B
3:4,ARG,A
4:5,ASP,B
5:5,ASP,A
6:6,PRO,B
7:6,PRO,A
8:7,ALA,A
9:7,ALA,B
10:8,SER,B
11:8,SER,A
12:9,ASP,A
13:9,ASP,B
14:10,GLN,A
15:10,GLN,B
16:11,MET,B
17:11,MET,A
18:12,LYS,B
19:12,LYS,A
20:13,HIS,B
21:13,HIS,A
22:14,TRP,B
23:14,TRP,A
24:35,GLY,B
25:35,GLY,A
26:36,ASP,A
27:36,ASP,B
28:37,LYS,A
29:37,LYS,B
30:38,LEU,A
31:38,LEU,B
32:39,ASN,B
33:39,ASN,A
34:40,SER,B
35:40,SER,A
36:41,LEU,A
37:41,LEU,B
38:42,THR,A
39:42,THR,B
40:43,VAL,B
41:43,VAL,A
42:44,GLY,B
43:44,GLY,A
44:45,PRO,B
45:45,PRO,A
46:46,ARG,B
47:46,ARG,A
48:47,GLY,A
49:47,GLY,B
50:48,PRO,A
51:48,PRO,B
52:49,LEU,B
53:49,LEU,A
54:50,LEU,B
55:50,LEU,A
56:51,VAL,B
57:51,VAL,A
58:52,GLN,B
59:52,GLN,A
60:53,ASP,B
61:53,ASP,A
62:54,VAL,A
63:54,VAL,B
64:55,VAL,A
65:55,VAL,B
66:56,PHE,A
67:56,PHE,B
68:57,THR,A
69:57,THR,B
70:58,ASP,A
71:58,ASP,B
72:59,GLU,B
73:59,GLU,A
74:60,MET,A
75:60,MET,B
76:61,ALA,B
77:61,ALA,A
78:62,HIS,B
79:62,HIS,A
80:63,PHE,B
81:63,PHE,A
82:64,ASP,A
83:64,ASP,B
84:65,ARG,A
85:65,ARG,B
86:66,GLU,B
87:66,GLU,A
88:67,ARG,A
89:67,ARG,B
90:68,ILE,B
91:68,ILE,A
92:69,PRO,A
93:69,PRO,B
94:70,GLU,B
95:70,GLU,A
96:71,ARG,B
97:71,ARG,A
98:72,VAL,B
99:72,VAL,A
100:73,VAL,B
101:73,VAL,A
102:75,ALA,A
103:75,ALA,B
104:76,LYS,B
105:76,LYS,A
106:77,GLY,A
107:77,GLY,B
108:78,ALA,B
109:78,ALA,A
110:79,GLY,A
111:79,GLY,B
112:80,ALA,B
113:80,ALA,A
114:116,ALA,B
115:116,ALA,A
116:117,GLY,A
117:117,GLY,B
118:118,GLU,A
119:118,GLU,B
120:119,SER,B
121:119,SER,A
122:120,GLY,A
123:120,GLY,B
124:121,SER,A
125:121,SER,B
126:122,ALA,B
127:122,ALA,A
128:123,ASP,A
129:123,ASP,B
130:124,THR,B
131:124,THR,A
132:125,VAL,B
133:125,VAL,A
134:154,ILE,A
135:154,ILE,B
136:155,ARG,A
137:155,ARG,B
138:156,ASP,B
139:156,ASP,A
140:157,ALA,A
141:157,ALA,B
142:158,LEU,B
143:158,LEU,A
144:159,LEU,B
145:159,LEU,A
146:160,PHE,B
147:160,PHE,A
148:161,PRO,B
149:161,PRO,A
150:162,SER,A
151:162,SER,B
152:163,PHE,B
153:163,PHE,A
154:164,ILE,B
155:164,ILE,A
156:165,HIS,B
157:165,HIS,A
158:166,SER,A
159:166,SER,B
160:168,LYS,A
161:168,LYS,B
162:169,ARG,B
163:169,ARG,A
164:170,ASN,B
165:170,ASN,A
166:171,PRO,A
167:171,PRO,B
168:172,GLN,A
169:172,GLN,B
170:173,THR,A
171:173,THR,B
172:174,HIS,A
173:174,HIS,B
174:175,LEU,A
175:175,LEU,B
176:176,LYS,B
177:176,LYS,A
178:177,ASP,B
179:177,ASP,A
180:178,PRO,A
181:178,PRO,B
182:179,ASP,A
183:179,ASP,B
184:180,MET,A
185:180,MET,B
186:183,ASP,A
187:183,ASP,B
188:188,ARG,A
189:188,ARG,B
190:247,GLU,B
191:247,GLU,A
192:248,ASP,B
193:248,ASP,A
194:249,ALA,B
195:249,ALA,A
196:250,ALA,B
197:250,ALA,A
198:251,ARG,A
199:251,ARG,B
200:252,LEU,A
201:252,LEU,B
202:253,ALA,B
203:253,ALA,A
204:254,HIS,A
205:254,HIS,B
206:255,GLU,A
207:255,GLU,B
208:256,ASP,A
209:256,ASP,B
210:257,PRO,B
211:257,PRO,A
212:258,ASP,A
213:258,ASP,B
214:259,TYR,A
215:259,TYR,B
216:260,GLY,A
217:260,GLY,B
218:261,LEU,B
219:261,LEU,A
220:262,ARG,A
221:262,ARG,B
222:263,ASP,A
223:263,ASP,B
224:264,LEU,A
225:264,LEU,B
226:265,PHE,B
227:265,PHE,A
228:266,ASN,B
229:266,ASN,A
230:269,ALA,A
231:269,ALA,B
232:288,ALA,B
233:288,ALA,A
234:289,GLU,B
235:289,GLU,A
236:293,PHE,A
237:293,PHE,B
238:294,ASN,B
239:294,ASN,A
240:295,PRO,B
241:295,PRO,A
242:296,PHE,B
243:296,PHE,A
244:297,ASP,A
245:297,ASP,B
246:320,ASN,A
247:320,ASN,B
248:321,PRO,B
249:321,PRO,A
250:322,VAL,A
251:322,VAL,B
252:323,ASN,B
253:323,ASN,A
254:324,TYR,B
255:324,TYR,A
256:325,PHE,A
257:325,PHE,B
258:326,ALA,A
259:326,ALA,B
260:327,GLU,B
261:327,GLU,A
262:328,VAL,A
263:328,VAL,B
264:329,GLU,B
265:329,GLU,A
266:344,PRO,A
267:344,PRO,B
268:345,SER,B
269:345,SER,A
270:346,PRO,B
271:346,PRO,A
272:347,ASP,A
273:347,ASP,B
274:348,LYS,A
275:348,LYS,B
276:349,MET,B
277:349,MET,A
278:350,LEU,B
279:350,LEU,A
280:351,GLN,A
281:351,GLN,B
282:352,GLY,B
283:352,GLY,A
284:353,ARG,A
285:353,ARG,B
286:354,LEU,A
287:354,LEU,B
288:355,PHE,A
289:355,PHE,B
290:356,ALA,B
291:356,ALA,A
292:357,TYR,A
293:357,TYR,B
294:358,PRO,A
295:358,PRO,B
296:359,ASP,A
297:359,ASP,B
298:360,THR,B
299:360,THR,A
300:361,HIS,B
301:361,HIS,A
302:362,ARG,B
303:362,ARG,A
304:363,HIS,A
305:363,HIS,B
306:364,ARG,B
307:364,ARG,A
308:365,LEU,B
309:365,LEU,A
310:366,GLY,B
311:366,GLY,A
312:422,THR,A
313:422,THR,B
314:423,HIS,A
315:423,HIS,B
316:424,PHE,A
317:424,PHE,B
318:425,SER,B
319:425,SER,A
320:426,GLY,B
321:426,GLY,A
322:427,ASP,A
323:427,ASP,B
324:428,VAL,A
325:428,VAL,B
326:429,GLN,B
327:429,GLN,A
328:430,ARG,A
329:430,ARG,B
330:431,PHE,B
331:431,PHE,A
332:432,ASN,A
333:432,ASN,B
334:433,SER,A
335:433,SER,B
336:434,ALA,B
337:434,ALA,A
338:436,ASP,B
339:436,ASP,A
340:468,ASP,A
341:468,ASP,B
342:469,ALA,B
343:469,ALA,A
344:470,GLN,A
345:470,GLN,B
346:471,LEU,A
347:471,LEU,B
348:472,PHE,A
349:472,PHE,B
350:473,ILE,A
351:473,ILE,B
352:500,ASN,A
353:500,ASN,B
