0:1,MET,A
1:1,MET,B
2:2,ASP,B
3:2,ASP,A
4:3,PHE,B
5:3,PHE,A
6:4,ASN,A
7:4,ASN,B
8:5,LEU,B
9:5,LEU,A
10:6,THR,A
11:6,THR,B
12:7,ASP,A
13:7,ASP,B
14:8,ILE,B
15:8,ILE,A
16:9,GLN,B
17:9,GLN,A
18:10,GLN,A
19:10,GLN,B
20:68,ASP,B
21:68,ASP,A
22:69,VAL,B
23:69,VAL,A
24:70,LEU,B
25:70,LEU,A
26:71,SER,A
27:71,SER,B
28:262,LEU,A
29:262,LEU,B
30:263,ALA,B
31:263,ALA,A
32:265,ALA,A
33:265,ALA,B
34:266,VAL,B
35:266,VAL,A
36:267,GLU,A
37:267,GLU,B
38:268,TYR,B
39:268,TYR,A
40:269,SER,A
41:269,SER,B
42:270,LYS,B
43:270,LYS,A
44:271,GLN,A
45:271,GLN,B
46:278,PRO,A
47:278,PRO,B
48:279,LEU,B
49:279,LEU,A
50:280,CYS,A
51:280,CYS,B
52:281,LYS,A
53:281,LYS,B
54:282,PHE,A
55:282,PHE,B
56:283,GLN,A
57:283,GLN,B
58:284,SER,B
59:284,SER,A
60:285,ILE,B
61:285,ILE,A
62:286,SER,B
63:286,SER,A
64:287,PHE,A
65:287,PHE,B
66:288,LYS,A
67:288,LYS,B
68:289,LEU,B
69:289,LEU,A
70:290,ALA,A
71:290,ALA,B
72:291,ASP,A
73:291,ASP,B
74:292,MET,A
75:292,MET,B
76:293,LYS,B
77:293,LYS,A
78:294,MET,A
79:294,MET,B
80:295,GLN,A
81:295,GLN,B
82:296,ILE,A
83:296,ILE,B
84:297,GLU,B
85:297,GLU,A
86:298,ALA,B
87:298,ALA,A
88:299,ALA,B
89:299,ALA,A
90:300,ARG,A
91:300,ARG,B
92:301,ASN,B
93:301,ASN,A
94:302,LEU,B
95:302,LEU,A
96:303,VAL,A
97:303,VAL,B
98:304,TYR,B
99:304,TYR,A
100:305,LYS,A
101:305,LYS,B
102:306,ALA,A
103:306,ALA,B
104:307,ALA,B
105:307,ALA,A
106:308,CYS,B
107:308,CYS,A
108:309,LYS,A
109:309,LYS,B
110:310,LYS,A
111:310,LYS,B
112:311,GLN,B
113:311,GLN,A
114:312,GLU,B
115:312,GLU,A
116:314,LYS,B
117:314,LYS,A
118:318,VAL,B
119:318,VAL,A
120:319,ASP,B
121:319,ASP,A
122:320,ALA,B
123:320,ALA,A
124:321,ALA,B
125:321,ALA,A
126:322,ILE,B
127:322,ILE,A
128:323,ALA,A
129:323,ALA,B
130:324,LYS,A
131:324,LYS,B
132:325,ARG,B
133:325,ARG,A
134:326,VAL,A
135:326,VAL,B
136:327,ALA,B
137:327,ALA,A
138:329,ASP,B
139:329,ASP,A
140:330,VAL,A
141:330,VAL,B
142:370,ASN,B
143:370,ASN,A
144:371,GLU,A
145:371,GLU,B
146:372,VAL,A
147:372,VAL,B
148:373,GLN,A
149:373,GLN,B
150:374,LEU,A
151:374,LEU,B
152:375,MET,A
153:375,MET,B
154:376,VAL,B
155:376,VAL,A
156:377,THR,B
157:377,THR,A
158:378,GLY,B
159:378,GLY,A
160:379,GLY,B
161:379,GLY,A
162:380,ALA,A
163:380,ALA,B
164:381,LEU,B
165:381,LEU,A
166:382,LEU,A
167:382,LEU,B
168:383,ARG,B
169:383,ARG,A
