0:62,TRP,B
1:63,ALA,B
2:64,ARG,B
3:65,GLY,B
4:66,PRO,B
5:67,THR,B
6:94,ALA,B
7:97,ASP,B
8:98,LEU,B
9:99,PRO,B
10:100,TYR,B
11:101,GLY,B
12:116,ASP,A
13:117,ARG,A
14:119,LYS,A
15:120,GLU,A
16:121,ARG,A
17:123,ALA,A
18:124,ARG,A
19:132,ASP,B
20:133,VAL,B
21:134,ILE,B
22:135,SER,B
23:136,PRO,B
24:137,TYR,B
25:138,THR,B
26:139,ASP,B
27:148,ASN,A
28:149,PRO,A
29:150,GLN,A
30:151,ILE,A
31:152,MET,A
32:153,ALA,A
33:154,TRP,A
34:155,MET,A
35:156,MET,A
36:157,ASP,A
37:158,GLU,A
38:159,TYR,A
39:160,GLU,A
40:161,THR,A
41:163,SER,B
42:163,SER,A
43:164,ARG,A
44:165,ARG,A
45:166,LYS,B
46:166,LYS,A
47:167,ASP,A
48:167,ASP,B
49:168,PRO,B
50:168,PRO,A
51:169,SER,B
52:169,SER,A
53:170,PHE,A
54:171,GLY,A
55:171,GLY,B
56:172,VAL,B
57:176,LYS,A
58:177,PRO,A
59:178,PRO,A
60:179,SER,A
61:180,VAL,A
62:181,GLY,A
63:182,GLY,A
64:351,TYR,B
65:352,PHE,B
66:353,GLU,B
67:354,TRP,B
68:355,VAL,B
69:355,VAL,A
70:356,GLN,B
71:356,GLN,A
72:357,ASN,B
73:357,ASN,A
74:358,ILE,A
75:358,ILE,B
76:359,THR,A
77:359,THR,B
78:360,GLY,A
79:360,GLY,B
80:361,ASP,A
81:361,ASP,B
82:362,TYR,A
83:363,TRP,A
84:364,THR,A
85:371,LYS,B
86:374,LYS,B
87:375,LYS,B
88:404,SER,B
89:405,ARG,B
90:406,VAL,B
91:407,TYR,B
92:408,GLN,B
93:409,ALA,B
94:410,MET,B
95:411,LYS,B
96:412,ASP,B
97:413,ARG,B
98:414,GLY,B
99:415,TRP,B
100:416,ILE,B
101:417,LYS,B
