0:4,TRP,A
1:4,TRP,B
2:5,ASP,B
3:5,ASP,A
4:6,VAL,A
5:6,VAL,B
6:7,SER,A
7:7,SER,B
8:8,MET,A
9:8,MET,B
10:9,SER,B
11:9,SER,A
12:10,ASN,A
13:10,ASN,B
14:11,HIS,A
15:11,HIS,B
16:12,ALA,B
17:12,ALA,A
18:13,GLY,A
19:13,GLY,B
20:14,LEU,A
21:14,LEU,B
22:15,VAL,B
23:15,VAL,A
24:16,PHE,B
25:16,PHE,A
26:17,ASN,A
27:17,ASN,B
28:18,PRO,A
29:18,PRO,B
30:19,ILE,A
31:19,ILE,B
32:20,ARG,B
33:20,ARG,A
34:21,THR,A
35:24,ASP,B
36:24,ASP,A
37:40,VAL,B
38:40,VAL,A
39:41,GLY,B
40:41,GLY,A
41:42,ASP,A
42:42,ASP,B
43:43,PRO,A
44:43,PRO,B
45:44,THR,A
46:44,THR,B
47:45,LEU,A
48:45,LEU,B
49:46,ASP,A
50:46,ASP,B
51:47,LYS,B
52:47,LYS,A
53:48,ASN,B
54:48,ASN,A
55:49,LEU,B
56:49,LEU,A
57:50,LEU,B
58:50,LEU,A
59:51,THR,A
60:51,THR,B
61:52,SER,B
62:52,SER,A
63:53,ALA,B
64:53,ALA,A
65:55,GLN,B
66:55,GLN,A
67:56,ILE,B
68:56,ILE,A
69:57,LYS,B
70:57,LYS,A
71:58,LYS,A
72:58,LYS,B
73:59,LEU,A
74:59,LEU,B
75:60,LYS,A
76:60,LYS,B
77:61,GLU,A
78:61,GLU,B
79:62,ALA,B
80:62,ALA,A
81:63,ILE,A
82:63,ILE,B
83:64,ASP,A
84:64,ASP,B
85:65,SER,B
86:65,SER,A
87:66,GLN,B
88:66,GLN,A
89:67,GLU,A
90:67,GLU,B
91:68,CYS,B
92:68,CYS,A
93:69,ASN,B
94:69,ASN,A
95:70,GLY,B
96:70,GLY,A
97:71,TYR,B
98:71,TYR,A
99:72,PHE,A
100:72,PHE,B
101:73,PRO,A
102:73,PRO,B
103:74,THR,B
104:74,THR,A
105:76,GLY,A
106:76,GLY,B
107:77,SER,B
108:77,SER,A
109:110,CYS,B
110:110,CYS,A
111:111,SER,A
112:111,SER,B
113:112,GLY,B
114:112,GLY,A
115:113,GLY,B
116:113,GLY,A
117:114,SER,B
118:114,SER,A
119:115,HIS,A
120:115,HIS,B
121:116,GLY,B
122:116,GLY,A
123:117,ILE,B
124:117,ILE,A
125:118,LEU,B
126:118,LEU,A
127:119,MET,B
128:119,MET,A
129:120,ALA,A
130:120,ALA,B
131:121,ILE,A
132:121,ILE,B
133:122,THR,B
134:122,THR,A
135:123,ALA,B
136:123,ALA,A
137:124,ILE,B
138:124,ILE,A
139:125,CYS,B
140:125,CYS,A
141:126,ASP,B
142:126,ASP,A
143:127,ALA,B
144:127,ALA,A
145:128,GLY,A
146:128,GLY,B
147:129,ASP,A
148:129,ASP,B
149:139,PRO,A
150:139,PRO,B
151:140,HIS,B
152:140,HIS,A
153:141,TYR,A
154:141,TYR,B
155:142,GLU,A
156:142,GLU,B
157:143,THR,B
158:143,THR,A
159:144,VAL,B
160:144,VAL,A
161:145,CYS,A
162:145,CYS,B
163:146,LYS,B
164:146,LYS,A
165:147,ALA,B
166:147,ALA,A
167:148,TYR,B
168:148,TYR,A
169:150,ILE,A
170:150,ILE,B
171:176,ASP,B
172:176,ASP,A
173:178,THR,B
174:178,THR,A
175:179,LYS,B
176:179,LYS,A
177:180,LEU,B
178:180,LEU,A
179:206,ALA,A
180:206,ALA,B
181:207,GLU,A
182:207,GLU,B
183:208,GLU,A
184:208,GLU,B
185:209,LEU,A
186:209,LEU,B
187:210,ARG,A
188:210,ARG,B
189:211,LEU,A
190:211,LEU,B
191:212,PRO,A
192:212,PRO,B
193:213,LEU,B
194:213,LEU,A
195:242,THR,A
196:242,THR,B
197:243,VAL,A
198:243,VAL,B
199:244,PRO,B
200:244,PRO,A
201:245,ARG,B
202:245,ARG,A
203:251,THR,A
204:251,THR,B
205:252,ALA,B
206:252,ALA,A
207:253,LLP,A
208:253,LLP,B
209:255,LEU,B
210:255,LEU,A
211:256,VAL,B
212:256,VAL,A
213:257,VAL,A
214:257,VAL,B
215:258,PRO,B
216:258,PRO,A
217:259,GLY,B
218:259,GLY,A
219:260,TRP,A
220:260,TRP,B
221:261,ARG,A
222:261,ARG,B
223:262,LEU,B
224:262,LEU,A
225:263,GLY,B
226:263,GLY,A
227:269,ASP,A
228:269,ASP,B
229:271,HIS,B
230:271,HIS,A
231:272,GLY,A
232:272,GLY,B
233:273,ASN,A
234:273,ASN,B
235:274,GLY,B
236:274,GLY,A
237:275,PRO,B
238:275,PRO,A
239:276,SER,A
240:276,SER,B
241:277,PHE,A
242:277,PHE,B
243:278,LEU,B
244:278,LEU,A
245:279,GLU,A
246:279,GLU,B
247:280,GLY,A
248:280,GLY,B
249:281,LEU,B
250:281,LEU,A
251:282,LYS,B
252:282,LYS,A
253:283,ARG,B
254:283,ARG,A
255:284,VAL,A
256:284,VAL,B
257:285,GLY,B
258:285,GLY,A
259:286,MET,B
260:286,MET,A
261:287,LEU,A
262:287,LEU,B
263:288,VAL,A
264:288,VAL,B
265:289,CYS,A
266:289,CYS,B
267:290,GLY,B
268:290,GLY,A
269:291,PRO,A
270:291,PRO,B
271:292,CYS,B
272:292,CYS,A
273:293,THR,B
274:293,THR,A
275:294,VAL,B
276:294,VAL,A
277:295,VAL,A
278:295,VAL,B
279:296,GLN,B
280:296,GLN,A
281:297,ALA,A
282:297,ALA,B
