0:137,ILE,A
1:137,ILE,B
2:138,GLY,A
3:138,GLY,B
4:139,ARG,A
5:139,ARG,B
6:140,THR,B
7:140,THR,A
8:141,HIS,B
9:141,HIS,A
10:142,GLY,B
11:142,GLY,A
12:143,VAL,B
13:143,VAL,A
14:144,HIS,B
15:144,HIS,A
16:145,ALA,B
17:145,ALA,A
18:146,GLU,A
19:146,GLU,B
20:238,VAL,A
21:238,VAL,B
22:239,GLU,A
23:239,GLU,B
24:240,ILE,B
25:240,ILE,A
26:241,ARG,B
27:241,ARG,A
28:242,HIS,B
29:242,HIS,A
30:243,LEU,B
31:243,LEU,A
32:244,GLN,B
33:244,GLN,A
34:245,ARG,B
35:245,ARG,A
36:246,THR,A
37:246,THR,B
38:247,GLU,A
39:247,GLU,B
40:248,VAL,B
41:248,VAL,A
42:249,LEU,B
43:249,LEU,A
44:250,GLU,B
45:250,GLU,A
46:252,GLU,B
47:252,GLU,A
48:263,SER,A
49:263,SER,B
50:264,ALA,A
51:264,ALA,B
52:265,MET,B
53:265,MET,A
54:266,PRO,A
55:266,PRO,B
56:267,HIS,A
57:267,HIS,B
58:268,LYS,B
59:268,LYS,A
60:269,LYS,B
61:269,LYS,A
62:270,ASN,A
63:270,ASN,B
64:271,PRO,B
65:271,PRO,A
66:272,ILE,A
67:272,ILE,B
68:273,THR,A
69:273,THR,B
70:274,CYS,B
71:274,CYS,A
72:275,GLU,A
73:275,GLU,B
74:276,ARG,B
75:276,ARG,A
76:343,LYS,B
77:343,LYS,A
78:344,ASN,A
79:344,ASN,B
80:345,ILE,B
81:345,ILE,A
82:346,ASP,A
83:346,ASP,B
84:347,LEU,A
85:347,LEU,B
86:348,THR,A
87:348,THR,B
88:349,LYS,B
89:349,LYS,A
90:350,GLY,A
91:350,GLY,B
92:351,LEU,A
93:351,LEU,B
94:352,VAL,B
95:352,VAL,A
96:353,PHE,A
97:353,PHE,B
98:354,SER,A
99:354,SER,B
100:355,GLN,A
101:355,GLN,B
102:358,LEU,A
103:358,LEU,B
104:369,LYS,B
105:369,LYS,A
106:372,TYR,A
107:372,TYR,B
108:373,ASP,B
109:373,ASP,A
110:374,ILE,A
111:374,ILE,B
112:375,VAL,B
113:375,VAL,A
114:376,GLN,A
115:376,GLN,B
116:377,ARG,B
117:377,ARG,A
118:378,ASN,A
119:378,ASN,B
120:379,ALA,A
121:379,ALA,B
122:380,LEU,B
123:380,LEU,A
124:381,LYS,B
125:381,LYS,A
126:382,THR,A
127:382,THR,B
128:383,TRP,B
129:383,TRP,A
130:384,ASN,B
131:384,ASN,A
132:389,PHE,A
133:389,PHE,B
