0:15,ARG,B
1:16,SER,A
2:16,SER,B
3:17,LYS,A
4:17,LYS,B
5:18,LYS,B
6:18,LYS,A
7:19,TYR,B
8:19,TYR,A
9:20,THR,A
10:20,THR,B
11:21,LEU,A
12:21,LEU,B
13:22,GLY,A
14:22,GLY,B
15:23,ALA,A
16:23,ALA,B
17:24,VAL,B
18:24,VAL,A
19:25,ASN,B
20:25,ASN,A
21:26,SER,B
22:26,SER,A
23:27,VAL,B
24:27,VAL,A
25:28,ILE,A
26:28,ILE,B
27:29,GLN,A
28:29,GLN,B
29:30,ARG,B
30:30,ARG,A
31:31,ALA,B
32:31,ALA,A
33:32,SER,B
34:32,SER,A
35:33,SER,B
36:33,SER,A
37:34,LEU,B
38:34,LEU,A
39:35,VAL,B
40:35,VAL,A
41:36,PHE,B
42:36,PHE,A
43:37,ASP,A
44:37,ASP,B
45:38,SER,B
46:38,SER,A
47:41,ALA,B
48:41,ALA,A
49:42,LYS,B
50:42,LYS,A
51:45,ALA,A
52:45,ALA,B
53:53,GLU,A
54:53,GLU,B
55:54,LEU,A
56:54,LEU,B
57:55,PHE,B
58:55,PHE,A
59:56,TYR,A
60:56,TYR,B
61:57,GLY,B
62:57,GLY,A
63:60,GLY,B
64:60,GLY,A
65:61,THR,B
66:61,THR,A
67:62,LEU,A
68:62,LEU,B
69:63,THR,B
70:63,THR,A
71:246,ALA,A
72:246,ALA,B
73:247,ASP,B
74:247,ASP,A
75:250,TYR,A
76:250,TYR,B
77:251,ILE,B
78:251,ILE,A
79:254,ARG,B
80:254,ARG,A
