0:2,MET,A
1:2,MET,B
2:3,ILE,A
3:3,ILE,B
4:4,ARG,A
5:4,ARG,B
6:5,GLY,B
7:6,ILE,B
8:7,ARG,B
9:8,GLY,B
10:9,ALA,B
11:15,ASP,A
12:16,THR,A
13:17,GLU,A
14:20,ILE,A
15:38,LYS,A
16:39,PRO,A
17:40,GLU,A
18:41,ASP,A
19:42,VAL,A
20:43,VAL,B
21:43,VAL,A
22:44,GLN,A
23:45,MET,A
24:45,MET,B
25:46,LEU,B
26:46,LEU,A
27:47,LEU,B
28:47,LEU,A
29:48,SER,A
30:48,SER,B
31:49,ALA,B
32:49,ALA,A
33:50,THR,A
34:50,THR,B
35:51,PRO,B
36:51,PRO,A
37:52,ASP,A
38:53,LEU,A
39:54,HIS,A
40:55,ALA,A
41:56,VAL,A
42:57,PHE,A
43:58,PRO,A
44:59,ALA,A
45:60,LYS,A
46:63,ARG,A
47:67,GLY,A
48:68,TRP,A
49:69,GLN,A
50:70,TYR,A
51:71,VAL,A
52:72,PRO,A
53:73,VAL,A
54:74,THR,A
55:75,CYS,A
56:75,CYS,B
57:76,MET,B
58:76,MET,A
59:77,GLN,B
60:77,GLN,A
61:78,GLU,A
62:78,GLU,B
63:79,MET,B
64:79,MET,A
65:80,ASP,B
66:81,VAL,B
67:82,THR,B
68:83,GLY,B
69:84,GLY,B
70:85,LEU,B
71:89,ILE,B
72:89,ILE,A
73:90,ARG,B
74:91,VAL,B
75:92,MET,B
76:93,MET,A
77:93,MET,B
78:94,THR,A
79:94,THR,B
80:95,VAL,B
81:95,VAL,A
82:96,GLN,B
83:96,GLN,A
84:97,THR,B
85:97,THR,A
86:98,ASP,B
87:99,VAL,B
88:100,PRO,B
89:101,GLN,B
90:102,ASP,B
91:103,GLN,B
92:104,ILE,B
93:105,ARG,B
94:106,HIS,B
95:107,VAL,B
96:115,LEU,B
97:116,ARG,B
98:117,PRO,B
99:118,ASP,B
100:119,LEU,B
