0:45,PHE,A
1:45,PHE,B
2:49,LEU,A
3:49,LEU,B
4:50,GLU,B
5:50,GLU,A
6:51,PHE,A
7:51,PHE,B
8:52,PRO,B
9:52,PRO,A
10:53,ASN,B
11:53,ASN,A
12:54,LEU,A
13:54,LEU,B
14:55,PRO,A
15:55,PRO,B
16:56,TYR,A
17:56,TYR,B
18:57,TYR,A
19:57,TYR,B
20:58,ILE,A
21:58,ILE,B
22:59,ASP,A
23:59,ASP,B
24:60,GLY,A
25:60,GLY,B
26:61,ASP,A
27:61,ASP,B
28:62,VAL,B
29:62,VAL,A
30:63,LYS,A
31:63,LYS,B
32:64,LEU,B
33:64,LEU,A
34:65,THR,A
35:65,THR,B
36:66,GLN,B
37:66,GLN,A
38:67,SER,A
39:67,SER,B
40:68,MET,B
41:68,MET,A
42:69,ALA,B
43:69,ALA,A
44:70,ILE,A
45:70,ILE,B
46:71,ILE,B
47:71,ILE,A
48:72,ARG,B
49:72,ARG,A
50:73,TYR,B
51:73,TYR,A
52:74,ILE,B
53:74,ILE,A
54:75,ALA,A
55:75,ALA,B
56:76,ASP,B
57:76,ASP,A
58:77,LYS,A
59:77,LYS,B
60:78,HIS,B
61:78,HIS,A
62:79,ASN,B
63:79,ASN,A
64:80,MET,B
65:80,MET,A
66:81,LEU,B
67:81,LEU,A
68:82,GLY,B
69:82,GLY,A
70:83,GLY,A
71:83,GLY,B
72:84,CYS,B
73:84,CYS,A
74:85,PRO,A
75:85,PRO,B
76:86,LYS,A
77:86,LYS,B
78:87,GLU,B
79:87,GLU,A
80:88,ARG,B
81:88,ARG,A
82:89,ALA,A
83:89,ALA,B
84:90,GLU,B
85:90,GLU,A
86:91,ILE,B
87:91,ILE,A
88:92,SER,A
89:92,SER,B
90:93,MET,A
91:93,MET,B
92:94,LEU,B
93:94,LEU,A
94:95,GLU,A
95:95,GLU,B
96:96,GLY,B
97:96,GLY,A
98:97,ALA,B
99:97,ALA,A
100:98,VAL,A
101:98,VAL,B
102:99,LEU,B
103:99,LEU,A
104:100,ASP,B
105:100,ASP,A
106:127,GLU,B
107:127,GLU,A
108:128,MET,B
109:128,MET,A
110:129,LEU,B
111:129,LEU,A
112:130,LYS,B
113:130,LYS,A
114:131,MET,B
115:131,MET,A
116:132,PHE,A
117:132,PHE,B
118:133,GLU,A
119:133,GLU,B
120:134,ASP,B
121:134,ASP,A
122:135,ARG,A
123:135,ARG,B
124:136,LEU,B
125:136,LEU,A
126:137,CYS,A
127:142,LEU,A
128:142,LEU,B
