0:1,MSE,B
1:2,ILE,B
2:3,GLN,B
3:4,SER,B
4:5,GLN,B
5:6,ILE,B
6:7,ASN,B
7:8,ARG,B
8:9,ASN,A
9:9,ASN,B
10:10,ILE,B
11:11,ARG,B
12:12,LEU,A
13:13,ASP,A
14:14,LEU,A
15:15,ALA,A
16:16,ASP,A
17:17,ALA,A
18:18,ILE,A
19:19,LEU,A
20:20,LEU,A
21:21,SER,A
22:22,LYS,A
23:23,ALA,A
24:24,LYS,A
25:25,LYS,A
26:26,ASP,A
27:27,LEU,A
28:28,SER,A
29:29,PHE,A
30:30,ALA,A
31:31,GLU,A
32:45,ALA,A
33:47,LEU,A
34:48,LEU,A
35:49,GLY,A
36:49,GLY,B
37:50,GLN,B
38:51,GLN,B
39:69,GLU,B
40:70,ASP,B
41:71,SER,B
42:72,ILE,B
43:73,LEU,B
44:74,LEU,B
45:75,LEU,B
46:76,GLN,B
47:77,MSE,B
48:78,ILE,B
49:79,PRO,B
50:80,LEU,B
51:81,ARG,B
52:82,GLY,B
53:83,CYS,A
54:83,CYS,B
55:84,ILE,A
56:84,ILE,B
57:85,ASP,A
58:85,ASP,B
59:86,ASP,B
60:86,ASP,A
61:87,ARG,A
62:87,ARG,B
63:88,ILE,B
64:88,ILE,A
65:89,PRO,A
66:90,THR,A
67:91,ASP,A
68:92,PRO,A
69:93,THR,A
70:94,MSE,A
71:95,TYR,A
72:96,ARG,A
73:122,SER,B
74:123,ALA,B
75:124,ILE,B
